Division,WeightClassKg,Place,Name,Team,BodyweightKg,Best3SquatKg,Best3BenchKg,Best3DeadliftKg,TotalKg,Equipment,Event,Sex
Boys,55.79,1,Sammy Guadarrama,Abilene Cooper,51.94,136.08,72.57,154.22,362.87,Single-ply,SBD,M
Boys,51.71,2,Damian Delacruz,Abilene Cooper,49.9,113.4,72.57,129.27,315.25,Single-ply,SBD,M
Boys,51.71,3,Jared Clark,Clyde,49.71,117.93,70.31,122.47,310.71,Single-ply,SBD,M
Boys,51.71,4,Fox Talamantes,Abilene,51.35,111.13,61.23,104.33,276.69,Single-ply,SBD,M
Boys,51.71,5,Matthew Gray #3,Tuscola Jim Ned,50.53,99.79,47.63,111.13,258.55,Single-ply,SBD,M
Boys,51.71,DQ,OJ Cano,Merkel,50.44,92.99,,,,Single-ply,SBD,M
Boys,55.79,1,Andrew Craft,Clyde,53.07,127.01,81.65,142.88,351.53,Single-ply,SBD,M
Boys,55.79,2,Gilbert Borrego,Merkel,53.25,113.4,83.91,149.69,347,Single-ply,SBD,M
Boys,55.79,3,Axel Marcenaro,Merkel,53.98,129.27,77.11,138.35,344.73,Single-ply,SBD,M
Boys,55.79,4,Tait Fullwood,Roscoe Collegiate,54.61,117.93,65.77,138.35,322.05,Single-ply,SBD,M
Boys,59.87,5,Alec Arredondo,Abilene,55.88,115.67,79.38,124.74,319.78,Single-ply,SBD,M
Boys,55.79,6,John Medina,Sweetwater,55.25,108.86,61.23,113.4,283.5,Single-ply,SBD,M
Boys,55.79,7,Zac Lambert,Abilene Cooper,54.16,70.31,63.5,79.38,213.19,Single-ply,SBD,M
Boys,59.87,1,Jonathan Michaels,Tuscola Jim Ned,57.33,149.69,97.52,151.95,399.16,Single-ply,SBD,M
Boys,59.87,2,Christian Alexander,Tuscola Jim Ned,58.69,145.15,92.99,149.69,387.82,Single-ply,SBD,M
Boys,59.87,3,Ben Lantrip,Tuscola Jim Ned,59.06,127.01,68.04,165.56,360.61,Single-ply,SBD,M
Boys,67.13,4,Isaac Ortega,Abilene,60.1,136.08,88.45,127.01,351.53,Single-ply,SBD,M
Boys,67.13,5,Austin Eubanks,Clyde,60.06,136.08,63.5,136.08,335.66,Single-ply,SBD,M
Boys,59.87,6,Joe Crockett,Cross Plains,56.7,131.54,65.77,131.54,328.85,Single-ply,SBD,M
Boys,59.87,7,Joel Lozano,Anson,59.42,124.74,72.57,131.54,328.85,Single-ply,SBD,M
Boys,67.13,8,Kasey Dean,Abilene,60.1,122.47,70.31,136.08,328.85,Single-ply,SBD,M
Boys,67.13,9,Nathan Browning,Clyde,60.06,113.4,83.91,120.2,317.51,Single-ply,SBD,M
Boys,59.87,10,Cayman Freiman,Clyde,59.15,111.13,56.7,113.4,281.23,Single-ply,SBD,M
Boys,67.13,1,Damen Hersey,Anson,65.23,142.88,79.38,163.29,385.55,Single-ply,SBD,M
Boys,67.13,2,Payton Lopez,Clyde,66.59,147.42,74.84,161.03,383.29,Single-ply,SBD,M
Boys,67.13,3,Jacob Contreras,Tuscola Jim Ned,66.41,138.35,83.91,158.76,381.02,Single-ply,SBD,M
Boys,67.13,4,Maurice Johnson,Abilene Cooper,64.55,124.74,86.18,154.22,365.14,Single-ply,SBD,M
Boys,74.84,5,Tyler Crawford,Clyde,67.31,136.08,88.45,140.61,365.14,Single-ply,SBD,M
Boys,67.13,6,Preston Buquet,Abilene Cooper,62.41,124.74,74.84,145.15,344.73,Single-ply,SBD,M
Boys,67.13,7,Austin Chambers,Clyde,64.05,102.06,70.31,138.35,310.71,Single-ply,SBD,M
Boys,67.13,8,Aaron Graham,Clyde,63.05,115.67,68.04,120.2,303.91,Single-ply,SBD,M
Boys,67.13,9,Eric Sowell,Anson,60.42,108.86,56.7,122.47,288.03,Single-ply,SBD,M
Boys,67.13,10,Mitchum Burleson,Clyde,64.41,86.18,52.16,102.06,240.4,Single-ply,SBD,M
Boys,67.13,DQ,Jacob Cantu,Abilene Cooper,62.87,124.74,79.38,,,Single-ply,SBD,M
Boys,74.84,1,Bray Amos,Sweetwater,73.48,229.06,140.61,217.72,587.4,Single-ply,SBD,M
Boys,74.84,2,Tanner Turner,Merkel,68.86,183.7,102.06,183.7,469.47,Single-ply,SBD,M
Boys,74.84,3,Kaleb Moore,Clyde,73.3,167.83,120.2,176.9,464.93,Single-ply,SBD,M
Boys,74.84,4,Matthew Fisher,Tuscola Jim Ned,70.67,158.76,113.4,183.7,455.86,Single-ply,SBD,M
Boys,74.84,5,Mason Friske,Merkel,74.3,151.95,97.52,181.44,430.91,Single-ply,SBD,M
Boys,74.84,6,Blake Proctor,Abilene,74.48,163.29,88.45,163.29,415.04,Single-ply,SBD,M
Boys,74.84,7,Spencer Little,Roscoe Collegiate,67.86,136.08,97.52,151.95,385.55,Single-ply,SBD,M
Boys,82.1,8,Branson Guelker,Sweetwater,75.02,142.88,88.45,149.69,381.02,Single-ply,SBD,M
Boys,74.84,9,Jamar Porter,Abilene Cooper,68.76,127.01,90.72,142.88,360.61,Single-ply,SBD,M
Boys,74.84,10,Blayne Keith,Clyde,72.12,145.15,77.11,127.01,349.27,Single-ply,SBD,M
Boys,74.84,11,Colton Brown,Anson,71.94,120.2,70.31,129.27,319.78,Single-ply,SBD,M
Boys,74.84,DQ,Chris Jones #21,Anson,74.12,,,,,Single-ply,SBD,M
Boys,82.1,DQ,Joseph Rees,Tuscola Jim Ned,75.07,158.76,86.18,,,Single-ply,SBD,M
Boys,74.84,DQ,Chavira Jose,Roscoe Collegiate,70.76,88.45,,,,Single-ply,SBD,M
Boys,82.1,1,Dante Gomez,Clyde,76.66,213.19,124.74,204.12,542.04,Single-ply,SBD,M
Boys,82.1,2,Matt Holmes,Merkel,76.66,174.63,120.2,192.78,487.61,Single-ply,SBD,M
Boys,82.1,3,Jaime Hernandez #3,Abilene,80.74,183.7,111.13,185.97,480.81,Single-ply,SBD,M
Boys,82.1,4,Jacob Sauer,Clyde,80.56,181.44,102.06,181.44,464.93,Single-ply,SBD,M
Boys,89.81,5,Zach Gartman,Cross Plains,82.33,192.78,90.72,179.17,462.66,Single-ply,SBD,M
Boys,89.81,6,Actavius Lowry,Abilene Cooper,82.33,172.37,113.4,174.63,460.4,Single-ply,SBD,M
Boys,89.81,7,Zach Smith #6,Abilene Cooper,82.33,172.37,111.13,174.63,458.13,Single-ply,SBD,M
Boys,82.1,8,Eduardo Marin,Anson,78.29,181.44,90.72,163.29,435.45,Single-ply,SBD,M
Boys,82.1,9,Houston Hance,Abilene Cooper,78.47,142.88,102.06,165.56,410.5,Single-ply,SBD,M
Boys,82.1,10,Dawson Faynan,Clyde,76.2,149.69,106.59,151.95,408.23,Single-ply,SBD,M
Boys,82.1,11,Malcom Thompson,Merkel,76.2,131.54,90.72,158.76,381.02,Single-ply,SBD,M
Boys,82.1,12,Noah Flowers,Abilene Cooper,78.83,117.93,63.5,136.08,317.51,Single-ply,SBD,M
Boys,82.1,DQ,Joseph Montgomery,Anson,77.38,181.44,,,,Single-ply,SBD,M
Boys,89.81,1,Ryland Madrid,Roscoe Collegiate,86.36,201.85,99.79,190.51,492.15,Single-ply,SBD,M
Boys,89.81,2,Junior Lawhon,Sweetwater,86.23,188.24,120.2,181.44,489.88,Single-ply,SBD,M
Boys,89.81,3,Dayton Mora,Abilene Cooper,83.37,167.83,95.25,195.04,458.13,Single-ply,SBD,M
Boys,89.81,4,Slayden Hansen,Anson,88.81,163.29,99.79,190.51,453.59,Single-ply,SBD,M
Boys,89.81,5,Harold Collins,Abilene,87.18,176.9,99.79,170.1,446.79,Single-ply,SBD,M
Boys,89.81,6,Nate Smith,Merkel,83.05,165.56,83.91,190.51,439.98,Single-ply,SBD,M
Boys,89.81,7,Leroy Santana,Abilene,83.55,167.83,102.06,170.1,439.98,Single-ply,SBD,M
Boys,89.81,8,Braden Kesler,Tuscola Jim Ned,82.74,138.35,81.65,206.38,426.38,Single-ply,SBD,M
Boys,89.81,9,Ethan Hough,Clyde,87.09,163.29,99.79,163.29,426.38,Single-ply,SBD,M
Boys,89.81,10,Michael Martinez,Abilene,88.9,165.56,90.72,165.56,421.84,Single-ply,SBD,M
Boys,89.81,11,James Briggs,Cross Plains,83.28,154.22,95.25,158.76,408.23,Single-ply,SBD,M
Boys,89.81,12,Chandler Smith,Tuscola Jim Ned,85.64,156.49,102.06,147.42,405.97,Single-ply,SBD,M
Boys,89.81,13,Alex Ryan,Abilene,85.64,163.29,95.25,145.15,403.7,Single-ply,SBD,M
Boys,89.81,14,Mikey Anderson,Merkel,87.63,147.42,88.45,151.95,387.82,Single-ply,SBD,M
Boys,89.81,15,John Clift,Sweetwater,88.27,136.08,83.91,154.22,374.21,Single-ply,SBD,M
Boys,89.81,16,Shane Thomas,Clyde,88,142.88,83.91,129.27,356.07,Single-ply,SBD,M
Boys,89.81,DQ,Austin Rodgers,Clyde,82.92,147.42,,,,Single-ply,SBD,M
Boys,89.81,DQ,Zach Garcia,Sweetwater,85.64,172.37,115.67,,,Single-ply,SBD,M
Boys,109.77,1,Jon Mathews,Tuscola Jim Ned,99.97,226.8,113.4,231.33,571.53,Single-ply,SBD,M
Boys,99.79,2,Dalton Gilliam,Cross Plains,91.08,199.58,120.2,204.12,523.9,Single-ply,SBD,M
Boys,99.79,3,Dylan Jimenez,Sweetwater,98.07,210.92,106.59,195.04,512.56,Single-ply,SBD,M
Boys,99.79,4,Blake Parker,Abilene Cooper,93.8,195.04,120.2,183.7,498.95,Single-ply,SBD,M
Boys,99.79,5,Raymond Delgado,Sweetwater,94.26,181.44,124.74,190.51,496.68,Single-ply,SBD,M
Boys,99.79,6,Jonathan Castaneda,Abilene Cooper,99.79,183.7,104.33,199.58,487.61,Single-ply,SBD,M
Boys,99.79,7,Gabriel Craig,Abilene Cooper,96.16,174.63,113.4,195.04,483.08,Single-ply,SBD,M
Boys,99.79,8,Matthew Trevino,Abilene,99.06,201.85,104.33,174.63,480.81,Single-ply,SBD,M
Boys,99.79,9,Michael Pullen,Abilene Cooper,90.36,174.63,104.33,190.51,469.47,Single-ply,SBD,M
Boys,99.79,10,Nain Martinez,Cross Plains,94.71,176.9,102.06,158.76,437.72,Single-ply,SBD,M
Boys,99.79,11,Jax Pimentel,Clyde,91.72,165.56,97.52,158.76,421.84,Single-ply,SBD,M
Boys,109.77,12,Logan Bross,Abilene,100.02,170.1,90.72,136.08,396.89,Single-ply,SBD,M
Boys,99.79,13,Zach Winslett,Sweetwater,92.99,142.88,88.45,149.69,381.02,Single-ply,SBD,M
Boys,99.79,14,Kheland Smith,Clyde,94.62,145.15,90.72,138.35,374.21,Single-ply,SBD,M
Boys,99.79,15,Cade Schwandner,Clyde,99.79,136.08,79.38,151.95,367.41,Single-ply,SBD,M
Boys,99.79,16,Zack Thompson,Abilene,92.9,165.56,81.65,113.4,360.61,Single-ply,SBD,M
Boys,99.79,DQ,Roadey Mann,Roscoe Collegiate,95.44,131.54,,,,Single-ply,SBD,M
Boys,109.77,1,Haddan Stokes,Clyde,108.59,288.03,165.56,226.8,680.39,Single-ply,SBD,M
Boys,109.77,2,Damian Guevara,Abilene,105.51,226.8,154.22,204.12,585.13,Single-ply,SBD,M
Boys,109.77,3,Mikey Taylor,Merkel,109.41,213.19,129.27,215.46,557.92,Single-ply,SBD,M
Boys,109.77,4,Robert Bellman,Abilene Cooper,104.05,195.04,113.4,213.19,521.63,Single-ply,SBD,M
Boys,124.74,5,Walker Akers,Abilene Cooper,110,204.12,104.33,210.92,519.36,Single-ply,SBD,M
Boys,109.77,6,Jonathon Arrieta,Anson,102.51,192.78,97.52,192.78,483.08,Single-ply,SBD,M
Boys,109.77,7,Zach Thompson,Cross Plains,103.15,197.31,104.33,181.44,483.08,Single-ply,SBD,M
Boys,124.74,8,Martin Prieto,Merkel,110,163.29,92.99,183.7,439.98,Single-ply,SBD,M
Boys,109.77,9,Collins Gardner,Anson,106.96,158.76,95.25,142.88,396.89,Single-ply,SBD,M
Boys,109.77,10,Miguel Valdez,Clyde,100.7,124.74,79.38,136.08,340.19,Single-ply,SBD,M
Boys,124.74,1,Dawson Worgull,Abilene,114.94,226.8,124.74,222.26,573.79,Single-ply,SBD,M
Boys,124.74,2,Slayde Anderson,Abilene,123.29,226.8,133.81,213.19,573.79,Single-ply,SBD,M
Boys,124.74,3,Noah Perez,Abilene,114.8,192.78,140.61,181.44,514.83,Single-ply,SBD,M
Boys,124.74,4,Tanner Underwood,Tuscola Jim Ned,117.57,199.58,115.67,170.1,485.34,Single-ply,SBD,M
Boys,124.74,5,John Arellano,Abilene Cooper,114.76,188.24,111.13,183.7,483.08,Single-ply,SBD,M
Boys,124.74,6,Anthony Arrellano,Abilene Cooper,112.49,183.7,106.59,183.7,474,Single-ply,SBD,M
Boys,124.74,7,John Adkins,Clyde,113.76,183.7,104.33,165.56,453.59,Single-ply,SBD,M
Boys,124.74,8,Jayton Voss,Abilene,118.21,174.63,102.06,147.42,424.11,Single-ply,SBD,M
Boys,124.74,9,John Castillo,Roscoe Collegiate,116.85,142.88,90.72,163.29,396.89,Single-ply,SBD,M
Boys,124.74,DQ,Isaias Aguilar,Roscoe Collegiate,122.47,210.92,133.81,,,Single-ply,SBD,M
Boys,124.74+,1,Jesus Verastegui,Abilene,154.22,288.03,161.03,215.46,664.51,Single-ply,SBD,M
Boys,124.74+,2,Evan Tate,Tuscola Jim Ned,141.79,244.94,140.61,235.87,621.42,Single-ply,SBD,M
Boys,124.74+,3,Ruben Leija,Abilene,129.09,204.12,129.27,210.92,544.31,Single-ply,SBD,M
Boys,124.74+,4,Marquise Lyons,Abilene,127.19,201.85,108.86,163.29,474,Single-ply,SBD,M
