Place,WeightClassKg,Name,State,Sex,BodyweightKg,Best3SquatKg,Best3BenchKg,Best3DeadliftKg,TotalKg,Division,Event,Equipment
1,75,Kelly Pickering,TX,F,74.12,,57.5,,57.5,wbpmp,B,Raw
1,60,Larrin Ford,TX,F,59.01,137.5,70,155,362.5,wsm2,SBD,Wraps
1,75,Maria Stamatis,TX,F,68.08,147.5,70,167.5,385,wint,SBD,Wraps
1,90+,LaTosha Cleaver,TX,F,90.72,147.5,80,216,443.5,wsm2,SBD,Wraps
1,90+,Nima Weatherly,OK,F,93.53,157.5,95,197.5,450,wm1,SBD,Wraps
1,90+,Nima Weatherly,OK,F,93.53,157.5,95,197.5,450,wmp,SBD,Wraps
1,75,Jennifer O'Laughlin,TX,F,73.21,125,75,175,375,wnov,SBD,Wraps
1,67.5,Amy Box,OK,F,67.22,137.5,60,157.5,355,wsm1,SBD,Wraps
1,75,Amy Ramirez,TX,F,72.21,140,60,155,355,wpure,SBD,Wraps
2,60,Rebecca Thompson,TX,F,56.61,112.5,60,130,302.5,wsm2,SBD,Wraps
1,90+,Kathryn Case,TX,F,134.31,172.5,90,167.5,430,wopen,SBD,Wraps
1,90+,Kathryn Case,TX,F,134.31,172.5,90,167.5,430,wsm1,SBD,Wraps
1,90+,Stephanie Thomas,TX,F,144.79,107.5,57.5,152.5,317.5,retrowopen,SBD,Raw
1,90,Mindi Green,TX,F,88.81,95,42.5,102.5,240,retrowopen,SBD,Raw
1,75,Jennifer Seaton,TX,F,74.84,52.5,30,80,162.5,retrowopen,SBD,Raw
1,90+,LaTosha Cleaver,TX,F,90.72,,80,216,296,wsm2,BD,Raw
1,75,Kelly Pickering,TX,F,74.12,,57.5,110,167.5,wmp,BD,Raw
1,60,Larrin Ford,TX,F,59.01,,,155,155,wsm2,D,Raw
1,44,Kristen Brown,TX,F,43.14,,,60,60,wteen,D,Raw
1,60,Emillee Brown,TX,F,59.87,,,75,75,wteen,D,Raw
1,90+,LaTosha Cleaver,TX,F,90.72,,80,216,296,wsmp,BD,Raw
1,90+,Nima Weatherly,OK,F,93.53,,95,197.5,292.5,wm1,BD,Raw
1,90+,Nima Weatherly,OK,F,93.53,,95,197.5,292.5,wopen,BD,Raw
1,75,Melinda Carter,TX,F,73.71,,72.5,132.5,205,wm1,BD,Raw
1,75,Kelly Pickering,TX,F,74.12,,57.5,110,167.5,wmp,BD,Raw
1,44,Kayla Jackson,LA,F,43.59,115,55,117.5,287.5,wteen,SBD,Single-ply
1,90+,Zuri Garcia,TX,F,113.04,187.5,82.5,152.5,422.5,whs,SBD,Single-ply
1,90,Madison Mills,TX,F,88.04,147.5,77.5,135,360,whs,SBD,Single-ply
1,60,Amy Jeffries,TX,F,56.47,100,47.5,100,247.5,whs,SBD,Single-ply
1,110,Ruben Sanchez,TX,M,108.59,310,250,287.5,847.5,jr,SBD,Single-ply
1,56,Lawrence Irchiri,LA,M,55.84,175,102.5,197.5,475,teen,SBD,Single-ply
1,140,Jerry Daniel,TX,M,129.05,282.5,165,275,722.5,open,SBD,Single-ply
1,75,Brock Martin,TX,M,68.54,192.5,112.5,205,510,hs,SBD,Single-ply
2,75,Jesus Perez,TX,M,74.43,192.5,102.5,205,500,hs,SBD,Single-ply
1,60,Jeremy Cuellar,TX,M,57.88,147.5,100,175,422.5,teen,SBD,Single-ply
1,100,Hayden Muns,TX,M,98.93,192.5,125,227.5,545,nov,SBD,Single-ply
3,75,Brendan Alexander,TX,M,68.08,165,95,177.5,437.5,hs,SBD,Single-ply
1,90,Jacob Forsythe,TX,M,83.78,175,100,180,455,hs,SBD,Single-ply
1,67.5,Justan Vaughan,TX,M,66.13,130,77.5,157.5,365,hs,SBD,Single-ply
1,140,Miguel Garcia,TX,M,128.14,182.5,102.5,217.5,502.5,nov,SBD,Single-ply
1,110,Josh Caruso,TX,M,101.97,157.5,82.5,182.5,422.5,hs,SBD,Single-ply
1,125,Henry Thomason,TX,M,116.35,,,250,250,open,D,Single-ply
1,110,Ray Ortiz,OK,M,104.96,,252.5,,252.5,m2,B,Single-ply
1,110,Ray Ortiz,OK,M,104.96,,252.5,,252.5,open,B,Single-ply
1,110,Ray Ortiz,OK,M,104.96,,252.5,,252.5,p+f,B,Single-ply
2,110,Ruben Sanchez,TX,M,108.59,,250,,250,open,B,Single-ply
1,100,Bill Taylor,AR,M,97.02,,92.5,,92.5,m4,B,Single-ply
1,100,Bill Taylor,AR,M,97.02,,92.5,,92.5,pure,B,Single-ply
1,90,Mark Reynolds,TX,M,85.59,,160,295,455,pure,BD,Raw
1,110,Sebastian Lozano,TX,M,104.64,,172.5,242.5,415,open,BD,Raw
1,110,Sebastian Lozano,TX,M,104.64,,172.5,242.5,415,pure,BD,Raw
1,110,Sebastian Lozano,TX,M,104.64,,172.5,242.5,415,sm1,BD,Raw
1,110,Sebastian Lozano,TX,M,104.64,,172.5,242.5,415,smp,BD,Raw
1,125,Ronnie Snowton,TX,M,122.38,,205,240,445,m2,BD,Raw
1,100,Jesse Cleaver,TX,M,97.16,,117.5,290,407.5,sm1,BD,Raw
1,75,Chad Tucker,AR,M,71.67,,115,217.5,332.5,jr,BD,Raw
1,125,Ronnie Snowton,TX,M,122.38,,205,,205,bpm2,B,Raw
1,110,Michael Brown #11,TX,M,104.33,,147.5,,147.5,bphc,B,Raw
1,125,Grover Anthony,TX,M,118.93,,137.5,,137.5,bpsm2,B,Raw
1,75,Terry Hedrick,TX,M,69.72,,105,,105,bpm3,B,Raw
1,140+,Warren Norris,TX,M,174.22,,165,,165,bpm2,B,Raw
1,75,Danny Harris,OK,M,73.39,,55,,55,bpm2,B,Raw
1,75,Danny Harris,OK,M,73.39,,55,,55,bpm5,B,Raw
1,67.5,Christian Kearney,TX,M,64.73,220,117.5,285,622.5,int,SBD,Wraps
1,67.5,Christian Kearney,TX,M,64.73,220,117.5,285,622.5,open,SBD,Wraps
1,67.5,Christian Kearney,TX,M,64.73,220,117.5,285,622.5,pure,SBD,Wraps
1,110,Chris Torres,TX,M,109.32,292.5,200,295,787.5,int,SBD,Wraps
1,75,Victor Solis,TX,M,73.3,220,132.5,245,597.5,int,SBD,Wraps
1,140,Alex Hamblin,TX,M,128.64,300,190,277.5,767.5,p+f,SBD,Wraps
1,140,Alex Hamblin,TX,M,128.64,300,190,277.5,767.5,sm1,SBD,Wraps
1,140+,Darron Sheppard,TX,M,147.19,300,202.5,290,792.5,sm1,SBD,Wraps
1,82.5,Ben Sherwood,TX,M,77.75,217.5,142.5,230,590,int,SBD,Wraps
1,125,James Dunn #3,TX,M,116.53,292.5,132.5,292.5,717.5,m1,SBD,Wraps
1,140,John Caruso,TX,M,138.57,255,192.5,303.5,751,open,SBD,Wraps
1,140,Jerry Daniel,TX,M,129.05,282.5,165,275,722.5,teen,SBD,Wraps
1,82.5,Jose Escobar,TX,M,79.42,217.5,135,210,562.5,jr,SBD,Wraps
1,75,Chad Tucker,AR,M,71.67,185,115,217.5,517.5,jr,SBD,Wraps
1,75,Chad Tucker,AR,M,71.67,185,115,217.5,517.5,open,SBD,Wraps
1,75,Chad Tucker,AR,M,71.67,185,115,217.5,517.5,p+f,SBD,Wraps
1,125,Grover Anthony,TX,M,118.93,227.5,137.5,265,630,retrosm2,SBD,Raw
1,125,Victor Gomez,TX,M,116.03,197.5,157.5,267.5,622.5,int,SBD,Wraps
1,110,Benjamin Brock,TX,M,103.06,197.5,160,217.5,575,mp,SBD,Wraps
1,110,Justin Brown,TX,M,100.24,197.5,127.5,215,540,jr,SBD,Wraps
2,110,Dustin Shilling,OK,M,108.41,197.5,115,227.5,540,int,SBD,Wraps
1,110,Dustin Shilling,OK,M,108.41,197.5,115,227.5,540,open,SBD,Wraps
1,140+,Thomas Martin,TX,M,143.24,220,125,250,595,int,SBD,Wraps
1,90,Ben Khosravi,TX,M,83.14,152.5,107.5,182.5,442.5,retroint,SBD,Raw
1,125,Seth Ford,TX,M,119.98,165,147.5,210,522.5,sm2,SBD,Wraps
1,90,Parke Scudday,TX,M,88.54,182.5,90,177.5,450,teen,SBD,Wraps
1,100,Terry Watts,TX,M,98.97,150,127.5,175,452.5,retrom1,SBD,Raw
1,100,Terry Watts,TX,M,98.97,150,127.5,175,452.5,retroopen,SBD,Raw
1,100,Chad Loya,TX,M,94.71,117.5,95,140,352.5,nov,SBD,Wraps
1,75,Brett Oliver,TX,M,72.3,92.5,62.5,135,290,hs,SBD,Wraps
1,40,Connor Ford,TX,M,39.73,20,17.5,32.5,70,youth,SBD,Wraps
1,90,Mark Reynolds,TX,M,85.59,,160,295,455,pure,BD,Raw
1,82.5,Ben Sherwood,TX,M,77.75,,142.5,230,372.5,pure,BD,Raw
1,82.5,Nicolos Golden,TX,M,82.1,,97.5,260,357.5,hs,BD,Raw
1,110,Michael Brown #11,TX,M,104.33,,147.5,227.5,375,hc,BD,Raw
1,82.5,Shawn Kivela,TX,M,81.1,,115,195,310,mp,BD,Raw
1,140+,Thomas Martin,TX,M,143.24,,137.5,250,387.5,int,BD,Raw
1,75,Robert Ortega,TX,M,70.67,,90,155,245,m3,BD,Raw
1,110,Lyndon LaPlante,TX,M,109.54,,75,160,235,so,BD,Raw
1,100,Jay Youngblood,TX,M,97.25,,125,212.5,337.5,m2,BD,Single-ply
1,75,Chad Tucker,AR,M,71.67,,115,,115,p+f,B,Raw
1,110,Lyndon LaPlante,TX,M,109.54,,75,,75,so,B,Raw
