Division,WeightClassKg,Place,Name,Team,BodyweightKg,Best3SquatKg,Best3BenchKg,Best3DeadliftKg,TotalKg,Equipment,Event,Sex
Boys,51.71,1,Bryan Quinteros,Lamesa,50.53,124.74,74.84,124.74,324.32,Single-ply,SBD,M
Boys,51.71,2,Jayton Pimentel,Clyde,49.44,102.06,56.7,90.72,249.48,Single-ply,SBD,M
Boys,51.71,DQ,Aaron Siller,Hawley,49.44,108.86,,,,Single-ply,SBD,M
Boys,55.79,1,Omar Alonso,Snyder,55.34,174.63,99.79,165.56,439.98,Single-ply,SBD,M
Boys,59.87,1,Luke Krueger,Snyder,58.97,199.58,88.45,190.51,478.54,Single-ply,SBD,M
Boys,59.87,2,Johnny Donnelly,Hawley,58.15,183.7,90.72,181.44,455.86,Single-ply,SBD,M
Boys,59.87,3,Greg Williams,Snyder,59.87,161.03,86.18,151.95,399.16,Single-ply,SBD,M
Boys,59.87,DQ,Justin Cuellar,Coahoma,59.87,,,,,Single-ply,SBD,M
Boys,67.13,1,Johnathan Rankin,Colorado City Colorado,66.95,199.58,120.2,215.46,535.24,Single-ply,SBD,M
Boys,67.13,2,Zach Burt,Hawley,66.22,172.37,111.13,176.9,460.4,Single-ply,SBD,M
Boys,67.13,3,John Lugo,Ralls,67.13,188.24,99.79,170.1,458.13,Single-ply,SBD,M
Boys,67.13,4,Tim Aynes,Lamesa,66.04,183.7,92.99,170.1,446.79,Single-ply,SBD,M
Boys,67.13,5,Brendyn LeBlanc,Seminole,61.96,163.29,99.79,167.83,430.91,Single-ply,SBD,M
Boys,67.13,6,Isiah Zavala,Ralls,61.6,165.56,97.52,163.29,426.38,Single-ply,SBD,M
Boys,67.13,7,Rj Hoffman,Clyde,63.96,183.7,72.57,149.69,405.97,Single-ply,SBD,M
Boys,67.13,8,Ali Mata,Snyder,64.86,142.88,86.18,172.37,401.43,Single-ply,SBD,M
Boys,67.13,9,Elisio Maldonado,Lamesa,66.77,102.06,70.31,129.27,301.64,Single-ply,SBD,M
Boys,74.84,1,Ransom Edwards,Seminole,69.85,190.51,92.99,204.12,487.61,Single-ply,SBD,M
Boys,74.84,2,Evan Gravell,Bangs,72.21,167.83,117.93,188.24,474,Single-ply,SBD,M
Boys,74.84,3,Austin Eubanks,Clyde,69.94,195.04,88.45,158.76,442.25,Single-ply,SBD,M
Boys,74.84,4,Michael Flores #2,Lamesa,73.12,154.22,97.52,188.24,439.98,Single-ply,SBD,M
Boys,74.84,5,Akimas Clarrett,Colorado City Colorado,68.4,136.08,88.45,167.83,392.36,Single-ply,SBD,M
Boys,74.84,6,Jeremey Flores,Ralls,70.67,120.2,70.31,156.49,347,Single-ply,SBD,M
Boys,74.84,7,Leo Garcia-Sanchez,Hawley,74.84,102.06,74.84,136.08,312.98,Single-ply,SBD,M
Boys,74.84,DQ,Brett Brunson,Snyder,74.39,,,,,Single-ply,SBD,M
Boys,74.84,DQ,Alex Rubio,Snyder,73.94,,,,,Single-ply,SBD,M
Boys,82.1,1,Gerardo Cabrera,Snyder,81.42,215.46,97.52,213.19,526.17,Single-ply,SBD,M
Boys,82.1,2,Ian Alvidrez,Seminole,81.92,183.7,122.47,213.19,519.36,Single-ply,SBD,M
Boys,82.1,3,Jj Burns,Snyder,78.93,185.97,97.52,195.04,478.54,Single-ply,SBD,M
Boys,82.1,4,Pedro Villarreal,Ralls,76.84,181.44,113.4,181.44,476.27,Single-ply,SBD,M
Boys,82.1,5,Clayton Culp,Lamesa,79.29,138.35,72.57,142.88,353.8,Single-ply,SBD,M
Boys,82.1,6,Jesus Martinez,Seminole,80.1,111.13,68.04,124.74,303.91,Single-ply,SBD,M
Boys,82.1,DQ,Jesse Sites,Hawley,80.01,,,,,Single-ply,SBD,M
Boys,89.81,1,Emmanuel Dominguez,Seminole,86.27,213.19,106.59,208.65,528.44,Single-ply,SBD,M
Boys,99.79,1,Caleb Willis,Clyde,93.71,226.8,136.08,213.19,576.06,Single-ply,SBD,M
Boys,99.79,2,Jacob Collier,Cross Plains,99.79,217.72,122.47,204.12,544.31,Single-ply,SBD,M
Boys,99.79,3,Alex Jaimes,Snyder,97.98,226.8,115.67,190.51,532.97,Single-ply,SBD,M
Boys,99.79,4,Eric Rinehart,Snyder,90.26,204.12,111.13,204.12,519.36,Single-ply,SBD,M
Boys,99.79,5,Bobby Zambrano,Coahoma,94.26,197.31,124.74,197.31,519.36,Single-ply,SBD,M
Boys,99.79,6,Ariel Delgado,Seminole,93.08,199.58,106.59,210.92,517.1,Single-ply,SBD,M
Boys,99.79,7,Shane Thomas,Clyde,95.35,183.7,124.74,174.63,483.08,Single-ply,SBD,M
Boys,99.79,8,Hector Cruz,Colorado City Colorado,99.79,158.76,88.45,147.42,394.63,Single-ply,SBD,M
Boys,99.79,9,Josh Sosa,Colorado City Colorado,91.63,136.08,65.77,158.76,360.61,Single-ply,SBD,M
Boys,109.77,1,Moses Rodriquez,Lamesa,107.05,226.8,151.95,206.38,585.13,Single-ply,SBD,M
Boys,109.77,2,Austin Schoonmaker,Clyde,102.69,197.31,127.01,192.78,517.1,Single-ply,SBD,M
Boys,109.77,3,Ethan Martinez,Lamesa,104.51,192.78,124.74,197.31,514.83,Single-ply,SBD,M
Boys,109.77,4,Michael Huff,Colorado City Colorado,106.5,188.24,108.86,174.63,471.74,Single-ply,SBD,M
Boys,109.77,5,Omar Carrillo,Colorado City Colorado,99.97,179.17,102.06,183.7,464.93,Single-ply,SBD,M
Boys,124.74,1,Sean Humphrey,Snyder,123.51,294.84,176.9,226.8,698.53,Single-ply,SBD,M
Boys,124.74,2,Ivien Gonzales,Lamesa,117.48,247.21,138.35,206.38,591.94,Single-ply,SBD,M
Boys,124.74,3,Miguel Valdez,Clyde,114.03,217.72,145.15,190.51,553.38,Single-ply,SBD,M
Boys,124.74,4,Bradon Upshaw,Colorado City Colorado,120.66,201.85,127.01,197.31,526.17,Single-ply,SBD,M
Boys,124.74+,1,Justin Trawick,Colorado City Colorado,124.78,272.16,147.42,242.67,662.24,Single-ply,SBD,M
Boys,124.74+,2,John Adkins,Clyde,128.46,254.01,147.42,240.4,641.83,Single-ply,SBD,M
Boys,124.74+,3,Kobe Fahntrapp,Snyder,125.65,240.4,147.42,226.8,614.62,Single-ply,SBD,M
Boys,124.74+,4,Chris De La Garza,Clyde,141.43,229.06,136.08,210.92,576.06,Single-ply,SBD,M
Boys,124.74+,5,Avian Hernandez,Colorado City Colorado,126.1,226.8,120.2,210.92,557.92,Single-ply,SBD,M
Boys,124.74+,DQ,Ray Leon,Hawley,131.54,249.48,,,,Single-ply,SBD,M
Boys,,NS,Braidon Walker,Coahoma,,,,,,Single-ply,SBD,M
Boys,,NS,Alex Garza,Lamesa,,,,,,Single-ply,SBD,M
Boys,,NS,Giovanny Ortiz,Lamesa,,,,,,Single-ply,SBD,M
Boys,,NS,Marcos Gutierrez,Colorado City Colorado,,,,,,Single-ply,SBD,M
Boys,,NS,Noe Gonzales,Lamesa,,,,,,Single-ply,SBD,M
Boys,,NS,Moises Leanos,Colorado City Colorado,,,,,,Single-ply,SBD,M
