Division,WeightClassKg,Place,Name,Team,BodyweightKg,Best3SquatKg,Best3BenchKg,Best3DeadliftKg,TotalKg,Equipment,Event,Sex
Boys,51.71,1,Chase Chapa,Port Lavaca Calhoun,51.35,136.08,88.45,142.88,367.41,Single-ply,SBD,M
Boys,51.71,2,Pedro Saldivar,Kyle Lehman,51.44,113.4,56.7,131.54,301.64,Single-ply,SBD,M
Boys,51.71,3,Jack Dombrowski,Dripping Springs,50.98,106.59,61.23,131.54,299.37,Single-ply,SBD,M
Boys,51.71,4,Eli Edwards,Seguin,49.62,104.33,61.23,120.2,285.76,Single-ply,SBD,M
Boys,51.71,5,Canaan Casey,Seguin,47.45,65.77,34.02,90.72,190.51,Single-ply,SBD,M
Boys,55.79,1,Ivan Venegas,Dripping Springs,55.79,179.17,99.79,176.9,455.86,Single-ply,SBD,M
Boys,55.79,2,Jose Hernandez #13,Corpus Christi West Oso,55.79,158.76,74.84,172.37,405.97,Single-ply,SBD,M
Boys,55.79,3,Tucker Klein,Fredericksburg,55.79,117.93,72.57,138.35,328.85,Single-ply,SBD,M
Boys,55.79,4,Damion Martinez,Rockport-Fulton,53.71,113.4,58.97,124.74,297.1,Single-ply,SBD,M
Boys,55.79,5,Cheney Stephenson,Seguin,55.7,95.25,49.9,102.06,247.21,Single-ply,SBD,M
Boys,55.79,DQ,Evan Smith,Port Lavaca Calhoun,55.79,133.81,,,,Single-ply,SBD,M
Boys,59.87,1,Jakob Cortez,Port Lavaca Calhoun,58.06,161.03,86.18,147.42,394.63,Single-ply,SBD,M
Boys,59.87,DQ,Joel Huerta,San Antonio East Central,59.24,,,,,Single-ply,SBD,M
Boys,67.13,1,Cody Elizalde,Seguin,66.13,222.26,124.74,226.8,573.79,Single-ply,SBD,M
Boys,67.13,2,Ray Heiser,Kyle Lehman,65.68,183.7,108.86,181.44,474,Single-ply,SBD,M
Boys,67.13,3,Jose Monuz,Port Lavaca Calhoun,63.41,181.44,102.06,176.9,460.4,Single-ply,SBD,M
Boys,67.13,4,Chandler Brill,Kyle Lehman,67.13,174.63,111.13,174.63,460.4,Single-ply,SBD,M
Boys,67.13,5,Derrick Rodriguez,San Antonio East Central,63.32,183.7,108.86,165.56,458.13,Single-ply,SBD,M
Boys,67.13,6,Michael Martinez,San Antonio East Central,64.77,183.7,92.99,176.9,453.59,Single-ply,SBD,M
Boys,67.13,7,Dean Jimenez,San Antonio East Central,63.96,188.24,97.52,165.56,451.32,Single-ply,SBD,M
Boys,67.13,8,Oscar Garza,Elgin,66.68,147.42,77.11,117.93,342.46,Single-ply,SBD,M
Boys,67.13,DQ,Zyle Nance,Dripping Springs,63.59,147.42,,,,Single-ply,SBD,M
Boys,67.13,DQ,Juan Rios,Dripping Springs,65.32,,,,,Single-ply,SBD,M
Boys,74.84,1,Brandon Palomares,Seguin,67.9,249.48,131.54,238.14,619.15,Single-ply,SBD,M
Boys,74.84,2,Chris Ceballos,Rockport-Fulton,73.12,204.12,138.35,208.65,551.11,Single-ply,SBD,M
Boys,74.84,3,Mike Joseph,Elgin,74.75,210.92,117.93,219.99,548.85,Single-ply,SBD,M
Boys,74.84,4,Devon Soto,Seguin,74.71,199.58,120.2,188.24,508.02,Single-ply,SBD,M
Boys,74.84,5,Josh Handley,Fredericksburg,74.84,163.29,115.67,195.04,474,Single-ply,SBD,M
Boys,74.84,6,Dax Dietrich,Fredericksburg,70.67,170.1,106.59,163.29,439.98,Single-ply,SBD,M
Boys,74.84,7,Marcus Oliva,Lockhart,69.13,145.15,115.67,165.56,426.38,Single-ply,SBD,M
Boys,74.84,8,Hunter Metzger,Fredericksburg,73.84,149.69,95.25,154.22,399.16,Single-ply,SBD,M
Boys,74.84,9,Jesau Batres,Lockhart,69.49,149.69,83.91,136.08,369.68,Single-ply,SBD,M
Boys,74.84,10,Luke Benefield,Leander Rouse,74.84,129.27,92.99,147.42,369.68,Single-ply,SBD,M
Boys,74.84,11,Gavin West,Fredericksburg,71.03,104.33,61.23,129.27,294.84,Single-ply,SBD,M
Boys,74.84,DQ,Jarrett Beard,Fredericksburg,72.21,147.42,79.38,,,Single-ply,SBD,M
Boys,74.84,DQ,Juan Venegas,Dripping Springs,72.57,183.7,120.2,,,Single-ply,SBD,M
Boys,74.84,DQ,Kiran Payton,Kyle Lehman,68.58,,,,,Single-ply,SBD,M
Boys,82.1,1,Matt Hemphill,Dripping Springs,81.65,272.16,170.1,242.67,684.92,Single-ply,SBD,M
Boys,82.1,2,Eh Klo Htoo,Port Lavaca Calhoun,82.01,254.01,127.01,231.33,612.35,Single-ply,SBD,M
Boys,82.1,3,Devin Norman,Lockhart,80.01,206.38,142.88,213.19,562.45,Single-ply,SBD,M
Boys,82.1,4,Zack Pulido,Rockport-Fulton,81.83,226.8,131.54,197.31,555.65,Single-ply,SBD,M
Boys,82.1,5,Victor Torres,Kyle Lehman,81.37,199.58,122.47,195.04,517.1,Single-ply,SBD,M
Boys,82.1,6,Jacob Brake,Rockport-Fulton,80.74,172.37,124.74,206.38,503.49,Single-ply,SBD,M
Boys,82.1,7,Luis Trujillo,Rockport-Fulton,80.47,188.24,115.67,197.31,501.22,Single-ply,SBD,M
Boys,82.1,8,Eston Epton,Fredericksburg,81.47,172.37,117.93,185.97,476.27,Single-ply,SBD,M
Boys,82.1,9,Tristan Birch,Lockhart,77.11,136.08,102.06,176.9,415.04,Single-ply,SBD,M
Boys,82.1,10,James Gambrell,Leander Rouse,77.02,142.88,102.06,156.49,401.43,Single-ply,SBD,M
Boys,82.1,11,Aaren Casillas,Lockhart,79.47,147.42,81.65,165.56,394.63,Single-ply,SBD,M
Boys,82.1,12,Noah Ruiz,San Antonio East Central,77.66,136.08,86.18,165.56,387.82,Single-ply,SBD,M
Boys,82.1,13,Marshall Clark,San Antonio East Central,79.47,147.42,81.65,145.15,374.21,Single-ply,SBD,M
Boys,82.1,DQ,Nick Padron,San Antonio East Central,80.2,,,,,Single-ply,SBD,M
Boys,82.1,DQ,Matt Garza,Corpus Christi West Oso,76.02,181.44,97.52,,,Single-ply,SBD,M
Boys,89.81,1,Harley Ullrich,Seguin,88.22,235.87,145.15,215.46,596.47,Single-ply,SBD,M
Boys,89.81,2,Will Sebera,Fredericksburg,87,199.58,120.2,226.8,546.58,Single-ply,SBD,M
Boys,89.81,3,Alex Hernandez #4,Rockport-Fulton,89.63,192.78,117.93,183.7,494.42,Single-ply,SBD,M
Boys,89.81,4,Caleb Driskell,Leander Rouse,85.91,183.7,97.52,158.76,439.98,Single-ply,SBD,M
Boys,89.81,5,Caleb Key,Dripping Springs,88.68,172.37,92.99,174.63,439.98,Single-ply,SBD,M
Boys,89.81,DQ,Jake Cox,Dripping Springs,86.64,226.8,,,,Single-ply,SBD,M
Boys,89.81,DQ,Jaime Rios,Port Lavaca Calhoun,87.09,258.55,,,,Single-ply,SBD,M
Boys,89.81,DQ,Juan Salazar,Seguin,83.19,195.04,120.2,,,Single-ply,SBD,M
Boys,99.79,1,Garrett Luensmann,Seguin,99.34,260.82,142.88,254.01,657.71,Single-ply,SBD,M
Boys,99.79,2,Raul Fernandez,Rockport-Fulton,95.25,242.67,136.08,238.14,616.89,Single-ply,SBD,M
Boys,99.79,3,Sylias Montgomery,Port Lavaca Calhoun,93.89,249.48,120.2,244.94,614.62,Single-ply,SBD,M
Boys,99.79,4,Luke Michael,Rockport-Fulton,95.35,235.87,138.35,210.92,585.13,Single-ply,SBD,M
Boys,99.79,5,Jeremiah Aviles,Seguin,91.81,192.78,140.61,210.92,544.31,Single-ply,SBD,M
Boys,99.79,6,Eduardo Ventura,Kyle Lehman,95.16,213.19,120.2,197.31,530.7,Single-ply,SBD,M
Boys,99.79,7,Jerome Wreh,Elgin,98.43,215.46,115.67,183.7,514.83,Single-ply,SBD,M
Boys,99.79,8,Colby Collins,Dripping Springs,92.99,190.51,97.52,183.7,471.74,Single-ply,SBD,M
Boys,99.79,9,Daylin Weiderstein,San Antonio East Central,99.34,176.9,97.52,190.51,464.93,Single-ply,SBD,M
Boys,99.79,10,Alexis Lujan,Kyle Lehman,90.36,151.95,108.86,151.95,412.77,Single-ply,SBD,M
Boys,99.79,11,Nathan Erickson,Dripping Springs,98.61,149.69,95.25,136.08,381.02,Single-ply,SBD,M
Boys,99.79,12,Kolby Wright,Fredericksburg,90.81,120.2,72.57,136.08,328.85,Single-ply,SBD,M
Boys,99.79,DQ,Juan Castillo,Elgin,95.35,210.92,97.52,,,Single-ply,SBD,M
Boys,109.77,1,Keane Davis,Seguin,109.45,247.21,145.15,254.01,646.37,Single-ply,SBD,M
Boys,109.77,2,Thomas Chavez,Port Lavaca Calhoun,109.77,285.76,133.81,206.38,625.96,Single-ply,SBD,M
Boys,109.77,3,Ben Trevino,San Antonio East Central,103.42,226.8,136.08,226.8,589.67,Single-ply,SBD,M
Boys,109.77,4,David Sillero,Lockhart,108.32,190.51,151.95,183.7,526.17,Single-ply,SBD,M
Boys,109.77,5,Isiah Perkins,Elgin,105.78,197.31,102.06,210.92,510.29,Single-ply,SBD,M
Boys,109.77,6,John Navejas,Elgin,109.77,197.31,113.4,192.78,503.49,Single-ply,SBD,M
Boys,109.77,7,Rudy Perez,San Antonio East Central,105.51,192.78,108.86,185.97,487.61,Single-ply,SBD,M
Boys,109.77,8,Jonah Rodriguez,San Antonio East Central,100.15,183.7,113.4,183.7,480.81,Single-ply,SBD,M
Boys,109.77,9,Sway Zavala,Rockport-Fulton,102.15,158.76,95.25,179.17,433.18,Single-ply,SBD,M
Boys,109.77,10,Daniel Reyes,Kyle Lehman,108.59,142.88,88.45,154.22,385.55,Single-ply,SBD,M
Boys,124.74,1,Zion Petty,Lockhart,124.19,244.94,181.44,229.06,655.44,Single-ply,SBD,M
Boys,124.74,2,Juan LeBron,Port Lavaca Calhoun,124.47,235.87,142.88,219.99,598.74,Single-ply,SBD,M
Boys,124.74,3,Kaiser Forcade,Fredericksburg,117.75,238.14,122.47,231.33,591.94,Single-ply,SBD,M
Boys,124.74,4,Cameron Ngo,Rockport-Fulton,121.29,238.14,124.74,226.8,589.67,Single-ply,SBD,M
Boys,124.74,5,Eliel Salazar,Elgin,120.11,215.46,142.88,215.46,573.79,Single-ply,SBD,M
Boys,124.74,6,Stephen Ansumana,Dripping Springs,112.94,219.99,122.47,206.38,548.85,Single-ply,SBD,M
Boys,124.74,7,Brandon Kilough,Rockport-Fulton,115.21,188.24,120.2,210.92,519.36,Single-ply,SBD,M
Boys,124.74,8,Landon West,Fredericksburg,118.39,181.44,97.52,213.19,492.15,Single-ply,SBD,M
Boys,124.74,DQ,Griffin Clausen,Dripping Springs,114.31,136.08,79.38,,,Single-ply,SBD,M
Boys,124.74,DQ,Brian Solorio,Elgin,123.83,174.63,,,,Single-ply,SBD,M
Boys,124.74+,1,Leo Madera,Port Lavaca Calhoun,146.69,260.82,158.76,226.8,646.37,Single-ply,SBD,M
Boys,124.74+,2,Jordan Hood,Elgin,130.63,260.82,147.42,233.6,641.83,Single-ply,SBD,M
Boys,124.74+,3,Ray Martinez,Port Lavaca Calhoun,126.37,263.08,142.88,219.99,625.96,Single-ply,SBD,M
Boys,124.74+,4,Josh Mayo-Reese,Elgin,144.61,226.8,156.49,204.12,587.4,Single-ply,SBD,M
