Division,WeightClassKg,Place,Name,Team,BodyweightKg,Best3SquatKg,Best3BenchKg,Best3DeadliftKg,TotalKg,Equipment,Event,Sex
Boys,51.71,1,Fabian Garcia,Edinburg Idea College Prep,50.8,129.27,90.72,142.88,362.87,Single-ply,SBD,M
Boys,51.71,2,Gabriel Cisneros,Brownsville Jubilee,51.26,88.45,56.7,111.13,256.28,Single-ply,SBD,M
Boys,55.79,1,Bryan Loera,Brownsville Pace,55.79,174.63,120.2,179.17,474,Single-ply,SBD,M
Boys,55.79,2,Joey Rodriguez,Edinburg Idea College Prep,53.98,183.7,99.79,165.56,449.06,Single-ply,SBD,M
Boys,55.79,3,Juan Galvan,Brownsville Porter,54.43,86.18,63.5,122.47,272.16,Single-ply,SBD,M
Boys,59.87,1,Jonah Ortega,Rio Hondo,58.51,138.35,79.38,111.13,328.85,Single-ply,SBD,M
Boys,59.87,2,Alejandro Lerma,Brownsville Jubilee,59.42,102.06,72.57,129.27,303.91,Single-ply,SBD,M
Boys,59.87,3,Uziel Vasquez,Edinburg Idea College Prep,56.25,92.99,52.16,83.91,229.06,Single-ply,SBD,M
Boys,67.13,1,Corbin Garza,Los Fresnos,64.86,208.65,117.93,206.38,532.97,Single-ply,SBD,M
Boys,67.13,2,Jose Salinas,Brownsville Pace,66.22,226.8,113.4,192.78,532.97,Single-ply,SBD,M
Boys,67.13,3,Isaac Rodriguez,Rio Hondo,65.77,206.38,120.2,199.58,526.17,Single-ply,SBD,M
Boys,67.13,4,Raven Figueroa,Weslaco East,66.22,158.76,120.2,195.04,474,Single-ply,SBD,M
Boys,67.13,5,Mario Hernandez,Los Fresnos,65.77,172.37,124.74,172.37,469.47,Single-ply,SBD,M
Boys,67.13,6,Jon Animas,Weslaco East,65.32,149.69,83.91,181.44,415.04,Single-ply,SBD,M
Boys,67.13,7,Nelson Garcia,Brownsville Pace,66.68,154.22,92.99,158.76,405.97,Single-ply,SBD,M
Boys,67.13,8,Eric Escobedo,Brownsville Hanna,60.78,151.95,88.45,140.61,381.02,Single-ply,SBD,M
Boys,67.13,9,John Paul Olivarez,Harlingen,65.32,79.38,77.11,147.42,303.91,Single-ply,SBD,M
Boys,74.84,1,Christian Gamez,Brownsville Lopez,72.12,256.28,147.42,226.8,630.49,Single-ply,SBD,M
Boys,74.84,2,Andrew Nevarez,Edinburg Idea College Prep,73.94,238.14,122.47,229.06,589.67,Single-ply,SBD,M
Boys,74.84,3,Christian Avila,Weslaco East,73.03,210.92,127.01,222.26,560.19,Single-ply,SBD,M
Boys,74.84,4,Jose Serna,Weslaco East,68.04,206.38,127.01,215.46,548.85,Single-ply,SBD,M
Boys,74.84,5,Jose Guerra,Weslaco East,70.76,158.76,115.67,195.04,469.47,Single-ply,SBD,M
Boys,74.84,6,Jacob Torres,Rio Hondo,72.57,176.9,111.13,165.56,453.59,Single-ply,SBD,M
Boys,74.84,7,Venancio Flores III,Harlingen,72.57,142.88,102.06,170.1,415.04,Single-ply,SBD,M
Boys,74.84,8,Rayden Berry,Harlingen,74.84,124.74,102.06,185.97,412.77,Single-ply,SBD,M
Boys,74.84,9,Bruno Pena,Harlingen,72.57,124.74,86.18,145.15,356.07,Single-ply,SBD,M
Boys,74.84,DQ,Anthony Elvir,Los Fresnos,71.67,,,,,Single-ply,SBD,M
Boys,82.1,1,Imanol Ordonez,Weslaco East,82.1,256.28,170.1,276.69,703.07,Single-ply,SBD,M
Boys,82.1,2,Cristian Maldonado,Los Fresnos,79.38,235.87,145.15,240.4,621.42,Single-ply,SBD,M
Boys,82.1,3,Gilbert Sanchez,Brownsville Veterans Memorial,81.65,217.72,136.08,224.53,578.33,Single-ply,SBD,M
Boys,82.1,4,Christopher Espinoza,Brownsville Pace,80.74,206.38,117.93,188.24,512.56,Single-ply,SBD,M
Boys,82.1,5,Jose Castelan,Brownsville Hanna,79.38,215.46,138.35,154.22,508.02,Single-ply,SBD,M
Boys,82.1,6,Guadalupe Lopez,Brownsville Veterans Memorial,79.83,192.78,117.93,197.31,508.02,Single-ply,SBD,M
Boys,82.1,7,Zach Williams,Brownsville Hanna,80.74,190.51,92.99,183.7,467.2,Single-ply,SBD,M
Boys,82.1,8,Sebastian Zapata,Brownsville Veterans Memorial,78.02,165.56,102.06,183.7,451.32,Single-ply,SBD,M
Boys,82.1,9,Leo Martinez,Harlingen,80.29,142.88,102.06,188.24,433.18,Single-ply,SBD,M
Boys,82.1,10,Chris Floriano,Brownsville Porter,80.29,108.86,72.57,120.2,301.64,Single-ply,SBD,M
Boys,89.81,1,Pablo Iracheta,Brownsville Pace,89.36,244.94,156.49,226.8,628.23,Single-ply,SBD,M
Boys,89.81,2,Robert Garza,Los Fresnos,87.54,226.8,133.81,249.48,610.08,Single-ply,SBD,M
Boys,89.81,3,Alonso Requena,Los Fresnos,84.37,219.99,127.01,244.94,591.94,Single-ply,SBD,M
Boys,89.81,4,Justin Garza,Brownsville Rivera,87.09,206.38,113.4,226.8,546.58,Single-ply,SBD,M
Boys,89.81,5,Mathew Garza,Brownsville Rivera,87.54,183.7,92.99,240.4,517.1,Single-ply,SBD,M
Boys,89.81,6,Axel Chagoya,Brownsville Hanna,84.82,183.7,124.74,185.97,494.42,Single-ply,SBD,M
Boys,89.81,7,Carlos Ortiz,Harlingen,85.28,124.74,79.38,183.7,387.82,Single-ply,SBD,M
Boys,89.81,8,Ricardo Alaniz,Brownsville St. Joseph Academy,88,115.67,74.84,145.15,335.66,Single-ply,SBD,M
Boys,99.79,1,Matthew Ortiz,Los Fresnos,94.35,256.28,138.35,233.6,628.23,Single-ply,SBD,M
Boys,99.79,2,Nathan Salazar,Harlingen,99.79,188.24,138.35,226.8,553.38,Single-ply,SBD,M
Boys,99.79,3,James Rodriguez,Los Fresnos,99.34,195.04,127.01,226.8,548.85,Single-ply,SBD,M
Boys,99.79,4,Vicente Herrera,Brownsville Hanna,92.08,197.31,142.88,197.31,537.51,Single-ply,SBD,M
Boys,99.79,5,Rodrigo Miner,Brownsville St. Joseph Academy,92.99,149.69,122.47,188.24,460.4,Single-ply,SBD,M
Boys,99.79,6,Ricarhd Perales Jr,Harlingen,92.99,165.56,102.06,190.51,458.13,Single-ply,SBD,M
Boys,99.79,7,Stephen Barrios,Brownsville Veterans Memorial,92.99,174.63,106.59,174.63,455.86,Single-ply,SBD,M
Boys,99.79,8,Daeden Baez,Harlingen,98.88,142.88,102.06,142.88,387.82,Single-ply,SBD,M
Boys,99.79,9,Gonzalo Zedillo,Brownsville Porter,93.44,113.4,102.06,147.42,362.87,Single-ply,SBD,M
Boys,99.79,10,Christopher Cruz,Brownsville Porter,97.07,102.06,81.65,122.47,306.17,Single-ply,SBD,M
Boys,109.77,1,Derek Guevara,Los Fresnos,107.5,238.14,156.49,210.92,605.55,Single-ply,SBD,M
Boys,109.77,2,Juan Payan,Brownsville Rivera,107.5,226.8,124.74,231.33,582.87,Single-ply,SBD,M
Boys,109.77,3,Jose Solis,Brownsville Veterans Memorial,105.69,215.46,154.22,206.38,576.06,Single-ply,SBD,M
Boys,109.77,4,Chris Arredondo,Brownsville Hanna,106.14,231.33,151.95,190.51,573.79,Single-ply,SBD,M
Boys,109.77,5,Luis Barrera,Brownsville Lopez,107.95,242.67,111.13,215.46,569.26,Single-ply,SBD,M
Boys,109.77,6,Calvin Hinojosa,Brownsville Hanna,101.6,235.87,124.74,201.85,562.45,Single-ply,SBD,M
Boys,109.77,7,Tomas Garcia,Rio Hondo,102.06,195.04,138.35,165.56,498.95,Single-ply,SBD,M
Boys,109.77,8,Arturo Garcia,Brownsville Pace,104.78,197.31,129.27,154.22,480.81,Single-ply,SBD,M
Boys,109.77,9,Lupe Salinas,Brownsville Rivera,102.51,142.88,97.52,154.22,394.63,Single-ply,SBD,M
Boys,109.77,10,Hector Guerrero,Brownsville Rivera,104.33,129.27,92.99,145.15,367.41,Single-ply,SBD,M
Boys,109.77,DQ,Daniel Longoria,Edinburg Idea College Prep,107.5,,,,,Single-ply,SBD,M
Boys,124.74,1,Jacob Banda,Weslaco East,117.03,294.84,183.7,288.03,766.57,Single-ply,SBD,M
Boys,124.74,2,Lorenzo Villarreal,Los Fresnos,119.75,285.76,206.38,272.16,764.3,Single-ply,SBD,M
Boys,124.74,3,Isai Martinez,Weslaco East,123.38,256.28,206.38,260.82,723.48,Single-ply,SBD,M
Boys,124.74,4,Javy Soriano,Los Fresnos,118.39,272.16,172.37,258.55,703.07,Single-ply,SBD,M
Boys,124.74,5,Derek Tobar,Brownsville Veterans Memorial,124.28,254.01,161.03,183.7,598.74,Single-ply,SBD,M
Boys,124.74,6,Josue Ramirez,Brownsville Rivera,119.29,226.8,136.08,222.26,585.13,Single-ply,SBD,M
Boys,124.74,7,Noah Cruz,Harlingen,113.4,192.78,120.2,210.92,523.9,Single-ply,SBD,M
Boys,124.74+,1,Julio Hernandez,Brownsville Pace,138.35,331.12,190.51,272.16,793.79,Single-ply,SBD,M
Boys,124.74+,2,Daniel Roque,Weslaco East,158.76,299.37,158.76,272.16,730.28,Single-ply,SBD,M
Boys,124.74+,3,Rolando Zuniga,Rio Hondo,152.86,170.1,174.63,213.19,557.92,Single-ply,SBD,M
Boys,124.74+,4,Jesus Garcia #8,Brownsville Rivera,141.52,183.7,113.4,217.72,514.83,Single-ply,SBD,M
Boys,124.74+,5,Fernando Escamilla,Harlingen,130.63,183.7,106.59,206.38,496.68,Single-ply,SBD,M
Boys,124.74+,6,Ryan Garcia,Edinburg Idea College Prep,127.01,165.56,79.38,165.56,410.5,Single-ply,SBD,M
