Division,WeightClassKg,Place,Name,Team,BodyweightKg,Best3SquatKg,Best3BenchKg,Best3DeadliftKg,TotalKg,Equipment,Event,Sex
Boys,51.71,1,Jose Rios,Dripping Springs,51.35,142.88,79.38,163.29,385.55,Single-ply,SBD,M
Boys,51.71,2,Leo Costilla,Seguin,51.66,113.4,72.57,142.88,328.85,Single-ply,SBD,M
Boys,51.71,3,Onesimo Esquivel,San Marcos,46.18,86.18,54.43,104.33,244.94,Single-ply,SBD,M
Boys,51.71,4,Augustine Vasquez,San Marcos,43.73,77.11,43.09,102.06,222.26,Single-ply,SBD,M
Boys,55.79,1,Jeremiah Zelaya,Victoria East,55.79,206.38,111.13,201.85,519.36,Single-ply,SBD,M
Boys,55.79,2,Ivan Venegas,Dripping Springs,55.43,188.24,120.2,195.04,503.49,Single-ply,SBD,M
Boys,55.79,3,Evan Smith,Port Lavaca Calhoun,55.79,131.54,83.91,183.7,399.16,Single-ply,SBD,M
Boys,55.79,4,Rudy Pina,Del Valle,54.52,124.74,77.11,154.22,356.07,Single-ply,SBD,M
Boys,55.79,5,Eli Edwards,Seguin,55.75,140.61,72.57,142.88,356.07,Single-ply,SBD,M
Boys,55.79,6,Reese Janda,Seguin,55.16,136.08,79.38,131.54,347,Single-ply,SBD,M
Boys,55.79,7,Sterling Dukett,Kyle Lehman,53.16,108.86,61.23,127.01,297.1,Single-ply,SBD,M
Boys,55.79,8,Matthew Conticelli,Kyle Lehman,55.43,95.25,74.84,117.93,288.03,Single-ply,SBD,M
Boys,55.79,9,Canaan Casey,Seguin,55.79,95.25,45.36,111.13,251.74,Single-ply,SBD,M
Boys,59.87,1,Jakob Cortez,Port Lavaca Calhoun,59.42,195.04,97.52,201.85,494.42,Single-ply,SBD,M
Boys,59.87,2,Jacob Vasquez,Kyle Lehman,59.42,183.7,88.45,192.78,464.93,Single-ply,SBD,M
Boys,59.87,3,Marc Anthony Govea-Gonzales,Del Valle,57.61,154.22,83.91,176.9,415.04,Single-ply,SBD,M
Boys,59.87,4,Aidan Flores,Seguin,59.78,136.08,79.38,161.03,376.48,Single-ply,SBD,M
Boys,59.87,5,Rolando Valenzuela,Kyle Lehman,59.78,124.74,88.45,156.49,369.68,Single-ply,SBD,M
Boys,59.87,6,Gabe Driscoll,Del Valle,59.6,136.08,68.04,149.69,353.8,Single-ply,SBD,M
Boys,59.87,DQ,Antonio Mosqueda,Del Valle,59.87,,,,,Single-ply,SBD,M
Boys,59.87,DQ,David Leonard,San Marcos,59.33,120.2,56.7,,,Single-ply,SBD,M
Boys,67.13,1,Chris Velasquez,Geronimo Navarro,65.68,226.8,129.27,188.24,544.31,Single-ply,SBD,M
Boys,67.13,2,Joel Huerta,San Antonio East Central,65.77,213.19,117.93,190.51,521.63,Single-ply,SBD,M
Boys,67.13,3,Therrance Soto,San Marcos,63.05,172.37,102.06,217.72,492.15,Single-ply,SBD,M
Boys,67.13,4,Dean Jimenez,San Antonio East Central,65.5,195.04,117.93,167.83,480.81,Single-ply,SBD,M
Boys,67.13,5,Daniel Santana,San Marcos,66.95,174.63,102.06,183.7,460.4,Single-ply,SBD,M
Boys,67.13,6,Tyler Bouquet,Geronimo Navarro,66.95,165.56,102.06,151.95,419.57,Single-ply,SBD,M
Boys,67.13,7,Ethan Bierschwale,San Antonio East Central,64.68,151.95,79.38,165.56,396.89,Single-ply,SBD,M
Boys,67.13,8,Valentino Trevino,Seguin,61.78,145.15,95.25,151.95,392.36,Single-ply,SBD,M
Boys,67.13,9,Joey Mojica,Kyle Lehman,66.59,145.15,88.45,154.22,387.82,Single-ply,SBD,M
Boys,67.13,10,Daniel Mohs,San Antonio East Central,66.5,138.35,90.72,147.42,376.48,Single-ply,SBD,M
Boys,67.13,11,Sheldon Woolford,Kyle Lehman,65.59,117.93,74.84,147.42,340.19,Single-ply,SBD,M
Boys,67.13,12,Darien Castaneda,Kyle Lehman,66.41,113.4,70.31,138.35,322.05,Single-ply,SBD,M
Boys,67.13,13,Bryan Castro,Elgin,60.78,106.59,61.23,133.81,301.64,Single-ply,SBD,M
Boys,67.13,DQ,Nicolas Saucedo,Elgin,67.13,,,,,Single-ply,SBD,M
Boys,74.84,1,Juan Rios,Dripping Springs,72.85,249.48,145.15,226.8,621.42,Single-ply,SBD,M
Boys,74.84,2,Juan Venegas,Dripping Springs,74.21,222.26,131.54,197.31,551.11,Single-ply,SBD,M
Boys,74.84,3,Christan Caballero,San Marcos,70.94,183.7,120.2,240.4,544.31,Single-ply,SBD,M
Boys,74.84,4,Christian Alvarez,San Marcos,71.94,195.04,113.4,192.78,501.22,Single-ply,SBD,M
Boys,74.84,5,Marcus Oliva,Lockhart,73.66,172.37,127.01,192.78,492.15,Single-ply,SBD,M
Boys,74.84,6,Eduardo Garcia-Ocampo,San Antonio East Central,67.77,167.83,92.99,174.63,435.45,Single-ply,SBD,M
Boys,74.84,7,Aaron Vega,Elgin,72.39,151.95,106.59,161.03,419.57,Single-ply,SBD,M
Boys,74.84,8,Jesau Batres,Lockhart,70.94,158.76,92.99,149.69,401.43,Single-ply,SBD,M
Boys,74.84,9,Regan Smith,Lockhart,74.75,147.42,79.38,165.56,392.36,Single-ply,SBD,M
Boys,74.84,10,Caden Bosanko,San Antonio East Central,74.84,167.83,81.65,142.88,392.36,Single-ply,SBD,M
Boys,74.84,11,Thomas Babiak,Dripping Springs,70.13,129.27,99.79,158.76,387.82,Single-ply,SBD,M
Boys,74.84,12,Roberto Luna,Seguin,73.84,140.61,83.91,163.29,387.82,Single-ply,SBD,M
Boys,74.84,13,Abdias Castillo,Elgin,72.85,133.81,92.99,151.95,378.75,Single-ply,SBD,M
Boys,74.84,14,Guarionex Suarez Vega,San Marcos,70.76,142.88,70.31,151.95,365.14,Single-ply,SBD,M
Boys,74.84,15,Izaiah Gomez,Del Valle,71.58,113.4,70.31,133.81,317.51,Single-ply,SBD,M
Boys,74.84,16,Ceasar Hernandez,Lockhart,73.03,113.4,70.31,108.86,292.57,Single-ply,SBD,M
Boys,74.84,17,Chance Hall,Del Valle,68.04,102.06,54.43,113.4,269.89,Single-ply,SBD,M
Boys,82.1,1,Ethan Thomas,Geronimo Navarro,81.19,195.04,133.81,197.31,526.17,Single-ply,SBD,M
Boys,82.1,2,Matthew Gilliam,Geronimo Navarro,80.65,199.58,120.2,192.78,512.56,Single-ply,SBD,M
Boys,82.1,3,Ethan Allen,Kyle Lehman,80.1,138.35,108.86,163.29,410.5,Single-ply,SBD,M
Boys,82.1,4,John-Michael Mata,Seguin,80.06,151.95,83.91,167.83,403.7,Single-ply,SBD,M
Boys,82.1,5,Andrew Vargas,Del Valle,79.65,142.88,99.79,158.76,401.43,Single-ply,SBD,M
Boys,82.1,6,Brock Bolinger,Dripping Springs,77.02,147.42,102.06,145.15,394.63,Single-ply,SBD,M
Boys,82.1,7,Michael Martinez,Seguin,81.37,142.88,97.52,142.88,383.29,Single-ply,SBD,M
Boys,82.1,8,Mason Eeds,Lockhart,79.74,129.27,68.04,154.22,351.53,Single-ply,SBD,M
Boys,82.1,9,Allan Romero,Del Valle,77.47,129.27,65.77,145.15,340.19,Single-ply,SBD,M
Boys,82.1,10,Jose Hernandez #19,Lockhart,77.93,117.93,74.84,129.27,322.05,Single-ply,SBD,M
Boys,82.1,DQ,Zack Halliburton,Kyle Lehman,82.1,,,,,Single-ply,SBD,M
Boys,82.1,DQ,Angel Hernandez #5,Del Valle,82.1,,,,,Single-ply,SBD,M
Boys,82.1,DQ,Josh Allen,Del Valle,82.1,,,,,Single-ply,SBD,M
Boys,89.81,1,Euler de Leon,Geronimo Navarro,84.91,233.6,154.22,249.48,637.3,Single-ply,SBD,M
Boys,89.81,2,Sylias Montgomery,Port Lavaca Calhoun,88,251.74,122.47,260.82,635.03,Single-ply,SBD,M
Boys,89.81,3,Devon Soto,Seguin,89.09,231.33,161.03,217.72,610.08,Single-ply,SBD,M
Boys,89.81,4,Chanse Hernandez,Seguin,89.63,210.92,151.95,201.85,564.72,Single-ply,SBD,M
Boys,89.81,5,Belema Dennis,Del Valle,89.18,183.7,124.74,217.72,526.17,Single-ply,SBD,M
Boys,89.81,6,Kobe West,Dripping Springs,87.54,188.24,117.93,197.31,503.49,Single-ply,SBD,M
Boys,89.81,7,Camren Willwerth,Del Valle,85.64,172.37,104.33,174.63,451.32,Single-ply,SBD,M
Boys,89.81,8,Brian Ortiz,Del Valle,89.72,151.95,102.06,183.7,437.72,Single-ply,SBD,M
Boys,89.81,9,Preston Hawthworne,Lockhart,86.18,145.15,106.59,163.29,415.04,Single-ply,SBD,M
Boys,89.81,10,Gabriel Watts,Victoria East,85.91,142.88,102.06,167.83,412.77,Single-ply,SBD,M
Boys,89.81,DQ,Juan Chavez,Lockhart,89.81,,,,,Single-ply,SBD,M
Boys,89.81,DQ,Jonathan Cervantes,Elgin,85.64,165.56,,,,Single-ply,SBD,M
Boys,99.79,1,Darean Sauceda,Victoria East,97.61,213.19,142.88,206.38,562.45,Single-ply,SBD,M
Boys,99.79,2,Brandon Rangel,San Marcos,97.98,204.12,127.01,224.53,555.65,Single-ply,SBD,M
Boys,99.79,3,Joseph Bebe,Port Lavaca Calhoun,91.35,210.92,129.27,199.58,539.77,Single-ply,SBD,M
Boys,99.79,4,Marco Reyes #3,Kyle Lehman,94.26,154.22,117.93,176.9,449.06,Single-ply,SBD,M
Boys,99.79,5,Javier Mejia,Kyle Lehman,92.71,138.35,95.25,167.83,401.43,Single-ply,SBD,M
Boys,99.79,6,Pat Leora,Geronimo Navarro,90.81,120.2,104.33,111.13,335.66,Single-ply,SBD,M
Boys,99.79,7,Diego Sosa,Lockhart,92.71,102.06,63.5,124.74,290.3,Single-ply,SBD,M
Boys,99.79,DQ,Nick Rodriguez,Port Lavaca Calhoun,99.79,,,,,Single-ply,SBD,M
Boys,99.79,DQ,Jonathan Oviedo,Victoria East,97.98,272.16,,,,Single-ply,SBD,M
Boys,109.77,1,Arron Vasquez,Victoria East,108.5,272.16,165.56,201.85,639.57,Single-ply,SBD,M
Boys,109.77,2,Harley Franklin,Elgin,104.69,217.72,127.01,254.01,598.74,Single-ply,SBD,M
Boys,109.77,3,David Reyna,Geronimo Navarro,102.69,233.6,165.56,192.78,591.94,Single-ply,SBD,M
Boys,109.77,4,David Sillero,Lockhart,107.05,233.6,147.42,204.12,585.13,Single-ply,SBD,M
Boys,109.77,5,Jack Carmona,Victoria East,107.23,249.48,115.67,201.85,566.99,Single-ply,SBD,M
Boys,109.77,6,John Sanchez #5,San Marcos,107.41,208.65,131.54,224.53,564.72,Single-ply,SBD,M
Boys,109.77,7,Troy Howard,Geronimo Navarro,107.14,179.17,124.74,206.38,510.29,Single-ply,SBD,M
Boys,109.77,8,Marcus Zamora,San Antonio East Central,106.23,170.1,133.81,195.04,498.95,Single-ply,SBD,M
Boys,109.77,9,Tanner Deleon,Elgin,101.97,102.06,108.86,142.88,353.8,Single-ply,SBD,M
Boys,109.77,DQ,Justin Becerra,San Antonio East Central,109.77,,,,,Single-ply,SBD,M
Boys,124.74,1,Dylan Hatfield,Geronimo Navarro,123.38,299.37,190.51,235.87,725.75,Single-ply,SBD,M
Boys,124.74,2,Juan LeBron,Port Lavaca Calhoun,124.1,290.3,142.88,265.35,698.53,Single-ply,SBD,M
Boys,124.74,3,Cody Beran,Del Valle,116.66,183.7,120.2,188.24,492.15,Single-ply,SBD,M
Boys,124.74,4,Heath Henke,Port Lavaca Calhoun,110.31,181.44,120.2,183.7,485.34,Single-ply,SBD,M
Boys,124.74,5,Avery Flood,Port Lavaca Calhoun,112.76,181.44,108.86,158.76,449.06,Single-ply,SBD,M
Boys,124.74,6,Raul Saucedo,Del Valle,123.29,167.83,111.13,161.03,439.98,Single-ply,SBD,M
Boys,124.74,7,Josiah Luna,Seguin,112.76,170.1,102.06,165.56,437.72,Single-ply,SBD,M
Boys,124.74,8,Jacob Guerrero,Del Valle,114.58,138.35,83.91,154.22,376.48,Single-ply,SBD,M
Boys,124.74,DQ,Albert Castro,Del Valle,124.74,,,,,Single-ply,SBD,M
Boys,124.74,DQ,Jorge Mondragon,Del Valle,124.74,,,,,Single-ply,SBD,M
Boys,124.74,DQ,Armanda Barron,Del Valle,124.74,,,,,Single-ply,SBD,M
Boys,124.74,DQ,Juan Solis,Elgin,124.74,,,,,Single-ply,SBD,M
Boys,124.74,DQ,Jimmy Garza,Elgin,121.74,204.12,,,,Single-ply,SBD,M
Boys,124.74,DQ,Stephen Ansumana,Dripping Springs,111.67,,,,,Single-ply,SBD,M
Boys,124.74+,1,Leo Madera,Port Lavaca Calhoun,143.97,290.3,174.63,240.4,705.34,Single-ply,SBD,M
Boys,124.74+,2,Jordan Hood,Elgin,139.62,281.23,170.1,249.48,700.8,Single-ply,SBD,M
Boys,124.74+,3,Sergio Hernandez,Geronimo Navarro,153.95,240.4,201.85,240.4,682.66,Single-ply,SBD,M
Boys,124.74+,4,Ray Martinez,Port Lavaca Calhoun,135.99,276.69,165.56,217.72,659.98,Single-ply,SBD,M
Boys,124.74+,5,Carter Holtkamp,Geronimo Navarro,135.62,235.87,167.83,201.85,605.55,Single-ply,SBD,M
Boys,124.74+,6,Alex Garza,Victoria East,128.55,258.55,154.22,183.7,596.47,Single-ply,SBD,M
Boys,124.74+,7,Damian Chavez,Port Lavaca Calhoun,135.08,272.16,117.93,188.24,578.33,Single-ply,SBD,M
Boys,124.74+,8,Isaiah Samarioa,Lockhart,153.77,249.48,142.88,183.7,576.06,Single-ply,SBD,M
Boys,124.74+,9,Mark Velasquez,San Marcos,153.68,204.12,133.81,204.12,542.04,Single-ply,SBD,M
Boys,124.74+,10,John Rebolloso,Elgin,127.1,226.8,111.13,181.44,519.36,Single-ply,SBD,M
Boys,124.74+,11,Aidan Marin,San Antonio East Central,126.82,195.04,90.72,195.04,480.81,Single-ply,SBD,M
Boys,124.74+,DQ,Jacob Cano,Del Valle,130.36,165.56,,,,Single-ply,SBD,M
