Division,WeightClassKg,Place,Name,Team,BodyweightKg,Best3SquatKg,Best3BenchKg,Best3DeadliftKg,TotalKg,Equipment,Event,Sex
Girls,44.23,1,Janet Becerril,Perryton,43.23,149.69,74.84,145.15,369.68,Single-ply,SBD,F
Girls,44.23,2,Jordan Ramirez #3,Levelland,43.27,117.93,47.63,117.93,283.5,Single-ply,SBD,F
Girls,44.23,3,Maribel Tavarez,Monahans,42.77,102.06,52.16,104.33,258.55,Single-ply,SBD,F
Girls,44.23,4,Karen Carrasco,Andrews,44.23,86.18,40.82,88.45,215.46,Single-ply,SBD,F
Girls,44.23,5,Estefania Espino,Perryton,43.86,90.72,40.82,72.57,204.12,Single-ply,SBD,F
Girls,44.23,6,Cody Luzadder,Midland Greenwood,43,77.11,40.82,70.31,188.24,Single-ply,SBD,F
Girls,47.85,1,Amanda Rodriguez #1,Seminole,47.31,120.2,68.04,131.54,319.78,Single-ply,SBD,F
Girls,47.85,2,Victoria Vasquez,Andrews,47.67,120.2,54.43,108.86,283.5,Single-ply,SBD,F
Girls,47.85,3,Karen Becerril,Perryton,46.72,102.06,54.43,97.52,254.01,Single-ply,SBD,F
Girls,47.85,4,Katelyn Hogan,Monahans,46.99,95.25,54.43,102.06,251.74,Single-ply,SBD,F
Girls,47.85,5,Whitney Robinson,Andrews,46.04,102.06,38.56,102.06,242.67,Single-ply,SBD,F
Girls,47.85,6,Kenia Munoz,Andrews,45.09,83.91,45.36,106.59,235.87,Single-ply,SBD,F
Girls,47.85,7,Melissa Nunez,Monahans,45.5,77.11,31.75,92.99,201.85,Single-ply,SBD,F
Girls,47.85,8,Nikki Porras,Fort Stockton,46.13,70.31,29.48,97.52,197.31,Single-ply,SBD,F
Girls,47.85,9,Eleanor Tena,Midland Greenwood,47.85,65.77,40.82,90.72,197.31,Single-ply,SBD,F
Girls,47.85,10,Caitlyn Durham,Denver City,46.77,61.23,31.75,79.38,172.37,Single-ply,SBD,F
Girls,47.85,11,Marissa Nunez,Monahans,46.72,63.5,29.48,77.11,170.1,Single-ply,SBD,F
Girls,47.85,DQ,Leyla Stallings,Andrews,46.81,97.52,,,,Single-ply,SBD,F
Girls,51.94,1,Brittney Patterson,Andrews,50.35,108.86,52.16,113.4,274.42,Single-ply,SBD,F
Girls,51.94,2,Kereny Hernandez,Perryton,49.99,97.52,49.9,120.2,267.62,Single-ply,SBD,F
Girls,51.94,3,Erin Peterson,Borger,50.85,106.59,38.56,108.86,254.01,Single-ply,SBD,F
Girls,51.94,4,Alicia Monreal,Perryton,51.07,97.52,45.36,97.52,240.4,Single-ply,SBD,F
Girls,51.94,5,Natalia Juarez,Snyder,50.26,86.18,34.02,113.4,233.6,Single-ply,SBD,F
Girls,51.94,6,Cyera Pieper,Sweetwater,51.94,97.52,38.56,90.72,226.8,Single-ply,SBD,F
Girls,51.94,7,Sarina Patel,Fort Stockton,48.4,72.57,43.09,95.25,210.92,Single-ply,SBD,F
Girls,51.94,8,Xi Roman,Pecos,49.62,77.11,47.63,81.65,206.38,Single-ply,SBD,F
Girls,51.94,9,Kathryn Browning,Sweetwater,51.35,81.65,31.75,83.91,197.31,Single-ply,SBD,F
Girls,51.94,10,Martisa Olivares,Pecos,51.75,65.77,29.48,77.11,172.37,Single-ply,SBD,F
Girls,51.94,DQ,Jacie Roye,Midland Greenwood,50.94,,,,,Single-ply,SBD,F
Girls,56.02,1,Tyra Lemmons,Monahans,52.93,122.47,58.97,129.27,310.71,Single-ply,SBD,F
Girls,56.02,2,Serenity Garcia,Big Spring,55.11,120.2,52.16,122.47,294.84,Single-ply,SBD,F
Girls,56.02,3,Nallely Ramirez,Perryton,55.93,113.4,61.23,120.2,294.84,Single-ply,SBD,F
Girls,56.02,4,Tj Griner,Monahans,55.93,104.33,61.23,106.59,272.16,Single-ply,SBD,F
Girls,56.02,5,Briana Meza,Monahans,54.88,81.65,49.9,106.59,238.14,Single-ply,SBD,F
Girls,56.02,6,Jasmin Sanchez,Brownfield,52.48,79.38,40.82,102.06,222.26,Single-ply,SBD,F
Girls,56.02,7,Kinsey Barnett,Sweetwater,55.16,72.57,47.63,86.18,206.38,Single-ply,SBD,F
Girls,56.02,DQ,Diamond Escobedo,Snyder,54.93,113.4,,,,Single-ply,SBD,F
Girls,56.02,DQ,Rayah Coleman,Vernon,55.97,,,,,Single-ply,SBD,F
Girls,56.02,DQ,Makenna Lingnau,Andrews,54.61,,,,,Single-ply,SBD,F
Girls,56.02,DQ,Bergandi Alvarado,Snyder,54.84,129.27,56.7,,,Single-ply,SBD,F
Girls,60.1,1,Cheyenne Avila,Snyder,57.92,165.56,77.11,136.08,378.75,Single-ply,SBD,F
Girls,60.1,2,Zaira Navarrete,Perryton,59.56,117.93,68.04,154.22,340.19,Single-ply,SBD,F
Girls,60.1,3,Kristin Rocco,Dalhart,59.65,117.93,63.5,129.27,310.71,Single-ply,SBD,F
Girls,60.1,4,Haley Gutierrez,Andrews,56.56,108.86,52.16,127.01,288.03,Single-ply,SBD,F
Girls,60.1,5,Adriana Carranza,Andrews,58.6,113.4,52.16,113.4,278.96,Single-ply,SBD,F
Girls,60.1,6,Samantha Carter,Dalhart,59.01,97.52,61.23,111.13,269.89,Single-ply,SBD,F
Girls,60.1,7,Ariana Perez,Midland Greenwood,59.6,111.13,49.9,104.33,265.35,Single-ply,SBD,F
Girls,60.1,8,Carrie Layman,Monahans,60.1,106.59,47.63,104.33,258.55,Single-ply,SBD,F
Girls,60.1,9,Vanessa Hernandez,Perryton,59.92,99.79,43.09,92.99,235.87,Single-ply,SBD,F
Girls,60.1,10,Chelsie Gleason,Midland Greenwood,56.79,102.06,52.16,61.23,215.46,Single-ply,SBD,F
Girls,67.36,1,Nayeli Miranda,Perryton,65.54,142.88,70.31,149.69,362.87,Single-ply,SBD,F
Girls,67.36,2,Shykerra Fanner,Vernon,65.32,142.88,65.77,124.74,333.39,Single-ply,SBD,F
Girls,67.36,3,Peytton Gribble,Vernon,65.59,117.93,74.84,133.81,326.59,Single-ply,SBD,F
Girls,67.36,4,Janeigh Vanderbilt,Big Spring,65.23,131.54,56.7,136.08,324.32,Single-ply,SBD,F
Girls,67.36,5,Vanessa Huaracha,Dalhart,63.82,133.81,58.97,124.74,317.51,Single-ply,SBD,F
Girls,67.36,6,Bonnie Jasper,Snyder,66.32,129.27,61.23,127.01,317.51,Single-ply,SBD,F
Girls,67.36,7,Rachel Hawkins,Brownfield,65.05,113.4,52.16,140.61,306.17,Single-ply,SBD,F
Girls,67.36,8,Maria Chacon,Brownfield,64.64,113.4,61.23,124.74,299.37,Single-ply,SBD,F
Girls,67.36,9,Harli Estes,Bushland,65.68,108.86,56.7,117.93,283.5,Single-ply,SBD,F
Girls,67.36,10,Sulema Granados,Levelland,65.63,115.67,54.43,111.13,281.23,Single-ply,SBD,F
Girls,67.36,11,Irma Tarango,Monahans,65.73,111.13,54.43,111.13,276.69,Single-ply,SBD,F
Girls,67.36,12,Maura McReynolds,Monahans,66.32,102.06,54.43,120.2,276.69,Single-ply,SBD,F
Girls,75.07,1,Kerrington Biggers,Snyder,67.49,165.56,72.57,165.56,403.7,Single-ply,SBD,F
Girls,75.07,2,Talia Ybarra,Andrews,74.71,163.29,77.11,133.81,374.21,Single-ply,SBD,F
Girls,75.07,3,Daniella Reyes,Lamesa,73.75,151.95,61.23,138.35,351.53,Single-ply,SBD,F
Girls,75.07,4,Natalie Hernandez,Andrews,70.4,136.08,68.04,122.47,326.59,Single-ply,SBD,F
Girls,75.07,5,Lexi Lopez,Lamesa,70.94,142.88,52.16,124.74,319.78,Single-ply,SBD,F
Girls,75.07,6,Keyle Pruitt,Monahans,70.81,124.74,63.5,122.47,310.71,Single-ply,SBD,F
Girls,75.07,7,Whitney Garcia,Sweetwater,73.53,129.27,47.63,131.54,308.44,Single-ply,SBD,F
Girls,75.07,8,Stephanie Esquivel,Perryton,68.95,117.93,72.57,108.86,299.37,Single-ply,SBD,F
Girls,75.07,9,Betty Whitt,Monahans,72.98,122.47,56.7,117.93,297.1,Single-ply,SBD,F
Girls,75.07,10,Brandi Christian,Perryton,73.12,115.67,56.7,115.67,288.03,Single-ply,SBD,F
Girls,75.07,11,Sulema Ornelas,Monahans,67.4,106.59,56.7,115.67,278.96,Single-ply,SBD,F
Girls,75.07,12,Gabby Lopez,Big Spring,68.58,102.06,38.56,108.86,249.48,Single-ply,SBD,F
Girls,82.33,1,Carlie Roberts,Big Spring,78.7,163.29,74.84,167.83,405.97,Single-ply,SBD,F
Girls,82.33,2,Sarah Gomez,Andrews,75.98,181.44,74.84,140.61,396.89,Single-ply,SBD,F
Girls,82.33,3,Elizabeth Montes,Dalhart,77.93,151.95,61.23,156.49,369.68,Single-ply,SBD,F
Girls,82.33,4,Juanita Rodriquez,Andrews,78.56,142.88,68.04,129.27,340.19,Single-ply,SBD,F
Girls,82.33,5,Mary Villarreal,Fort Stockton,77.07,147.42,54.43,136.08,337.93,Single-ply,SBD,F
Girls,82.33,6,Makayla Niblett,Midland Greenwood,80.51,129.27,58.97,136.08,324.32,Single-ply,SBD,F
Girls,82.33,7,Hallie Hyatt,Big Spring,80.69,131.54,61.23,124.74,317.51,Single-ply,SBD,F
Girls,82.33,8,M'Kenzi Campbell,Levelland,77.11,115.67,68.04,120.2,303.91,Single-ply,SBD,F
Girls,82.33,9,Jordan Onzures,Midland Greenwood,80.65,120.2,47.63,113.4,281.23,Single-ply,SBD,F
Girls,82.33,10,Mirna Martinez,Midland Greenwood,78.06,106.59,52.16,115.67,274.42,Single-ply,SBD,F
Girls,82.33,11,Caelyn Gaines,Snyder,76.52,117.93,40.82,111.13,269.89,Single-ply,SBD,F
Girls,82.33,12,Kali Copeland,Levelland,78.97,104.33,45.36,113.4,263.08,Single-ply,SBD,F
Girls,90.04,1,Saron Mendoza,Levelland,85.05,154.22,79.38,163.29,396.89,Single-ply,SBD,F
Girls,90.04,2,Kara Taylor,Midland Greenwood,86.23,151.95,74.84,136.08,362.87,Single-ply,SBD,F
Girls,90.04,3,Omri Cruz,Brownfield,84.01,151.95,65.77,127.01,344.73,Single-ply,SBD,F
Girls,90.04,4,Annika De Anda,Fort Stockton,84.96,136.08,56.7,140.61,333.39,Single-ply,SBD,F
Girls,90.04,5,Destynee Smith,Sweetwater,84.78,127.01,63.5,140.61,331.12,Single-ply,SBD,F
Girls,90.04,6,Jessica Serrano,Sweetwater,83.87,117.93,52.16,124.74,294.84,Single-ply,SBD,F
Girls,90.04,7,Jessica DeLeon,Sweetwater,88.41,117.93,45.36,104.33,267.62,Single-ply,SBD,F
Girls,90.04,DQ,Avonna Jeffcoat,Andrews,85.37,117.93,,,,Single-ply,SBD,F
Girls,100.02,1,Emily Hertel,Midland Greenwood,96.52,188.24,92.99,149.69,430.91,Single-ply,SBD,F
Girls,100.02,2,Crystal Gutierrez,Perryton,90.49,145.15,74.84,136.08,356.07,Single-ply,SBD,F
Girls,100.02,3,Destiny Perez,Seminole,91.67,151.95,79.38,124.74,356.07,Single-ply,SBD,F
Girls,100.02,4,Brianna Rosette,Midland Greenwood,94.53,142.88,70.31,142.88,356.07,Single-ply,SBD,F
Girls,100.02,5,Sara McLain,Snyder,91.81,136.08,56.7,136.08,328.85,Single-ply,SBD,F
Girls,100.02,6,Peyton Richardson,Midland Greenwood,99.29,113.4,63.5,136.08,312.98,Single-ply,SBD,F
Girls,100.02,7,Brianna Lujan,Seminole,96.93,124.74,70.31,106.59,301.64,Single-ply,SBD,F
Girls,100.02,8,Taylor Sikes,Monahans,96.12,106.59,61.23,129.27,297.1,Single-ply,SBD,F
Girls,100.02,9,Mika Campos,Levelland,90.45,90.72,49.9,120.2,260.82,Single-ply,SBD,F
Girls,100.02,10,Hanna Juarez,Sweetwater,99.25,88.45,40.82,95.25,224.53,Single-ply,SBD,F
Girls,117.71,1,Melanie Morin,Andrews,106.23,195.04,90.72,167.83,453.59,Single-ply,SBD,F
Girls,117.71,2,Grayce Riley,Denver City,107.32,183.7,74.84,149.69,408.23,Single-ply,SBD,F
Girls,117.71,3,Natalie Samuels,Monahans,101.92,145.15,77.11,149.69,371.95,Single-ply,SBD,F
Girls,117.71,4,Morayma Lucio,Brownfield,109.13,147.42,68.04,136.08,351.53,Single-ply,SBD,F
Girls,117.71,5,Faedre Lee,Seminole,116.03,149.69,68.04,133.81,351.53,Single-ply,SBD,F
Girls,117.71,6,Irma Rodriguez,Perryton,107.46,142.88,68.04,120.2,331.12,Single-ply,SBD,F
Girls,117.71,7,Sheyla Barrera,Sweetwater,113.08,140.61,49.9,129.27,319.78,Single-ply,SBD,F
Girls,117.71,8,Sierra McCoy,Sweetwater,108.82,124.74,54.43,131.54,310.71,Single-ply,SBD,F
Girls,117.71,9,Skylar Adams,Monahans,100.47,99.79,54.43,113.4,267.62,Single-ply,SBD,F
Girls,117.71,10,Makayla Smith,Monahans,110.68,86.18,40.82,111.13,238.14,Single-ply,SBD,F
Girls,117.71+,1,Qu'Vonna Tealer,Levelland,152.86,167.83,68.04,138.35,374.21,Single-ply,SBD,F
Girls,117.71+,2,Esmi Ramirez,Pecos,119.43,136.08,72.57,97.52,306.17,Single-ply,SBD,F
Girls,117.71+,3,Ana Holguin,Monahans,147.6,70.31,52.16,92.99,215.46,Single-ply,SBD,F
Girls,117.71+,DQ,Allison Torres,Sweetwater,120.43,167.83,65.77,,,Single-ply,SBD,F
