Division,WeightClassKg,Place,Name,Team,BodyweightKg,Best3SquatKg,Best3BenchKg,Best3DeadliftKg,TotalKg,Equipment,Event,Sex
Girls,44.23,1,Kassidy Colianni,Port Lavaca Calhoun,44,99.79,52.16,113.4,265.35,Single-ply,SBD,F
Girls,44.23,2,Odalys Garduno,Victoria West,43.64,99.79,45.36,104.33,249.48,Single-ply,SBD,F
Girls,44.23,3,Summer Garza,George West,43.09,97.52,43.09,104.33,244.94,Single-ply,SBD,F
Girls,44.23,4,Breanna Candela,Odem,43.77,90.72,36.29,97.52,224.53,Single-ply,SBD,F
Girls,44.23,5,Danielle Puentes,Louise,43.09,65.77,31.75,81.65,179.17,Single-ply,SBD,F
Girls,47.85,1,Demi Lopez,Karnes City,47.63,108.86,45.36,90.72,244.94,Single-ply,SBD,F
Girls,47.85,2,Annie Ochoa,Yorktown,47.17,92.99,31.75,97.52,222.26,Single-ply,SBD,F
Girls,47.85,3,Hailey Turner,Yorktown,47.17,77.11,34.02,83.91,195.04,Single-ply,SBD,F
Girls,47.85,4,Ally May,Kenedy,45.09,61.23,31.75,70.31,163.29,Single-ply,SBD,F
Girls,47.85,5,Marissa Garcia,Gonzales,47.17,56.7,24.95,61.23,142.88,Single-ply,SBD,F
Girls,51.94,1,Darian Garza,Port Lavaca Calhoun,50.35,117.93,58.97,122.47,299.37,Single-ply,SBD,F
Girls,51.94,2,Betzaidalis Rosado-Mojica,San Antonio Brooks Academy,50.8,106.59,63.5,117.93,288.03,Single-ply,SBD,F
Girls,51.94,3,Elena Perez,Weimar,51.26,108.86,49.9,115.67,274.42,Single-ply,SBD,F
Girls,51.94,4,Danielle Bacon,Port Lavaca Calhoun,49.44,106.59,56.7,106.59,269.89,Single-ply,SBD,F
Girls,51.94,5,Angelina Galindo,Cuero,51.85,104.33,52.16,106.59,263.08,Single-ply,SBD,F
Girls,51.94,6,Aubree Tostado,Karnes City,51.07,99.79,45.36,115.67,260.82,Single-ply,SBD,F
Girls,51.94,7,Taylor Barton,San Antonio Brooks Academy,51.26,90.72,54.43,111.13,256.28,Single-ply,SBD,F
Girls,51.94,8,Elena Valdez,Karnes City,51.71,92.99,40.82,92.99,226.8,Single-ply,SBD,F
Girls,51.94,9,Kendalyn Naranjo,Yorktown,49.9,83.91,40.82,97.52,222.26,Single-ply,SBD,F
Girls,51.94,10,Tifani Guzman,San Antonio Brooks Academy,50.35,74.84,43.09,97.52,215.46,Single-ply,SBD,F
Girls,51.94,11,Cheyenne Janssen,Runge,50.8,61.23,29.48,97.52,188.24,Single-ply,SBD,F
Girls,51.94,12,Belen Luna,Universal City Randolph,49.9,61.23,27.22,79.38,167.83,Single-ply,SBD,F
Girls,56.02,1,Marissa Martinez,Port Lavaca Calhoun,54.7,151.95,77.11,165.56,394.63,Single-ply,SBD,F
Girls,56.02,2,Jodel Patino,San Antonio Brooks Academy,55.79,133.81,61.23,147.42,342.46,Single-ply,SBD,F
Girls,56.02,3,Belinda Perez,Port Lavaca Calhoun,55.34,124.74,68.04,127.01,319.78,Single-ply,SBD,F
Girls,56.02,4,Molly Wick,Weimar,53.07,113.4,56.7,124.74,294.84,Single-ply,SBD,F
Girls,56.02,5,Ashlin Liska,Karnes City,55.97,120.2,54.43,120.2,294.84,Single-ply,SBD,F
Girls,56.02,6,Claudia Salas,Universal City Randolph,55.34,86.18,43.09,83.91,213.19,Single-ply,SBD,F
Girls,56.02,7,Kynli Hranicky,Yorktown,54.43,86.18,34.02,83.91,204.12,Single-ply,SBD,F
Girls,56.02,8,Allison Garza,Victoria West,53.98,83.91,29.48,83.91,197.31,Single-ply,SBD,F
Girls,60.1,1,Perla Resendiz,Port Lavaca Calhoun,59.42,149.69,63.5,147.42,360.61,Single-ply,SBD,F
Girls,60.1,2,Sabrina Albury,San Antonio Brooks Academy,57.61,129.27,81.65,129.27,340.19,Single-ply,SBD,F
Girls,60.1,3,Sam Wick,Weimar,57.06,133.81,61.23,136.08,331.12,Single-ply,SBD,F
Girls,60.1,4,Jasmine Ruiz,San Antonio Brooks Academy,57.61,131.54,79.38,108.86,319.78,Single-ply,SBD,F
Girls,60.1,5,Kristen Moore,Stockdale,59.42,122.47,52.16,129.27,303.91,Single-ply,SBD,F
Girls,60.1,6,Kelsey Kallman,Victoria West,58.51,108.86,47.63,108.86,265.35,Single-ply,SBD,F
Girls,60.1,7,Kaitlyn Duval,Victoria West,59.33,104.33,52.16,106.59,263.08,Single-ply,SBD,F
Girls,60.1,8,Seande Goodhue,Karnes City,56.25,92.99,43.09,115.67,251.74,Single-ply,SBD,F
Girls,60.1,9,Patricia Lara,Karnes City,56.7,102.06,47.63,102.06,251.74,Single-ply,SBD,F
Girls,60.1,10,Kassidy Heitzmann,Victoria East,57.15,83.91,45.36,111.13,240.4,Single-ply,SBD,F
Girls,60.1,11,McKenzie Voelkel,Stockdale,58.51,99.79,47.63,90.72,238.14,Single-ply,SBD,F
Girls,60.1,12,Maya Williams,Universal City Randolph,59.42,90.72,40.82,102.06,233.6,Single-ply,SBD,F
Girls,60.1,13,Sierra Fernandez,Cuero,58.51,88.45,45.36,97.52,231.33,Single-ply,SBD,F
Girls,60.1,14,Allyson Hinojosa,Kenedy,58.06,81.65,43.09,97.52,222.26,Single-ply,SBD,F
Girls,60.1,15,Tori Ince,Gonzales,56.97,77.11,38.56,95.25,210.92,Single-ply,SBD,F
Girls,60.1,16,Kiana Pastrana,Universal City Randolph,58.97,86.18,34.02,79.38,199.58,Single-ply,SBD,F
Girls,60.1,17,Chandler Rab,Victoria East,59.87,99.79,45.36,,145.15,Single-ply,SB,F
Girls,67.36,1,Moriah Guzman,Port Lavaca Calhoun,66.68,174.63,83.91,158.76,417.3,Single-ply,SBD,F
Girls,67.36,2,Zoey Dierlam,Port Lavaca Calhoun,66.77,131.54,79.38,142.88,353.8,Single-ply,SBD,F
Girls,67.36,3,Caley Jackson,Karnes City,66.04,124.74,56.7,151.95,333.39,Single-ply,SBD,F
Girls,67.36,4,Bianca Solis,Poth,66.68,129.27,49.9,120.2,299.37,Single-ply,SBD,F
Girls,67.36,5,Alexis Salazar,George West,64.86,117.93,58.97,117.93,294.84,Single-ply,SBD,F
Girls,67.36,6,Hailey Rinewalt,San Antonio Brooks Academy,66.22,115.67,49.9,124.74,290.3,Single-ply,SBD,F
Girls,67.36,7,Robin Villegas,Port Lavaca Calhoun,62.41,111.13,63.5,113.4,288.03,Single-ply,SBD,F
Girls,67.36,8,Kayci Molina,Runge,63.05,102.06,52.16,133.81,288.03,Single-ply,SBD,F
Girls,67.36,9,Katie Carter,Victoria East,65.32,99.79,52.16,117.93,269.89,Single-ply,SBD,F
Girls,67.36,10,Nallely Gutierrez,San Antonio Brooks Academy,62.14,95.25,56.7,113.4,265.35,Single-ply,SBD,F
Girls,67.36,11,Rianna Jackson,Universal City Randolph,62.6,111.13,47.63,106.59,265.35,Single-ply,SBD,F
Girls,67.36,12,Bryttney London,Universal City Randolph,66.22,90.72,49.9,122.47,263.08,Single-ply,SBD,F
Girls,67.36,13,Imani Moss,Universal City Randolph,61.23,99.79,40.82,97.52,238.14,Single-ply,SBD,F
Girls,67.36,14,Brenna Sestak,Victoria West,62.78,95.25,40.82,97.52,233.6,Single-ply,SBD,F
Girls,67.36,15,Adriana Martinez,Kenedy,67.13,88.45,38.56,106.59,233.6,Single-ply,SBD,F
Girls,67.36,16,Kacee Janek,Poth,61.23,86.18,47.63,97.52,231.33,Single-ply,SBD,F
Girls,67.36,17,Khadyajah Jenkins,Universal City Randolph,62.6,81.65,43.09,102.06,226.8,Single-ply,SBD,F
Girls,67.36,18,Marisol Fernandez,Cuero,62.6,83.91,47.63,86.18,217.72,Single-ply,SBD,F
Girls,67.36,19,Madison Marquart,Poth,63.5,74.84,43.09,90.72,208.65,Single-ply,SBD,F
Girls,67.36,20,Kristina Mancilla,Refugio,67.13,65.77,49.9,90.72,206.38,Single-ply,SBD,F
Girls,67.36,21,Veronica Garcia,San Antonio Brooks Academy,65.77,77.11,38.56,88.45,204.12,Single-ply,SBD,F
Girls,67.36,22,Alex Altimirano,Runge,62.6,65.77,43.09,83.91,192.78,Single-ply,SBD,F
Girls,67.36,23,Jalyssa Morales,Refugio,66.22,68.04,43.09,70.31,181.44,Single-ply,SBD,F
Girls,67.36,24,Shelby Franke,Yorktown,66.68,92.99,45.36,,138.35,Single-ply,SB,F
Girls,67.36,25,Alex Villanueva #1,Kenedy,61.23,40.82,31.75,63.5,136.08,Single-ply,SBD,F
Girls,67.36,26,Kim Rios,Runge,66.77,65.77,,,65.77,Single-ply,S,F
Girls,67.36,DQ,Tiffany Cortinas,George West,61.23,,,,,Single-ply,SBD,F
Girls,75.07,1,Megan Martinez,San Antonio Brooks Academy,72.12,147.42,72.57,127.01,347,Single-ply,SBD,F
Girls,75.07,2,MarKedra Darden,Weimar,71.67,129.27,63.5,138.35,331.12,Single-ply,SBD,F
Girls,75.07,3,Mari Alaniz,Karnes City,74.84,133.81,56.7,124.74,315.25,Single-ply,SBD,F
Girls,75.07,4,Rebekah Geryk,Port Lavaca Calhoun,72.57,124.74,61.23,124.74,310.71,Single-ply,SBD,F
Girls,75.07,5,Kyana Gayden,Universal City Randolph,69.4,108.86,52.16,122.47,283.5,Single-ply,SBD,F
Girls,75.07,6,Alexis Cerda,Gonzales,74.84,104.33,47.63,127.01,278.96,Single-ply,SBD,F
Girls,75.07,7,Taylor Shelton,Victoria West,68.95,102.06,58.97,102.06,263.08,Single-ply,SBD,F
Girls,75.07,8,Paige Delgado,Weimar,73.12,97.52,49.9,115.67,263.08,Single-ply,SBD,F
Girls,75.07,9,Klarrissa Pinon,Odem,69.4,115.67,49.9,90.72,256.28,Single-ply,SBD,F
Girls,75.07,10,Ashley Carrasco,Karnes City,73.94,92.99,47.63,108.86,249.48,Single-ply,SBD,F
Girls,75.07,11,Abbie Holder,Louise,68.95,106.59,43.09,90.72,240.4,Single-ply,SBD,F
Girls,75.07,12,Stephanie Sanchez,Victoria West,72.57,97.52,49.9,92.99,240.4,Single-ply,SBD,F
Girls,75.07,13,Valerie Cardenas,Louise,70.76,90.72,45.36,102.06,238.14,Single-ply,SBD,F
Girls,75.07,14,Emma Rose,Refugio,70.31,72.57,47.63,99.79,219.99,Single-ply,SBD,F
Girls,75.07,15,Natasha Maldonado,Universal City Randolph,69.4,79.38,43.09,95.25,217.72,Single-ply,SBD,F
Girls,75.07,16,Caroline Cozart,Runge,68.04,72.57,36.29,90.72,199.58,Single-ply,SBD,F
Girls,75.07,17,Alex Miller #3,Kenedy,74.39,136.08,,,136.08,Single-ply,S,F
Girls,82.33,1,Kaitlin Rainosek,Weimar,80.29,122.47,54.43,127.01,303.91,Single-ply,SBD,F
Girls,82.33,2,Kaitlyn Valdarrama,Refugio,81.19,115.67,58.97,113.4,288.03,Single-ply,SBD,F
Girls,82.33,3,Macy Mareth,Victoria East,79.83,106.59,54.43,117.93,278.96,Single-ply,SBD,F
Girls,82.33,4,Ashley Cuevas,Karnes City,82.1,115.67,43.09,102.06,260.82,Single-ply,SBD,F
Girls,82.33,5,Alyssa Vasek,Victoria West,78.65,86.18,40.82,99.79,226.8,Single-ply,SBD,F
Girls,90.04,1,Marisol Palacios,Poth,85.28,183.7,83.91,140.61,408.23,Single-ply,SBD,F
Girls,90.04,2,Elizabeth Neitch,Victoria West,87.54,170.1,86.18,145.15,401.43,Single-ply,SBD,F
Girls,90.04,3,Shaylia Tilley,Refugio,88.9,170.1,70.31,136.08,376.48,Single-ply,SBD,F
Girls,90.04,4,Hannah Frank,Victoria East,89.36,133.81,61.23,142.88,337.93,Single-ply,SBD,F
Girls,90.04,DQ,Ashton Miller,Gonzales,84.37,,,,,Single-ply,SBD,F
Girls,100.02,1,Alliah Hildreth,Universal City Randolph,93.89,140.61,70.31,138.35,349.27,Single-ply,SBD,F
Girls,100.02,2,Samantha Heimer,San Antonio Brooks Academy,97.07,129.27,68.04,102.06,299.37,Single-ply,SBD,F
Girls,100.02,3,Clarrissa Hinojosa,Odem,93.44,115.67,47.63,113.4,276.69,Single-ply,SBD,F
Girls,100.02,4,Kimberly Mancilla,Refugio,92.08,88.45,49.9,97.52,235.87,Single-ply,SBD,F
Girls,100.02,DQ,Donancy Vasquez,Nixon Smiley,92.08,,,,,Single-ply,SBD,F
Girls,100.02+,1,Jeanette Olachia,Port Lavaca Calhoun,110.5,172.37,81.65,163.29,417.3,Single-ply,SBD,F
Girls,100.02+,2,Gabby Rodriguez,Gonzales,102.97,140.61,65.77,113.4,319.78,Single-ply,SBD,F
Girls,100.02+,3,Leah Whittington,Cuero,100.7,104.33,49.9,108.86,263.08,Single-ply,SBD,F
Girls,100.02+,4,Kaylynn Lawson,Victoria West,107.95,61.23,38.56,90.72,190.51,Single-ply,SBD,F
Girls,100.02+,5,Shilo Gaitan,Cuero,100.24,102.06,49.9,,151.95,Single-ply,SB,F
Girls,,NS,Mazzie Villareal,George West,,,,,,Single-ply,SBD,F
Girls,,NS,Bianca Serna,George West,,,,,,Single-ply,SBD,F
Girls,,NS,Katia Cavasos,Karnes City,,,,,,Single-ply,SBD,F
Girls,,NS,Alyssa Sauceda,Kenedy,,,,,,Single-ply,SBD,F
Girls,,NS,Gabriela Albiar,Kenedy,,,,,,Single-ply,SBD,F
Girls,,NS,Shania Soliz,Kenedy,,,,,,Single-ply,SBD,F
Girls,,NS,Marissa Hernandez,Kenedy,,,,,,Single-ply,SBD,F
Girls,,NS,Jordan Carrington,Nixon Smiley,,,,,,Single-ply,SBD,F
Girls,,NS,Pricila Equia,Nixon Smiley,,,,,,Single-ply,SBD,F
Girls,,NS,Emily Molina,Runge,,,,,,Single-ply,SBD,F
Girls,,NS,Amanda Castaneda,Runge,,,,,,Single-ply,SBD,F
Girls,,NS,Elizabeth Martinez,Victoria East,,,,,,Single-ply,SBD,F
Girls,,NS,Lauren Garrett,Victoria West,,,,,,Single-ply,SBD,F
Girls,,NS,Grace Murray,Universal City Randolph,,,,,,Single-ply,SBD,F
