Name,WeightClassKg,Division,AgeRange,Equipment,Sex,Best3BenchKg,Bench4Kg,TotalKg,Event,Age,BodyweightKg,Place
Helen Balmania,44,Open,,Raw,F,32.5,,32.5,B,,,1
Pat Ewing,48,Masters 45-49,45-49,Raw,F,62.5,,62.5,B,,,1
Laurie Watson,48,Open,,Raw,F,62.5,65,62.5,B,,,1
Franchesca Morgan,56,Submasters,35-39,Single-ply,F,75,,75,B,,,1
Vicki LaCasella,60,Masters 40-44,40-44,Single-ply,F,77.5,,77.5,B,,,1
Vicki LaCasella,60,Open,,Single-ply,F,77.5,,77.5,B,,,1
Connie Eisenburn,60,Open,,Single-ply,F,67.5,,67.5,B,,,2
Connie Eisenburn,60,Physically Challenged,,Single-ply,F,67.5,,67.5,B,,,1
Cathy Marshall,67.5,Masters 40-44,40-44,Raw,F,75,,75,B,,,1
Bobette Burdick,67.5,Military,,Single-ply,F,97.5,,97.5,B,,,1
Bobette Burdick,67.5,Open,,Single-ply,F,97.5,,97.5,B,,,1
Joanna Perez Negron,67.5,School,0-12,Raw,F,42.5,,42.5,B,11,,1
Joanna Perez Negron,67.5,Youth,0-12,Raw,F,42.5,,42.5,B,11,,1
Susan Mazze,75,Open,,Raw,F,95,97.5,95,B,,,1
Michelline Smith,82.5,Masters 60-64,60-64,Raw,F,37.5,,37.5,B,,,1
Sharon Pipes,82.5,Masters 60-64,60-64,Raw,F,37.5,,37.5,B,,,2
Valerie Crowell,90,Open,,Raw,F,,,,B,,,DQ
Michael Booker #1,52,Teen 16-17,16-17,Raw,M,130,137.5,130,B,16,46.27,1
Rick Iopollo,60,Masters 40-44,40-44,Single-ply,M,120,,120,B,,,1
Tim Orrozco,60,Lifetime,,Single-ply,M,152.5,,152.5,B,,,1
K. Long,60,Novice,,Single-ply,M,110,,110,B,,,1
Tim Orrozco,60,Open,,Single-ply,M,152.5,,152.5,B,,,1
Corey Lee,60,Junior,20-23,Raw,M,145,147.5,145,B,,,1
Chris Ortiz,60,Novice,,Raw,M,120,,120,B,,,1
Scott Rebhun,60,Novice,,Raw,M,65,,65,B,,,2
Chris Ortiz,60,Open,,Raw,M,120,,120,B,,,1
Jordan Indivino,60,School,,Raw,M,35,,35,B,8,,1
Juan Cervantes,60,Teen 16-17,16-17,Single-ply,M,92.5,95,92.5,B,,,1
Jordan Indivino,60,Youth,0-12,Raw,M,35,,35,B,8,,1
Mac Scott,67.5,Masters 45-49,45-49,Single-ply,M,85,,85,B,,,1
Jim Selby,67.5,Masters 65-69,65-69,Raw,M,57.5,,57.5,B,,,1
Lindy Blass,67.5,Masters,40-999,Single-ply,M,95,100,95,B,,,1
Derrin Dellin,67.5,School,13-19,Raw,M,47.5,,47.5,B,,,1
Wayne Yasuda,67.5,Teen 18-19,18-19,Single-ply,M,135,,135,B,18,,1
Derrin Dellin,67.5,Youth,0-12,Raw,M,47.5,,47.5,B,,,1
BJ Tralango,75,Masters 40-44,40-44,Single-ply,M,165,165,165,B,,,1
Mark Keasling,75,Masters 40-44,40-44,Single-ply,M,112.5,,112.5,B,,,2
Dan McLaughlin,75,Masters 40-44,40-44,Single-ply,M,25,,25,B,,,3
Mitch Owen,75,Masters 45-49,45-49,Single-ply,M,170,,170,B,,,1
Delos Eyer,75,Masters 60-64,60-64,Single-ply,M,75,,75,B,,,1
Norberto Santana,75,Masters 65-69,65-69,Raw,M,102.5,,102.5,B,,,1
Sonny Ronolo,75,Masters 75-79,75-79,Single-ply,M,137.5,,137.5,B,75,,1
Harrison Benner,75,Masters 75-79,75-79,Raw,M,90,,90,B,78,,1
M. Glass,75,HS 14-15,14-15,Raw,M,55,,55,B,,,1
Michael Johnson,75,HS 16-17,16-17,Single-ply,M,112.5,,112.5,B,,,1
Michael Johnson,75,Teen 16-17,16-17,Single-ply,M,112.5,,112.5,B,,,1
Rudy Alvarez,75,HS 16-17,16-17,Single-ply,M,112.5,,112.5,B,,,2
Glen Yamashiro,75,Law,,Raw,M,160,,160,B,,,1
Robert Taylor,75,Novice,,Single-ply,M,117.5,,117.5,B,,,1
Mitch Owen,75,Lifetime,,Single-ply,M,170,,170,B,,,1
Mitch Owen,75,Open,,Single-ply,M,170,,170,B,,,1
Brent Leahy,75,Junior,20-23,Raw,M,132.5,142.5,132.5,B,,,1
S. Lay,75,Junior,20-23,Raw,M,127.5,140,127.5,B,,,2
Glen Yamashiro,75,Novice,,Raw,M,160,,160,B,,,1
Eric Matsura,75,Novice,,Raw,M,142.5,,142.5,B,,,2
Kevin Nunez,75,Novice,,Raw,M,125,,125,B,,,3
James Smith,75,Novice,,Raw,M,120,,120,B,,,4
Steve Ward,75,Open,,Raw,M,172.5,,172.5,B,,,1
Eric Matsura,75,Open,,Raw,M,142.5,,142.5,B,,,2
Jim Merlino,75,Open,,Raw,M,140,,140,B,60,,3
Rudy Alvarez,75,Teen 16-17,16-17,Raw,M,112.5,,112.5,B,,,1
M. Glass,75,Teen 14-15,14-15,Raw,M,95,,95,B,,,1
Martin Drake,82.5,Masters 45-49,45-49,Single-ply,M,142.5,,142.5,B,,,1
Hal Berman,82.5,Masters 50-54,50-54,Single-ply,M,172.5,,172.5,B,,,1
Don Covello,82.5,Masters 55-59,55-59,Single-ply,M,125,,125,B,,,1
Mike Stainbrook,82.5,Masters 60-64,60-64,Single-ply,M,140,,140,B,,,1
Mike Stainbrook,82.5,Masters 60-64,60-64,Single-ply,M,120,,120,B,,,2
Richard Simon,82.5,Masters 65-69,65-69,Single-ply,M,100,,100,B,,,1
Keneke Ward,82.5,HS 16-17,16-17,Single-ply,M,112.5,,112.5,B,,,1
Jonathan McKinney,82.5,HS 16-17,16-17,Single-ply,M,110,,110,B,,,2
Angel Gomez,82.5,HS 16-17,16-17,Single-ply,M,72.5,,72.5,B,,,3
Hal Berman,82.5,Law,,Single-ply,M,172.5,,172.5,B,,,1
Martin Drake,82.5,Open,,Single-ply,M,142.5,,142.5,B,,,1
Martin Drake,82.5,Lifetime,,Single-ply,M,142.5,,142.5,B,,,1
Aurleio Valasquez,82.5,Military,,Single-ply,M,127.5,,127.5,B,,,1
Wes Chun,82.5,Open,,Raw,M,140,,140,B,,,1
Wes Chun,82.5,Novice,,Raw,M,140,,140,B,,,1
Marcus Vilalobos,82.5,Open,,Raw,M,115,,115,B,,,2
Keneke Ward,82.5,Teen 16-17,16-17,Raw,M,112.5,,112.5,B,,,1
Ruben Mayorga,82.5,Submasters,35-39,Single-ply,M,167.5,,167.5,B,,,1
Chris Morgan,82.5,Submasters,35-39,Single-ply,M,160,,160,B,,,2
Randy Gallan,82.5,Submasters,35-39,Single-ply,M,160,,160,B,,,3
Jonathan McKinney,82.5,Teen 16-17,16-17,Single-ply,M,110,,110,B,,,1
Ricardo Echeverria,90,Masters 40-44,40-44,Single-ply,M,165,,165,B,,,1
Dave LaCasella,90,Masters 45-49,45-49,Single-ply,M,155,,155,B,,,1
Wayne Carver,90,Masters 45-49,45-49,Single-ply,M,140,,140,B,,,2
Ron Matheson,90,Masters 55-59,55-59,Raw,M,142.5,145,142.5,B,,,1
Malvin Stewart,90,Masters 55-59,55-59,Raw,M,132.5,,132.5,B,,,2
Bob Strange,90,Masters 60-64,60-64,Single-ply,M,140,,140,B,,,1
George Manly,90,Masters 65-69,65-69,Raw,M,100,,100,B,,,1
M. Bonani,90,Masters 65-69,65-69,Raw,M,72.5,,72.5,B,,,2
Bob Boyd,90,Masters 70-74,70-74,Raw,M,67.5,,67.5,B,,,1
Wayne Carver,90,Law,,Single-ply,M,140,,140,B,,,1
Robert DeCourt,90,Lifetime,,Single-ply,M,232.5,240,232.5,B,,,1
Robert DeCourt,90,Open,,Single-ply,M,232.5,240,232.5,B,,,1
Fil Dena,90,Open,,Single-ply,M,195,,195,B,,,2
Dino Thurber,90,Novice,,Raw,M,162.5,,162.5,B,,,1
Ian Chapman,90,Novice,,Raw,M,150,,150,B,,,2
Orlando Philips,90,Open,,Raw,M,145,,145,B,,,1
Henry Fultz,90,Submasters,35-39,Raw,M,167.5,,167.5,B,,,1
Jeroel Johnson,90,Submasters,35-39,Raw,M,142.5,,142.5,B,,,2
James Frizell,90,Teen,13-19,Raw,M,75,,75,B,,,1
Fil Dena,90,Submasters,35-39,Single-ply,M,195,,195,B,,,1
Derrick Carter,90,Submasters,35-39,Single-ply,M,160,,160,B,,,2
Greg Berteaux,90,Submasters,35-39,Single-ply,M,150,,150,B,,,3
Ed Berteaux,100,Masters 40-44,40-44,Single-ply,M,165,,165,B,,,1
Victor Elliott,100,Masters 45-49,45-49,Raw,M,105,,105,B,,,1
Daniel Smith III,100,Masters 50-54,50-54,Single-ply,M,182.5,,182.5,B,,,1
Bob Evans #3,100,Masters 50-54,50-54,Single-ply,M,152.5,,152.5,B,,,2
Todd Ziegler,100,Law,,Single-ply,M,157.5,,157.5,B,,,1
Paul Panucci,100,Law,,Raw,M,25,,25,B,,,1
T. Viola,100,Law Masters,40-999,Single-ply,M,142.5,,142.5,B,,,1
Daniel Smith III,100,Military,,Single-ply,M,182.5,,182.5,B,,,1
Bill Stiles,100,Military,,Single-ply,M,122.5,,122.5,B,,,4
H. Moletta,100,Military,,Single-ply,M,182.5,,182.5,B,,,2
Tracy Sanders,100,Military,,Single-ply,M,170,,170,B,,,3
Bill Stiles,100,Military,,Single-ply,M,122.5,,122.5,B,,,5
Bob Dunham,100,Open,,Single-ply,M,227.5,,227.5,B,,,1
T. Sanders,100,Open,,Single-ply,M,170,,170,B,,,2
Arthur Jones,100,Open,,Raw,M,240,,240,B,,97.98,1
Derrin Centeno,100,Open,,Raw,M,150,,150,B,,,2
Bill Stiles,100,Submasters,35-39,Single-ply,M,122.5,,122.5,B,,,1
Phil Johnson,110,Masters 40-44,40-44,Single-ply,M,192.5,,192.5,B,,,1
Ron Guerringer,110,Masters 40-44,40-44,Raw,M,192.5,,192.5,B,,,1
Rocky Indivino,110,Masters 50-54,50-54,Raw,M,155,,155,B,,,1
Walt Glover,110,Masters 60-64,60-64,Single-ply,M,125,,125,B,,,1
Lewis Thomason,110,Masters 60-64,60-64,Raw,M,145,,145,B,,,1
Don Smith,110,Masters 60-64,60-64,Raw,M,92.5,,92.5,B,,,2
Josh Bryant #1,110,HS,13-19,Single-ply,M,165,,165,B,17,,1
Kevin Ford,110,Law,,Single-ply,M,187.5,,187.5,B,,,1
Victor Hill,110,Lifetime,,Single-ply,M,165,,165,B,,,1
Rett Warren,110,Open,,Single-ply,M,190,,190,B,,,1
Harry Moletta,110,Open,,Single-ply,M,182.5,,182.5,B,,,2
P. Monochio,110,Physically Challenged,,Single-ply,M,155,,155,B,,,1
Tom Cochran,110,Novice,,Raw,M,167.5,,167.5,B,,,1
Ron Gavett,110,Open,,Raw,M,210,,210,B,,,1
Rett Warren,110,Open,,Raw,M,190,,190,B,,,2
Tom Cochran,110,Open,,Raw,M,167.5,,167.5,B,,,3
Victor Hill,110,Submasters,35-39,Single-ply,M,165,,165,B,,,1
Josh Bryant #1,110,Teen,13-19,Single-ply,M,165,,165,B,,,1
Michael Venuta,125,Teen 16-17,16-17,Single-ply,M,165,,165,B,,,1
Jerry Pritchett,125,Teen 16-17,16-17,Single-ply,M,147.5,,147.5,B,,,2
Russ Goodman,125,Masters 40-44,40-44,Single-ply,M,165,,165,B,,,1
John Cuellar,125,Masters 45-49,45-49,Single-ply,M,185,,185,B,,,1
Dave Dreyer,125,Masters 45-49,45-49,Single-ply,M,150,,150,B,,,2
Deny Faler,125,Masters 55-59,55-59,Raw,M,140,,140,B,,,1
Michael Venuta,125,HS,13-19,Single-ply,M,165,,165,B,17,,1
Jerry Pritchett,125,HS,13-19,Single-ply,M,147.5,,147.5,B,17,,2
David Teullar,125,Law,,Single-ply,M,192.5,,192.5,B,,,1
John Cuellar,125,Law,,Single-ply,M,185,,185,B,,,2
Dan Smith,125,Law,,Single-ply,M,175,,175,B,,,3
David Marr,125,Open,,Single-ply,M,222.5,,222.5,B,,,1
LeRoy Walker,125,Junior,20-23,Raw,M,185,,185,B,,,1
Andy Shields,125,Novice,,Raw,M,200,,200,B,,,1
Brett Williams,125,Novice,,Raw,M,110,,110,B,,,2
Andy Shields,125,Open,,Raw,M,200,,200,B,,,1
Robert Speno,125,Open,,Raw,M,190,,190,B,,,2
LeRoy Walker,125,Open,,Raw,M,185,,185,B,,,3
Dan Smith,125,Open,,Raw,M,175,,175,B,,,4
Keith Ward,145,Masters 40-44,40-44,Single-ply,M,162.5,,162.5,B,,,1
Greg Payne,145,Open,,Raw,M,210,,210,B,,,1
Art Ramsey,145,Submasters,35-39,Single-ply,M,237.5,,237.5,B,,,1
Richard Schoenburger,145+,Lifetime,,Raw,M,240,,240,B,,,1
Coco Smith,145+,Open,,Raw,M,245,,245,B,,,1
Richard Schoenburger,145+,Open,,Raw,M,240,,240,B,,,2
Anthony Callier,145+,Novice,,Raw,M,205,,205,B,,226.8,2
Richard Schoenburger,145+,Novice,,Raw,M,240,,240,B,,,1
Mitch Hildrith,145+,Submasters,35-39,Raw,M,,,,B,,,DQ
