Division,WeightClassKg,Place,Name,Team,BodyweightKg,Best3SquatKg,Best3BenchKg,Best3DeadliftKg,TotalKg,Equipment,Event,Sex
Girls,44.23,1,Ana Herrera,Edinburg,42.18,99.79,47.63,92.99,240.4,Single-ply,SBD,F
Girls,44.23,2,Devany Morales,PSJA Memorial,44.13,99.79,40.82,99.79,240.4,Single-ply,SBD,F
Girls,44.23,3,Maria Gutierrez,Edinburg,43.64,95.25,54.43,79.38,229.06,Single-ply,SBD,F
Girls,44.23,4,Lauren Salinas,Edinburg Vela,41.46,74.84,31.75,79.38,185.97,Single-ply,SBD,F
Girls,47.85,1,Iliana Gamez,Edinburg Vela,45.09,129.27,61.23,120.2,310.71,Single-ply,SBD,F
Girls,47.85,2,Nadia Rodriguez,Hidalgo Early College,46.72,108.86,68.04,115.67,292.57,Single-ply,SBD,F
Girls,47.85,3,Genesis Nava,Edcouch-Elsa,47.36,108.86,56.7,117.93,283.5,Single-ply,SBD,F
Girls,47.85,4,Anyssa Navarro,Weslaco East,47.45,106.59,54.43,106.59,267.62,Single-ply,SBD,F
Girls,47.85,5,Crystal Borrego,PSJA Memorial,47.17,92.99,38.56,102.06,233.6,Single-ply,SBD,F
Girls,47.85,6,Nadra Gonzalez,Pharr Valley View,47.45,83.91,47.63,95.25,226.8,Single-ply,SBD,F
Girls,47.85,7,Jailey Contreras,Edcouch-Elsa,47.72,92.99,43.09,83.91,219.99,Single-ply,SBD,F
Girls,47.85,8,Laura Garza,Pharr Valley View,47.36,68.04,36.29,77.11,181.44,Single-ply,SBD,F
Girls,47.85,DQ,Ariel Rendon,PSJA,47.08,68.04,,,,Single-ply,SBD,F
Girls,51.94,1,Evelyn Hernandez,Weslaco East,51.44,145.15,63.5,147.42,356.07,Single-ply,SBD,F
Girls,51.94,2,Diamond Teran,Hidalgo Early College,51.62,127.01,77.11,127.01,331.12,Single-ply,SBD,F
Girls,51.94,3,Kimberly Rodriguez,Edinburg Economedes,50.53,120.2,70.31,124.74,315.25,Single-ply,SBD,F
Girls,51.94,4,Luna Garcia,Pharr Valley View,51.35,115.67,63.5,113.4,292.57,Single-ply,SBD,F
Girls,51.94,5,Alaze Ocanas,Weslaco East,49.53,108.86,52.16,113.4,274.42,Single-ply,SBD,F
Girls,51.94,6,Valerie Romero,Weslaco East,51.71,97.52,54.43,122.47,274.42,Single-ply,SBD,F
Girls,51.94,7,Alexa Cavazos,Pharr Valley View,49.53,113.4,63.5,95.25,272.16,Single-ply,SBD,F
Girls,51.94,8,Lyndsay Horta,Weslaco East,50.71,106.59,56.7,108.86,272.16,Single-ply,SBD,F
Girls,51.94,9,Deena Flores,Edcouch-Elsa,51.8,120.2,52.16,117.93,290.3,Single-ply,SBD,F
Girls,51.94,10,Daisy Cardenas,Weslaco East,51.17,108.86,49.9,102.06,260.82,Single-ply,SBD,F
Girls,51.94,11,Irali Cerda,Donna North,50.53,81.65,49.9,120.2,251.74,Single-ply,SBD,F
Girls,51.94,12,Jacqueline Trevino,Edinburg Economedes,51.71,88.45,49.9,113.4,251.74,Single-ply,SBD,F
Girls,51.94,13,Lilly Serrano,Edcouch-Elsa,48.26,90.72,36.29,111.13,238.14,Single-ply,SBD,F
Girls,51.94,14,Onaitza Morales,Edinburg Vela,49.71,79.38,43.09,95.25,217.72,Single-ply,SBD,F
Girls,51.94,15,Clarissa Rivera #1,La Feria,48.17,72.57,34.02,83.91,190.51,Single-ply,SBD,F
Girls,56.02,1,Kimberly Galarza,Edcouch-Elsa,54.16,115.67,52.16,127.01,294.84,Single-ply,SBD,F
Girls,56.02,2,Jayden Barrientes,PSJA Memorial,55.93,120.2,63.5,102.06,285.76,Single-ply,SBD,F
Girls,56.02,3,Keila Castellanos,Pharr Valley View,55.97,108.86,58.97,117.93,285.76,Single-ply,SBD,F
Girls,56.02,4,Carla Perez,Edinburg Economedes,55.79,106.59,56.7,113.4,276.69,Single-ply,SBD,F
Girls,56.02,5,Bryanna Marroquin,Edinburg North,54.98,97.52,65.77,104.33,267.62,Single-ply,SBD,F
Girls,56.02,6,Fernanda Garza,Donna North,55.16,97.52,43.09,113.4,254.01,Single-ply,SBD,F
Girls,56.02,7,Bebe Quiroz,Edinburg Vela,53.89,74.84,81.65,95.25,251.74,Single-ply,SBD,F
Girls,56.02,8,Kayla Larraga,Edinburg,55.25,92.99,54.43,92.99,240.4,Single-ply,SBD,F
Girls,56.02,9,Brianna Perez,Donna North,55.57,90.72,47.63,99.79,238.14,Single-ply,SBD,F
Girls,56.02,10,Kayla de la Fuente,La Feria,55.34,90.72,47.63,90.72,229.06,Single-ply,SBD,F
Girls,56.02,11,Leslie Losoya,La Feria,55.16,83.91,36.29,83.91,204.12,Single-ply,SBD,F
Girls,56.02,12,Nataly Navarrete,PSJA,52.44,77.11,36.29,83.91,197.31,Single-ply,SBD,F
Girls,56.02,DQ,Brianna Rodriguez,PSJA,54.79,,,,,Single-ply,SBD,F
Girls,60.1,1,Laura Gomez,PSJA Memorial,59.15,163.29,88.45,158.76,410.5,Single-ply,SBD,F
Girls,60.1,2,Amme Alcorchas,PSJA Memorial,59.6,138.35,81.65,136.08,356.07,Single-ply,SBD,F
Girls,60.1,3,Marisol Sauceda,Edinburg Economedes,59.42,122.47,81.65,131.54,335.66,Single-ply,SBD,F
Girls,60.1,4,Maria Gonzalez,PSJA Memorial,58.15,129.27,61.23,124.74,315.25,Single-ply,SBD,F
Girls,60.1,5,Briana Flores,Edinburg Economedes,58.51,131.54,61.23,115.67,308.44,Single-ply,SBD,F
Girls,60.1,6,Heidi Rosales,Donna North,57.52,102.06,63.5,131.54,297.1,Single-ply,SBD,F
Girls,60.1,7,Adamari Martinez,PSJA,56.79,129.27,43.09,113.4,285.76,Single-ply,SBD,F
Girls,60.1,8,Gisselle Cabrera,Edinburg Economedes,58.79,108.86,61.23,106.59,276.69,Single-ply,SBD,F
Girls,60.1,9,Alondra Razo,Edcouch-Elsa,57.24,102.06,52.16,108.86,263.08,Single-ply,SBD,F
Girls,60.1,10,Ayisha Recio,PSJA,56.88,104.33,47.63,92.99,244.94,Single-ply,SBD,F
Girls,60.1,11,Jovanna Torres,Donna North,59.15,86.18,38.56,111.13,235.87,Single-ply,SBD,F
Girls,67.36,1,Yaritza Mar,Hidalgo Early College,65.86,165.56,72.57,136.08,374.21,Single-ply,SBD,F
Girls,67.36,2,Deeandra Flores,Edinburg North,63.32,145.15,70.31,156.49,371.95,Single-ply,SBD,F
Girls,67.36,3,Natalie Maldonado,PSJA Memorial,66.04,151.95,77.11,136.08,365.14,Single-ply,SBD,F
Girls,67.36,4,Angela Elvira,PSJA,66.59,145.15,72.57,147.42,365.14,Single-ply,SBD,F
Girls,67.36,5,Alyssa Salinas,Edinburg,66.04,133.81,72.57,131.54,337.93,Single-ply,SBD,F
Girls,67.36,6,Princess Rios,Edinburg Economedes,65.32,127.01,68.04,129.27,324.32,Single-ply,SBD,F
Girls,67.36,7,Alexa Garcia,Edinburg Vela,66.95,124.74,70.31,113.4,308.44,Single-ply,SBD,F
Girls,67.36,8,Valeria Tejada,Donna North,66.32,108.86,56.7,122.47,288.03,Single-ply,SBD,F
Girls,67.36,9,Kimberly Ramos,Donna North,61.05,108.86,61.23,115.67,285.76,Single-ply,SBD,F
Girls,67.36,10,Karen Rosales,Donna North,61.69,111.13,54.43,111.13,276.69,Single-ply,SBD,F
Girls,67.36,11,Zaylin Cavazos,Edinburg North,67.31,102.06,61.23,106.59,269.89,Single-ply,SBD,F
Girls,67.36,12,Mariana Perez,Donna North,65.23,99.79,49.9,99.79,249.48,Single-ply,SBD,F
Girls,67.36,13,Pamela Torres,La Villa,63.96,92.99,47.63,95.25,235.87,Single-ply,SBD,F
Girls,67.36,14,Dailyn Ricaldy,La Feria,64.23,65.77,36.29,74.84,176.9,Single-ply,SBD,F
Girls,67.36,DQ,Emily Aleman,PSJA,64.95,92.99,,,,Single-ply,SBD,F
Girls,75.07,1,Victoria Trevino,PSJA Memorial,73.21,181.44,108.86,158.76,449.06,Single-ply,SBD,F
Girls,75.07,2,Mackenzie Contreras,Edcouch-Elsa,75.07,179.17,99.79,161.03,439.98,Single-ply,SBD,F
Girls,75.07,3,Jennifer Perez,Edinburg Economedes,73.66,172.37,88.45,163.29,424.11,Single-ply,SBD,F
Girls,75.07,4,Mitzi de la Cruz,Edinburg,72.85,174.63,92.99,149.69,417.3,Single-ply,SBD,F
Girls,75.07,5,Audrey Waller,Edinburg Vela,70.94,151.95,79.38,145.15,376.48,Single-ply,SBD,F
Girls,75.07,6,Odalys Jeronimo,Hidalgo Early College,73.3,145.15,72.57,158.76,376.48,Single-ply,SBD,F
Girls,75.07,7,Josie Munoz,Weslaco East,69.58,158.76,77.11,136.08,371.95,Single-ply,SBD,F
Girls,75.07,8,Araylie Garza,Edcouch-Elsa,74.48,136.08,79.38,127.01,342.46,Single-ply,SBD,F
Girls,75.07,9,Zadie Flores,Edinburg Vela,69.13,120.2,47.63,113.4,281.23,Single-ply,SBD,F
Girls,75.07,10,Michelle Ramirez,Edinburg North,69.13,102.06,56.7,106.59,265.35,Single-ply,SBD,F
Girls,75.07,11,Elizabeth Hernandez,Donna North,70.67,97.52,43.09,106.59,247.21,Single-ply,SBD,F
Girls,75.07,12,Victoria Alejandre,La Feria,73.75,92.99,49.9,90.72,233.6,Single-ply,SBD,F
Girls,75.07,13,Valeria Estrada,Edinburg North,72.67,79.38,47.63,97.52,224.53,Single-ply,SBD,F
Girls,75.07,14,Sydney Frausto,La Feria,74.93,95.25,36.29,90.72,222.26,Single-ply,SBD,F
Girls,75.07,DQ,Irma Ozuna,Edinburg Vela,69.04,83.91,,,,Single-ply,SBD,F
Girls,75.07,DQ,Hillary Arrellano,Edinburg Economedes,73.48,,,,,Single-ply,SBD,F
Girls,82.33,1,Cecilia Serna,Edinburg Economedes,80.83,165.56,92.99,147.42,405.97,Single-ply,SBD,F
Girls,82.33,2,Virginia Watkins,Edinburg Vela,79.83,154.22,70.31,161.03,385.55,Single-ply,SBD,F
Girls,82.33,3,Sabrena Rosales,Edinburg Economedes,79.02,136.08,88.45,136.08,360.61,Single-ply,SBD,F
Girls,82.33,4,Sophia Coronado,Edinburg,80.74,151.95,70.31,131.54,353.8,Single-ply,SBD,F
Girls,82.33,5,Destiny Perez,Edinburg,79.83,151.95,81.65,117.93,351.53,Single-ply,SBD,F
Girls,82.33,6,Dehilia Cantu,Edinburg Vela,75.57,156.49,61.23,129.27,347,Single-ply,SBD,F
Girls,82.33,7,Kayla Cox,Edinburg North,80.38,138.35,72.57,129.27,340.19,Single-ply,SBD,F
Girls,82.33,8,Trinity Guzman,Edinburg North,79.38,113.4,63.5,120.2,297.1,Single-ply,SBD,F
Girls,82.33,9,Mildred Lugo,Edcouch-Elsa,78.2,108.86,70.31,111.13,290.3,Single-ply,SBD,F
Girls,82.33,10,Diony Villanueva,Edinburg Economedes,80.29,124.74,61.23,102.06,288.03,Single-ply,SBD,F
Girls,82.33,11,Ashley Zuniga,Weslaco East,79.74,95.25,45.36,102.06,242.67,Single-ply,SBD,F
Girls,82.33,12,Nallely Garcia,Edinburg Economedes,81.92,72.57,61.23,104.33,238.14,Single-ply,SBD,F
Girls,82.33,13,Angelina Lopez,La Feria,80.83,68.04,45.36,95.25,208.65,Single-ply,SBD,F
Girls,90.04,1,D'Andra Gaitan,Edinburg Economedes,88.63,183.7,111.13,167.83,462.66,Single-ply,SBD,F
Girls,90.04,2,Cristina Cortez,Hidalgo Early College,85.64,167.83,74.84,165.56,408.23,Single-ply,SBD,F
Girls,90.04,3,Victoria Pena,Edcouch-Elsa,86.73,151.95,79.38,145.15,376.48,Single-ply,SBD,F
Girls,90.04,4,Abigail Martinez,PSJA Memorial,83.19,149.69,74.84,133.81,358.34,Single-ply,SBD,F
Girls,90.04,5,Mariela Hefferan,Pharr Valley View,88.63,142.88,70.31,136.08,349.27,Single-ply,SBD,F
Girls,90.04,6,Karla Frias,PSJA Memorial,88.18,129.27,70.31,136.08,335.66,Single-ply,SBD,F
Girls,90.04,7,Alyssa Ramirez,La Feria,86.27,149.69,54.43,127.01,331.12,Single-ply,SBD,F
Girls,90.04,8,Amabella Gonzalez,Pharr Valley View,89.81,138.35,65.77,122.47,326.59,Single-ply,SBD,F
Girls,90.04,9,Michelle Jaramillo,Edinburg,82.92,117.93,70.31,117.93,306.17,Single-ply,SBD,F
Girls,90.04,10,Kimberly Guerra,PSJA,89.54,97.52,63.5,115.67,276.69,Single-ply,SBD,F
Girls,90.04,11,Leticia Flores,PSJA,83.55,108.86,45.36,92.99,247.21,Single-ply,SBD,F
Girls,90.04,12,Destiny Hernandez,Edinburg North,83.55,83.91,52.16,106.59,242.67,Single-ply,SBD,F
Girls,100.02,1,Aysha Lopez,Edinburg,93.71,195.04,104.33,163.29,462.66,Single-ply,SBD,F
Girls,100.02,2,Juana Bolanos,Edinburg Economedes,97.98,192.78,102.06,136.08,430.91,Single-ply,SBD,F
Girls,100.02,3,Alicia Gomez,PSJA Memorial,97.25,158.76,92.99,151.95,403.7,Single-ply,SBD,F
Girls,100.02,4,Britney Ibarra,Hidalgo Early College,98.07,179.17,74.84,149.69,403.7,Single-ply,SBD,F
Girls,100.02,5,Evelyn Garza,Edcouch-Elsa,99.97,163.29,81.65,122.47,367.41,Single-ply,SBD,F
Girls,100.02,6,Melani Flores,Hidalgo Early College,99.88,136.08,72.57,149.69,358.34,Single-ply,SBD,F
Girls,100.02,7,Jewelyanna Rivera,La Villa,95.62,149.69,92.99,108.86,351.53,Single-ply,SBD,F
Girls,100.02,8,Brittney Ramirez,Donna North,99.79,145.15,61.23,124.74,331.12,Single-ply,SBD,F
Girls,100.02,9,Anahi Garcia,Edinburg Economedes,91.35,136.08,70.31,102.06,308.44,Single-ply,SBD,F
Girls,100.02,10,Marrisa Peacock,Edinburg North,93.71,120.2,65.77,111.13,297.1,Single-ply,SBD,F
Girls,100.02,DQ,Brenda Lopez,Pharr Valley View,100.02,206.38,,,,Single-ply,SBD,F
Girls,100.02,DQ,Aaliyah Garcia,Edinburg North,96.34,111.13,,,,Single-ply,SBD,F
Girls,117.71,1,Brianna Larraga,Edinburg,107.41,161.03,97.52,131.54,390.09,Single-ply,SBD,F
Girls,117.71,2,Kaylen Flores,PSJA Memorial,117.12,156.49,83.91,131.54,371.95,Single-ply,SBD,F
Girls,117.71,3,Karla Salinas,Edinburg Vela,108.59,142.88,77.11,133.81,353.8,Single-ply,SBD,F
Girls,117.71,4,Laura Gonzalez,Edinburg North,116.03,102.06,70.31,102.06,274.42,Single-ply,SBD,F
Girls,117.71+,1,Aisha Garcia,Edcouch-Elsa,138.53,136.08,61.23,120.2,317.51,Single-ply,SBD,F
Girls,117.71+,2,Yadhira Gloria,Edinburg,163.29,111.13,63.5,111.13,285.76,Single-ply,SBD,F
