Division,WeightClassKg,Place,Name,Team,BodyweightKg,Best3SquatKg,Best3BenchKg,Best3DeadliftKg,TotalKg,Equipment,Event,Sex,BirthDate
Boys,51.71,1,Hector Gonzalez,Baytown Goose Creek Memorial,50.8,136.08,90.72,158.76,385.55,Single-ply,SBD,M,
Boys,51.71,2,Diego Malm,Magnolia,51.71,127.01,74.84,131.54,333.39,Single-ply,SBD,M,
Boys,51.71,3,Daniel Shipula,Conroe Caney Creek,51.71,97.52,56.7,106.59,260.82,Single-ply,SBD,M,
Boys,51.71,4,Kien Reed,Beaumont West Brook,51.12,102.06,54.43,102.06,258.55,Single-ply,SBD,M,
Boys,51.71,5,Owen Sims,Magnolia,45.09,102.06,47.63,104.33,254.01,Single-ply,SBD,M,
Boys,51.71,6,Troy Hubbard,Waller,51.26,92.99,54.43,102.06,249.48,Single-ply,SBD,M,
Boys,51.71,7,Saul Martinez,Houston Northbrook,49.58,74.84,34.02,83.91,192.78,Single-ply,SBD,M,
Boys,55.79,1,Blaise Ohnheiser,Conroe,55.75,151.95,88.45,172.37,412.77,Single-ply,SBD,M,
Boys,55.79,2,Caleb Burleson,College Station,55.43,158.76,102.06,142.88,403.7,Single-ply,SBD,M,
Boys,55.79,3,Alec Ohnheiser,Conroe,54.98,151.95,95.25,133.81,381.02,Single-ply,SBD,M,
Boys,55.79,4,Emmanuel Villagomez,Conroe Caney Creek,54.43,129.27,83.91,142.88,356.07,Single-ply,SBD,M,
Boys,55.79,5,Alandric Andrade,Brenham,55.52,106.59,74.84,142.88,324.32,Single-ply,SBD,M,
Boys,55.79,6,Matt Provost,Conroe The Woodlands,54.62,131.54,54.43,136.08,322.05,Single-ply,SBD,M,
Boys,55.79,7,Nate Provost,Conroe The Woodlands,55.02,111.13,56.7,151.95,319.78,Single-ply,SBD,M,
Boys,55.79,8,Darian Chambers,Magnolia,55.7,117.93,63.5,136.08,317.51,Single-ply,SBD,M,
Boys,59.87,1,Jared Ali,Conroe The Woodlands,59.15,170.1,92.99,185.97,449.06,Single-ply,SBD,M,
Boys,59.87,2,Cameron Yale,Magnolia,59.33,181.44,90.72,170.1,442.25,Single-ply,SBD,M,
Boys,59.87,3,Erik Julio,Houston Northbrook,58.74,154.22,74.84,154.22,383.29,Single-ply,SBD,M,
Boys,59.87,4,Lance Thomas,Magnolia West,58.47,129.27,83.91,129.27,342.46,Single-ply,SBD,M,
Boys,59.87,5,Marcello Villareal,Houston Northbrook,59.74,124.74,65.77,124.74,315.25,Single-ply,SBD,M,
Boys,67.13,1,Robert Ellis,Galveston Ball,65.5,188.24,111.13,199.58,498.95,Single-ply,SBD,M,
Boys,67.13,2,Daniel Gil,Conroe The Woodlands,66.13,183.7,120.2,183.7,487.61,Single-ply,SBD,M,
Boys,67.13,3,Ian Keck,Magnolia West,64.77,181.44,102.06,179.17,462.66,Single-ply,SBD,M,
Boys,67.13,4,Jesus Loya,Magnolia,66.41,174.63,97.52,181.44,453.59,Single-ply,SBD,M,
Boys,67.13,5,Marc Lopez,Baytown Goose Creek Memorial,66.54,174.63,111.13,167.83,453.59,Single-ply,SBD,M,
Boys,67.13,6,Gabriel Mata,Houston Northbrook,66.77,140.61,79.38,174.63,394.63,Single-ply,SBD,M,
Boys,67.13,7,Cody Costello,Magnolia West,61.14,142.88,102.06,136.08,381.02,Single-ply,SBD,M,
Boys,67.13,8,Christian Hendricks,Baytown Goose Creek Memorial,67,147.42,86.18,145.15,378.75,Single-ply,SBD,M,
Boys,67.13,9,Geovon Evens,Galveston Ball,67.13,142.88,90.72,142.88,376.48,Single-ply,SBD,M,
Boys,67.13,10,Alex Turner #1,Conroe The Woodlands,66.41,129.27,81.65,156.49,367.41,Single-ply,SBD,M,
Boys,67.13,11,Rogelio Barrera,Conroe,63.32,136.08,83.91,142.88,362.87,Single-ply,SBD,M,
Boys,67.13,12,Seth Fortune,Galveston Ball,63.28,106.59,81.65,133.81,322.05,Single-ply,SBD,M,
Boys,67.13,13,Gonzalo Diaz,Conroe Caney Creek,62.78,111.13,70.31,120.2,301.64,Single-ply,SBD,M,
Boys,67.13,14,Hernan Cabrera,Baytown Goose Creek Memorial,67.13,102.06,61.23,113.4,276.69,Single-ply,SBD,M,
Boys,67.13,DQ,Keaton Gleason,Waller,64.41,142.88,,,,Single-ply,SBD,M,
Boys,74.84,1,Erin Esquivel,Conroe Caney Creek,72.21,215.46,138.35,210.92,564.72,Single-ply,SBD,M,
Boys,74.84,2,Amir Johnson,Brenham,69.13,215.46,111.13,204.12,530.7,Single-ply,SBD,M,
Boys,74.84,3,Landon Thomas,Magnolia West,72.57,215.46,115.67,197.31,528.44,Single-ply,SBD,M,
Boys,74.84,4,Bret Peterson,Conroe The Woodlands,74.84,208.65,113.4,185.97,508.02,Single-ply,SBD,M,
Boys,74.84,5,Moises Soto,Magnolia,74.8,181.44,136.08,181.44,498.95,Single-ply,SBD,M,
Boys,74.84,6,Weston Tutle,Conroe The Woodlands,72.89,185.97,106.59,201.85,494.42,Single-ply,SBD,M,
Boys,74.84,7,Phillip Wimberly,Magnolia,72.98,192.78,111.13,188.24,492.15,Single-ply,SBD,M,
Boys,74.84,8,Michael Carter,Magnolia,74.71,204.12,104.33,179.17,487.61,Single-ply,SBD,M,
Boys,74.84,9,Zha'Mauryon Lofton,College Station,73.94,183.7,88.45,195.04,467.2,Single-ply,SBD,M,
Boys,74.84,10,Brian Ibanez,Waller,72.12,183.7,95.25,183.7,462.66,Single-ply,SBD,M,
Boys,74.84,11,Casey Parker,Crosby,73.26,195.04,97.52,165.56,458.13,Single-ply,SBD,M,
Boys,74.84,12,Kolton Griswold,College Station,74.75,183.7,92.99,172.37,449.06,Single-ply,SBD,M,
Boys,74.84,13,William Gomez,Galveston Ball,71.85,165.56,111.13,170.1,446.79,Single-ply,SBD,M,
Boys,74.84,14,Gregory James,Galveston Ball,69.08,158.76,102.06,172.37,433.18,Single-ply,SBD,M,
Boys,74.84,15,Marquise Collins,College Station,70.99,165.56,83.91,156.49,405.97,Single-ply,SBD,M,
Boys,74.84,16,Anthony Goldbeck,Beaumont West Brook,70.03,142.88,99.79,161.03,403.7,Single-ply,SBD,M,
Boys,74.84,17,Anthony Bruins,Waller,74.84,149.69,92.99,151.95,394.63,Single-ply,SBD,M,
Boys,74.84,18,Jeremy Lerma,College Station,74.25,158.76,77.11,138.35,374.21,Single-ply,SBD,M,
Boys,74.84,19,Giovanni Rodriguez #2,Baytown Goose Creek Memorial,69.44,129.27,79.38,142.88,351.53,Single-ply,SBD,M,
Boys,74.84,20,Chance Courville,Galveston Ball,70.53,106.59,79.38,149.69,335.66,Single-ply,SBD,M,
Boys,74.84,21,Darius Turner,Galveston Ball,68.81,120.2,70.31,136.08,326.59,Single-ply,SBD,M,
Boys,74.84,22,Jacob Perez,Baytown Goose Creek Memorial,72.3,129.27,70.31,124.74,324.32,Single-ply,SBD,M,
Boys,74.84,23,Bersain Zamora,Galveston Ball,67.99,97.52,61.23,102.06,260.82,Single-ply,SBD,M,
Boys,82.1,1,Tristan Adair,Waller,79.83,215.46,145.15,251.74,612.35,Single-ply,SBD,M,
Boys,82.1,2,Mark Garcia,Crosby,81.65,235.87,133.81,226.8,596.47,Single-ply,SBD,M,
Boys,82.1,3,Nathan Leone,Conroe The Woodlands,81.47,226.8,111.13,213.19,551.11,Single-ply,SBD,M,
Boys,82.1,4,Bryce Johntson,Baytown Goose Creek Memorial,78.97,188.24,106.59,213.19,508.02,Single-ply,SBD,M,
Boys,82.1,5,Amarion Johnson,Waller,77.29,158.76,102.06,188.24,449.06,Single-ply,SBD,M,
Boys,82.1,6,Zachary Phipps,Waller,78.93,165.56,81.65,183.7,430.91,Single-ply,SBD,M,
Boys,82.1,7,Charles Goedrich,Waller,77.7,142.88,95.25,167.83,405.97,Single-ply,SBD,M,
Boys,82.1,8,Lyric Lemons,Galveston Ball,77.66,129.27,108.86,158.76,396.89,Single-ply,SBD,M,
Boys,82.1,9,Miguel Huerta,Waller,80.74,113.4,61.23,136.08,310.71,Single-ply,SBD,M,
Boys,82.1,10,Ethan Scott,Conroe The Woodlands,81.56,102.06,83.91,113.4,299.37,Single-ply,SBD,M,
Boys,82.1,DQ,Jakob Davis,Brenham,81.83,,,,,Single-ply,SBD,M,
Boys,82.1,DQ,Isaiah Cavazas,Crosby,76.84,,92.99,183.7,,Single-ply,SBD,M,
Boys,89.81,1,Luke McAffety,Magnolia West,83.51,272.16,142.88,231.33,646.37,Single-ply,SBD,M,
Boys,89.81,2,Micaiah Loop,Conroe,89.81,219.99,133.81,260.82,614.62,Single-ply,SBD,M,
Boys,89.81,3,Jonathan Garcia #3,Magnolia West,89.27,238.14,147.42,226.8,612.35,Single-ply,SBD,M,
Boys,89.81,4,Shannon Richardson,Conroe,89.22,181.44,97.52,226.8,505.76,Single-ply,SBD,M,
Boys,89.81,5,Alejandro Morrell,Magnolia,88.31,185.97,99.79,188.24,474,Single-ply,SBD,M,
Boys,89.81,6,Caleb Godfrey,Waller,89.36,154.22,111.13,170.1,435.45,Single-ply,SBD,M,
Boys,89.81,7,Alex Ragussa,College Station,83.64,170.1,95.25,165.56,430.91,Single-ply,SBD,M,
Boys,89.81,8,Jamari Thompson,Waller,89.36,158.76,104.33,167.83,430.91,Single-ply,SBD,M,
Boys,89.81,9,Daayan Ahmed,College Station,85,156.49,81.65,158.76,396.89,Single-ply,SBD,M,
Boys,89.81,10,Luis Marcial,Baytown Goose Creek Memorial,85.82,136.08,72.57,122.47,331.12,Single-ply,SBD,M,
Boys,89.81,11,Brayan Resendiz,Houston Northbrook,89.09,163.29,77.11,,240.4,Single-ply,SB,M,
Boys,89.81,DQ,Jorge Valle,Houston Northbrook,89.63,142.88,,,,Single-ply,SBD,M,
Boys,89.81,DQ,Bobby Jones,Beaumont West Brook,87.86,190.51,,,,Single-ply,SBD,M,
Boys,89.81,DQ,Spencer Brandon,Conroe Caney Creek,88.99,254.01,158.76,,,Single-ply,SBD,M,
Boys,89.81,DQ,Harold Knight,Conroe The Woodlands,85.73,195.04,117.93,,,Single-ply,SBD,M,
Boys,89.81,DQ,Anthony Martinez,Crosby,84.96,,,,,Single-ply,SBD,M,
Boys,89.81,DQ,William Goodnight,Waller,88,145.15,,,,Single-ply,SBD,M,
Boys,99.79,1,Logan Ecuyer,Conroe The Woodlands,98.88,272.16,163.29,258.55,694,Single-ply,SBD,M,
Boys,99.79,2,Joey Miniassian,Magnolia West,91.13,254.01,142.88,249.48,646.37,Single-ply,SBD,M,
Boys,99.79,3,Kaden Jones,Crosby,99.74,263.08,138.35,208.65,610.08,Single-ply,SBD,M,
Boys,99.79,4,Payton Blair,College Station,97.11,219.99,127.01,199.58,546.58,Single-ply,SBD,M,
Boys,99.79,5,Braden Wright,Crosby,97.07,219.99,108.86,204.12,532.97,Single-ply,SBD,M,
Boys,99.79,6,Haden Jansky,Magnolia West,99.56,188.24,102.06,204.12,494.42,Single-ply,SBD,M,
Boys,99.79,7,Edwin Galarza,Galveston Ball,95.66,192.78,102.06,185.97,480.81,Single-ply,SBD,M,
Boys,99.79,8,Kasen McClean,Waller,93.89,172.37,122.47,172.37,467.2,Single-ply,SBD,M,
Boys,99.79,9,Joshua Sott,Waller,92.53,158.76,117.93,181.44,458.13,Single-ply,SBD,M,
Boys,99.79,10,Austin Hulska,Magnolia West,92.53,158.76,104.33,181.44,444.52,Single-ply,SBD,M,
Boys,99.79,11,Kade LaSagna,Brenham,98.11,156.49,102.06,165.56,424.11,Single-ply,SBD,M,
Boys,99.79,12,Noah Atkinson,Waller,98.88,120.2,95.25,136.08,351.53,Single-ply,SBD,M,
Boys,99.79,DQ,Cody Riendeau,Crosby,91.67,188.24,,183.7,,Single-ply,SBD,M,
Boys,109.77,1,Hayden Goodlett,College Station,109.32,263.08,172.37,240.4,675.85,Single-ply,SBD,M,
Boys,109.77,2,Cody Koska,Magnolia West,107.27,240.4,131.54,219.99,591.94,Single-ply,SBD,M,
Boys,109.77,3,Ethan Robbins,Conroe Caney Creek,100.7,272.16,122.47,185.97,580.6,Single-ply,SBD,M,
Boys,109.77,4,Chika Ordin,Houston Northbrook,104.1,215.46,111.13,231.33,557.92,Single-ply,SBD,M,
Boys,109.77,5,Joshua Flores,Conroe Caney Creek,101.06,238.14,124.74,192.78,555.65,Single-ply,SBD,M,
Boys,109.77,6,Noel Campos,Crosby,108.14,215.46,129.27,210.92,555.65,Single-ply,SBD,M,
Boys,109.77,7,Mario Chavez,New Waverly,107.05,165.56,102.06,154.22,421.84,Single-ply,SBD,M,
Boys,109.77,8,Jairo Garcia,Waller,100.7,136.08,92.99,156.49,385.55,Single-ply,SBD,M,
Boys,109.77,9,Devon Washington,Brenham,107.27,102.06,102.06,142.88,347,Single-ply,SBD,M,
Boys,109.77,DQ,Mason Feldman,Magnolia,109,226.8,138.35,,,Single-ply,SBD,M,
Boys,109.77,DQ,Ryan Mouton,Beaumont West Brook,102.87,,,,,Single-ply,SBD,M,
Boys,124.74,1,Jonathan Reyes,Conroe Caney Creek,120.79,317.51,158.76,226.8,703.07,Single-ply,SBD,M,
Boys,124.74,2,Carlos Ortiz,Magnolia,112.9,260.82,140.61,233.6,635.03,Single-ply,SBD,M,
Boys,124.74,3,Cameron Barr,Conroe Caney Creek,112.31,249.48,151.95,206.38,607.81,Single-ply,SBD,M,
Boys,124.74,4,Miguel Ortiz,Magnolia West,123.56,215.46,142.88,204.12,562.45,Single-ply,SBD,M,
Boys,124.74,5,Lee Graves,Brenham,117.75,204.12,124.74,183.7,512.56,Single-ply,SBD,M,
Boys,124.74,6,Marque Johnson,Conroe,121.06,197.31,113.4,197.31,508.02,Single-ply,SBD,M,
Boys,124.74,7,McCoy Casey,Crosby,113.9,197.31,111.13,192.78,501.22,Single-ply,SBD,M,
Boys,124.74,8,Kaleb DeVous,Brenham,124.15,163.29,117.93,172.37,453.59,Single-ply,SBD,M,
Boys,124.74,9,David Castillo,Houston Northbrook,118.12,190.51,65.77,,256.28,Single-ply,SB,M,
Boys,124.74,DQ,Alejandro Martinez,Houston Northbrook,115.3,188.24,,,,Single-ply,SBD,M,
Boys,124.74,DQ,Tyler Thomas,Crosby,124.15,,,,,Single-ply,SBD,M,
Boys,124.74,DQ,Christian Sagastegui,Crosby,111.04,181.44,,,,Single-ply,SBD,M,
Boys,124.74,DQ,Jose Cuevas,Galveston Ball,115.85,195.04,,,,Single-ply,SBD,M,
Boys,124.74+,1,Michael Flores #5,Conroe Caney Creek,166.15,294.84,154.22,219.99,669.05,Single-ply,SBD,M,
Boys,124.74+,2,Kade Bond,Magnolia,137.44,251.74,176.9,235.87,664.51,Single-ply,SBD,M,
Boys,124.74+,3,Gus Rice,Waller,149.23,206.38,129.27,242.67,578.33,Single-ply,SBD,M,
Boys,124.74+,4,J'Quadrian McDade,Waller,148.78,172.37,129.27,181.44,483.08,Single-ply,SBD,M,
Boys,124.74+,DQ,Lance Maxie,Brenham,132,192.78,142.88,,,Single-ply,SBD,M,
Boys,124.74+,DQ,Kobe Washington,Brenham,141.75,206.38,142.88,,,Single-ply,SBD,M,
Boys,124.74+,DQ,Richard Murillo,Houston Northbrook,154.54,,88.45,158.76,,Single-ply,SBD,M,
