Name,WeightClassKg,Division,AgeRange,Sex,Best3SquatKg,Best3BenchKg,Best3DeadliftKg,TotalKg,Event,Equipment,Place
Smith,44,High School,13-19,F,92.5,35,92.5,220,SBD,Single-ply,1
Bell,44,High School,13-19,F,70,35,80,185,SBD,Single-ply,2
Pircher,48,High School,13-19,F,97.5,47.5,105,250,SBD,Single-ply,1
Browder,48,High School,13-19,F,90,42.5,107.5,240,SBD,Single-ply,2
Johnson,48,High School,13-19,F,87.5,37.5,105,230,SBD,Single-ply,3
Haisty,48,High School,13-19,F,80,32.5,100,212.5,SBD,Single-ply,4
Robicheaux,48,High School,13-19,F,80,42.5,85,207.5,SBD,Single-ply,5
Blazier,52,High School,13-19,F,105,42.5,115,262.5,SBD,Single-ply,1
Cauley,52,High School,13-19,F,100,40,112.5,252.5,SBD,Single-ply,2
Wing,52,High School,13-19,F,87.5,47.5,110,245,SBD,Single-ply,3
Vickary,52,High School,13-19,F,82.5,40,107.5,230,SBD,Single-ply,4
Smith,52,High School,13-19,F,72.5,37.5,102.5,212.5,SBD,Single-ply,5
Barrett,52,High School,13-19,F,65,35,77.5,177.5,SBD,Single-ply,6
Edwards,56,High School,13-19,F,127.5,60,147.5,335,SBD,Single-ply,1
Bowshier,56,High School,13-19,F,127.5,67.5,137.5,332.5,SBD,Single-ply,2
Bell,56,High School,13-19,F,125,55,110,290,SBD,Single-ply,3
Williams,56,High School,13-19,F,117.5,52.5,102.5,272.5,SBD,Single-ply,4
Gonzales,56,High School,13-19,F,75,37.5,107.5,220,SBD,Single-ply,5
Cheeks,56,High School,13-19,F,82.5,37.5,97.5,217.5,SBD,Single-ply,6
Fields,56,High School,13-19,F,80,40,85,205,SBD,Single-ply,7
Cowart,60,High School,13-19,F,122.5,47.5,130,300,SBD,Single-ply,1
Nicholson,60,High School,13-19,F,107.5,50,120,277.5,SBD,Single-ply,2
Chandler,60,High School,13-19,F,102.5,57.5,112.5,272.5,SBD,Single-ply,3
Paschal,60,High School,13-19,F,95,55,100,250,SBD,Single-ply,4
Carwile,60,High School,13-19,F,75,30,97.5,202.5,SBD,Single-ply,5
Pierce,60,High School,13-19,F,70,35,97.5,202.5,SBD,Single-ply,6
Perkins,67.5,High School,13-19,F,117.5,50,127.5,295,SBD,Single-ply,1
Able,67.5,High School,13-19,F,105,32.5,122.5,260,SBD,Single-ply,2
Carpenter,67.5,High School,13-19,F,92.5,45,117.5,255,SBD,Single-ply,3
Sharp,67.5,High School,13-19,F,92.5,50,110,252.5,SBD,Single-ply,4
Reeves,67.5,High School,13-19,F,90,37.5,102.5,230,SBD,Single-ply,5
Brown,75,High School,13-19,F,157.5,60,172.5,390,SBD,Single-ply,1
Pigeon,75,High School,13-19,F,107.5,52.5,140,300,SBD,Single-ply,2
Able,75,High School,13-19,F,120,47.5,120,287.5,SBD,Single-ply,3
Jennifer Russow,82.5,High School,13-19,F,162.5,62.5,147.5,372.5,SBD,Single-ply,1
Saldana,82.5,High School,13-19,F,140,77.5,145,362.5,SBD,Single-ply,2
Wright,82.5,High School,13-19,F,117.5,52.5,120,290,SBD,Single-ply,3
Brandye Parr,82.5,High School,13-19,F,110,47.5,122.5,280,SBD,Single-ply,4
L. Trahan,90,High School,13-19,F,132.5,70,132.5,335,SBD,Single-ply,1
Welch,90,High School,13-19,F,90,50,125,265,SBD,Single-ply,2
Chapin,90,High School,13-19,F,90,52.5,117.5,260,SBD,Single-ply,3
Jewell,90+,High School,13-19,F,155,70,145,370,SBD,Single-ply,1
Smith,90+,High School,13-19,F,130,62.5,132.5,325,SBD,Single-ply,2
Johnson,90+,High School,13-19,F,107.5,72.5,127.5,307.5,SBD,Single-ply,3
Constance,90+,High School,13-19,F,112.5,62.5,112.5,287.5,SBD,Single-ply,4
Herrera,52,Freshman-Sophomore,13-19,M,125,70,147.5,342.5,SBD,Single-ply,1
Reed,52,Freshman-Sophomore,13-19,M,102.5,67.5,132.5,302.5,SBD,Single-ply,2
Johnson,52,Freshman-Sophomore,13-19,M,105,55,127.5,287.5,SBD,Single-ply,3
Rogers #5,52,Freshman-Sophomore,13-19,M,105,52.5,112.5,270,SBD,Single-ply,4
Brewer,52,Freshman-Sophomore,13-19,M,85,60,112.5,257.5,SBD,Single-ply,5
Hugh,56,Freshman-Sophomore,13-19,M,155,95,167.5,417.5,SBD,Single-ply,1
Humphrey,56,Freshman-Sophomore,13-19,M,137.5,65,150,352.5,SBD,Single-ply,2
Cobb,56,Freshman-Sophomore,13-19,M,132.5,65,140,337.5,SBD,Single-ply,3
Holland,56,Freshman-Sophomore,13-19,M,117.5,72.5,145,335,SBD,Single-ply,4
Witt,56,Freshman-Sophomore,13-19,M,115,52.5,145,312.5,SBD,Single-ply,5
Mays,56,Freshman-Sophomore,13-19,M,117.5,55,132.5,305,SBD,Single-ply,6
Staffa,56,Freshman-Sophomore,13-19,M,102.5,62.5,130,295,SBD,Single-ply,7
Mayces,56,Freshman-Sophomore,13-19,M,142.5,,,,SBD,Single-ply,DQ
Lombard,60,Freshman-Sophomore,13-19,M,197.5,120,212.5,530,SBD,Single-ply,1
Devine,60,Freshman-Sophomore,13-19,M,200,92.5,187.5,480,SBD,Single-ply,2
Melancon,60,Freshman-Sophomore,13-19,M,170,100,180,450,SBD,Single-ply,3
Monroe,60,Freshman-Sophomore,13-19,M,155,102.5,180,437.5,SBD,Single-ply,5
Gold,60,Freshman-Sophomore,13-19,M,155,112.5,177.5,445,SBD,Single-ply,4
Hawkins,60,Freshman-Sophomore,13-19,M,155,97.5,162.5,415,SBD,Single-ply,6
Palmer,60,Freshman-Sophomore,13-19,M,147.5,105,155,407.5,SBD,Single-ply,7
Erter,60,Freshman-Sophomore,13-19,M,137.5,67.5,157.5,362.5,SBD,Single-ply,8
Walters,60,Freshman-Sophomore,13-19,M,132.5,67.5,157.5,357.5,SBD,Single-ply,9
Spencer,60,Freshman-Sophomore,13-19,M,110,60,135,305,SBD,Single-ply,10
Staffa,60,Freshman-Sophomore,13-19,M,97.5,65,125,287.5,SBD,Single-ply,11
Davis,67.5,Freshman-Sophomore,13-19,M,205,122.5,197.5,525,SBD,Single-ply,1
Dillard,67.5,Freshman-Sophomore,13-19,M,185,105,192.5,482.5,SBD,Single-ply,2
Smith,67.5,Freshman-Sophomore,13-19,M,187.5,87.5,207.5,482.5,SBD,Single-ply,3
Miner,67.5,Freshman-Sophomore,13-19,M,175,82.5,182.5,440,SBD,Single-ply,4
Williams,67.5,Freshman-Sophomore,13-19,M,127.5,90,172.5,390,SBD,Single-ply,5
Johnson,67.5,Freshman-Sophomore,13-19,M,152.5,87.5,147.5,387.5,SBD,Single-ply,6
Ballard,67.5,Freshman-Sophomore,13-19,M,145,75,160,380,SBD,Single-ply,7
Keller #2,67.5,Freshman-Sophomore,13-19,M,127.5,90,140,357.5,SBD,Single-ply,8
Thomas,67.5,Freshman-Sophomore,13-19,M,115,77.5,145,337.5,SBD,Single-ply,9
Harp,67.5,Freshman-Sophomore,13-19,M,122.5,75,137.5,335,SBD,Single-ply,10
Wilson,67.5,Freshman-Sophomore,13-19,M,115,67.5,142.5,325,SBD,Single-ply,11
J. Hofsess,67.5,Freshman-Sophomore,13-19,M,112.5,55,137.5,305,SBD,Single-ply,12
Ramos,75,Freshman-Sophomore,13-19,M,202.5,97.5,220,520,SBD,Single-ply,1
Corbin,75,Freshman-Sophomore,13-19,M,175,100,212.5,487.5,SBD,Single-ply,2
Wilrye,75,Freshman-Sophomore,13-19,M,150,130,195,475,SBD,Single-ply,3
Bass,75,Freshman-Sophomore,13-19,M,170,82.5,180,432.5,SBD,Single-ply,4
Green,75,Freshman-Sophomore,13-19,M,145,97.5,160,402.5,SBD,Single-ply,5
Harris,75,Freshman-Sophomore,13-19,M,132.5,72.5,172.5,377.5,SBD,Single-ply,6
Baker,75,Freshman-Sophomore,13-19,M,117.5,85,137.5,340,SBD,Single-ply,7
Shirklane,75,Freshman-Sophomore,13-19,M,162.5,90,,,SBD,Single-ply,DQ
Reid,82.5,Freshman-Sophomore,13-19,M,212.5,125,220,557.5,SBD,Single-ply,1
Steen,82.5,Freshman-Sophomore,13-19,M,205,112.5,192.5,510,SBD,Single-ply,2
Algie,82.5,Freshman-Sophomore,13-19,M,155,122.5,195,472.5,SBD,Single-ply,3
George #3,82.5,Freshman-Sophomore,13-19,M,180,97.5,172.5,450,SBD,Single-ply,4
Painter,82.5,Freshman-Sophomore,13-19,M,152.5,105,185,442.5,SBD,Single-ply,5
Monk,82.5,Freshman-Sophomore,13-19,M,147.5,95,190,432.5,SBD,Single-ply,6
Stinneb,90,Freshman-Sophomore,13-19,M,225,140,230,595,SBD,Single-ply,1
Hutchins,90,Freshman-Sophomore,13-19,M,227.5,117.5,237.5,582.5,SBD,Single-ply,2
Sit,90,Freshman-Sophomore,13-19,M,227.5,107.5,220,555,SBD,Single-ply,3
Smith,90,Freshman-Sophomore,13-19,M,210,100,225,535,SBD,Single-ply,4
Penny,90,Freshman-Sophomore,13-19,M,227.5,102.5,202.5,532.5,SBD,Single-ply,5
Munoz,90,Freshman-Sophomore,13-19,M,227.5,92.5,212.5,532.5,SBD,Single-ply,6
Rump,90,Freshman-Sophomore,13-19,M,185,97.5,180,462.5,SBD,Single-ply,8
Thomas,90,Freshman-Sophomore,13-19,M,182.5,97.5,180,460,SBD,Single-ply,9
Kercheval,90,Freshman-Sophomore,13-19,M,182.5,127.5,192.5,502.5,SBD,Single-ply,7
Berry,90,Freshman-Sophomore,13-19,M,187.5,92.5,175,455,SBD,Single-ply,10
Many,90,Freshman-Sophomore,13-19,M,167.5,90,182.5,440,SBD,Single-ply,11
Spence #2,90,Freshman-Sophomore,13-19,M,137.5,70,157.5,365,SBD,Single-ply,12
Hesson,100,Freshman-Sophomore,13-19,M,200,147.5,247.5,595,SBD,Single-ply,1
Allen,100,Freshman-Sophomore,13-19,M,237.5,127.5,215,580,SBD,Single-ply,2
Moody,100,Freshman-Sophomore,13-19,M,212.5,110,227.5,550,SBD,Single-ply,3
Dean,100,Freshman-Sophomore,13-19,M,215,115,215,545,SBD,Single-ply,4
Nugent,100,Freshman-Sophomore,13-19,M,185,102.5,200,487.5,SBD,Single-ply,5
Wickers,100,Freshman-Sophomore,13-19,M,175,70,185,430,SBD,Single-ply,7
Kring,100,Freshman-Sophomore,13-19,M,155,107.5,182.5,445,SBD,Single-ply,6
Johnson,100,Freshman-Sophomore,13-19,M,147.5,85,160,392.5,SBD,Single-ply,8
Mateo,110,Freshman-Sophomore,13-19,M,240,160,262.5,662.5,SBD,Single-ply,1
Stratton,110,Freshman-Sophomore,13-19,M,245,160,212.5,617.5,SBD,Single-ply,2
Calhoun,110,Freshman-Sophomore,13-19,M,220,125,260,605,SBD,Single-ply,3
Flory,110,Freshman-Sophomore,13-19,M,187.5,125,240,552.5,SBD,Single-ply,4
Calvin,110,Freshman-Sophomore,13-19,M,220,110,205,535,SBD,Single-ply,5
Schmidt,110,Freshman-Sophomore,13-19,M,192.5,90,205,487.5,SBD,Single-ply,6
Eason,110,Freshman-Sophomore,13-19,M,175,110,192.5,477.5,SBD,Single-ply,7
Anderson,110,Freshman-Sophomore,13-19,M,185,87.5,205,477.5,SBD,Single-ply,8
Mayfield,110,Freshman-Sophomore,13-19,M,,,,,SBD,Single-ply,DQ
Burrows,125,Freshman-Sophomore,13-19,M,232.5,140,275,647.5,SBD,Single-ply,1
Bradford,125,Freshman-Sophomore,13-19,M,227.5,145,252.5,625,SBD,Single-ply,2
Walleson,125,Freshman-Sophomore,13-19,M,192.5,120,182.5,495,SBD,Single-ply,3
Pollins,125,Freshman-Sophomore,13-19,M,185,75,150,410,SBD,Single-ply,4
Martin,125,Freshman-Sophomore,13-19,M,155,72.5,165,392.5,SBD,Single-ply,5
Green,52,Junior-Senior,13-19,M,162.5,70,192.5,425,SBD,Single-ply,1
Dininger,52,Junior-Senior,13-19,M,137.5,67.5,157.5,362.5,SBD,Single-ply,2
Herrera,52,Junior-Senior,13-19,M,125,70,147.5,342.5,SBD,Single-ply,3
Lance Mays,56,Junior-Senior,13-19,M,231,112.5,227.5,571,SBD,Single-ply,1
Sandoval,56,Junior-Senior,13-19,M,177.5,92.5,187.5,457.5,SBD,Single-ply,2
Bennett,56,Junior-Senior,13-19,M,147.5,95,177.5,420,SBD,Single-ply,3
Hugh,56,Junior-Senior,13-19,M,155,95,167.5,417.5,SBD,Single-ply,4
Stuart,56,Junior-Senior,13-19,M,160,92.5,160,412.5,SBD,Single-ply,5
Johnson,56,Junior-Senior,13-19,M,145,77.5,157.5,380,SBD,Single-ply,6
Castillo,56,Junior-Senior,13-19,M,80,72.5,115,267.5,SBD,Single-ply,7
Holmes,60,Junior-Senior,13-19,M,212.5,105,230,547.5,SBD,Single-ply,1
Davis,60,Junior-Senior,13-19,M,187.5,95,197.5,480,SBD,Single-ply,2
Devine,60,Junior-Senior,13-19,M,200,92.5,187.5,480,SBD,Single-ply,3
Mattorand,60,Junior-Senior,13-19,M,165,117.5,175,457.5,SBD,Single-ply,4
Boyd,60,Junior-Senior,13-19,M,170,110,175,455,SBD,Single-ply,5
Miner,60,Junior-Senior,13-19,M,165,90,182.5,437.5,SBD,Single-ply,6
Gold,60,Junior-Senior,13-19,M,142.5,112.5,177.5,432.5,SBD,Single-ply,7
McGee,60,Junior-Senior,13-19,M,160,92.5,175,427.5,SBD,Single-ply,8
Hawkins,60,Junior-Senior,13-19,M,155,,,,SBD,Single-ply,DQ
Collins,67.5,Junior-Senior,13-19,M,227.5,137.5,230,595,SBD,Single-ply,1
Filllyan,67.5,Junior-Senior,13-19,M,210,146,232.5,588.5,SBD,Single-ply,2
Pharms,67.5,Junior-Senior,13-19,M,182.5,115,227.5,525,SBD,Single-ply,3
Smith,67.5,Junior-Senior,13-19,M,177.5,107.5,217.5,502.5,SBD,Single-ply,4
Scurlock,67.5,Junior-Senior,13-19,M,182.5,110,207.5,500,SBD,Single-ply,5
Dillard,67.5,Junior-Senior,13-19,M,185,105,192.5,482.5,SBD,Single-ply,6
Pierce,67.5,Junior-Senior,13-19,M,160,105,192.5,457.5,SBD,Single-ply,7
Middleton,67.5,Junior-Senior,13-19,M,157.5,77.5,177.5,412.5,SBD,Single-ply,8
Gonzales,67.5,Junior-Senior,13-19,M,142.5,105,150,397.5,SBD,Single-ply,9
Majors,75,Junior-Senior,13-19,M,245,160,265,670,SBD,Single-ply,1
Smith,75,Junior-Senior,13-19,M,232.5,162.5,215,610,SBD,Single-ply,2
Webb,75,Junior-Senior,13-19,M,252.5,115,217.5,585,SBD,Single-ply,3
Maxwell,75,Junior-Senior,13-19,M,197.5,92.5,220,510,SBD,Single-ply,5
M. Williams,75,Junior-Senior,13-19,M,207.5,110,202.5,520,SBD,Single-ply,4
Miller,75,Junior-Senior,13-19,M,187.5,112.5,195,495,SBD,Single-ply,6
Gray,75,Junior-Senior,13-19,M,210,115,167.5,492.5,SBD,Single-ply,7
Culley,75,Junior-Senior,13-19,M,190,77.5,210,477.5,SBD,Single-ply,9
M. Williams,75,Junior-Senior,13-19,M,182.5,87.5,200,470,SBD,Single-ply,10
Jensen,75,Junior-Senior,13-19,M,167.5,130,182.5,480,SBD,Single-ply,8
Mayces,75,Junior-Senior,13-19,M,125,75,150,350,SBD,Single-ply,11
Hall,82.5,Junior-Senior,13-19,M,250,135,237.5,622.5,SBD,Single-ply,1
Jones,82.5,Junior-Senior,13-19,M,227.5,122.5,255,605,SBD,Single-ply,2
Walker,82.5,Junior-Senior,13-19,M,207.5,150,237.5,595,SBD,Single-ply,3
Birdow,82.5,Junior-Senior,13-19,M,215,110,227.5,552.5,SBD,Single-ply,4
Sprinkle,82.5,Junior-Senior,13-19,M,187.5,142.5,217.5,547.5,SBD,Single-ply,5
Robert,82.5,Junior-Senior,13-19,M,195,125,205,525,SBD,Single-ply,6
LaBlanc,82.5,Junior-Senior,13-19,M,167.5,107.5,240,515,SBD,Single-ply,7
Chism,82.5,Junior-Senior,13-19,M,197.5,100,205,502.5,SBD,Single-ply,9
Temple,82.5,Junior-Senior,13-19,M,190,117.5,205,512.5,SBD,Single-ply,8
Sit,82.5,Junior-Senior,13-19,M,187.5,105,192.5,485,SBD,Single-ply,10
White,82.5,Junior-Senior,13-19,M,170,85,217.5,472.5,SBD,Single-ply,11
Williams,82.5,Junior-Senior,13-19,M,182.5,100,185,467.5,SBD,Single-ply,12
Batiste,82.5,Junior-Senior,13-19,M,147.5,102.5,205,455,SBD,Single-ply,13
King,90,Junior-Senior,13-19,M,272.5,155,262.5,690,SBD,Single-ply,1
James Cahill,90,Junior-Senior,13-19,M,255,137.5,255,647.5,SBD,Single-ply,2
Jones,90,Junior-Senior,13-19,M,245,147.5,237.5,630,SBD,Single-ply,3
Artis,90,Junior-Senior,13-19,M,242.5,137.5,242.5,622.5,SBD,Single-ply,4
Carr,90,Junior-Senior,13-19,M,232.5,122.5,265,620,SBD,Single-ply,5
Stinnett,90,Junior-Senior,13-19,M,225,140,230,595,SBD,Single-ply,6
McMullin,90,Junior-Senior,13-19,M,245,127.5,220,592.5,SBD,Single-ply,7
Bowers,90,Junior-Senior,13-19,M,225,117.5,247.5,590,SBD,Single-ply,8
Ziegler,90,Junior-Senior,13-19,M,240,122.5,227.5,590,SBD,Single-ply,9
Graham,90,Junior-Senior,13-19,M,227.5,117.5,240,585,SBD,Single-ply,10
Pearce,90,Junior-Senior,13-19,M,205,150,227.5,582.5,SBD,Single-ply,11
Thibow,90,Junior-Senior,13-19,M,220,122.5,237.5,580,SBD,Single-ply,12
Smith,90,Junior-Senior,13-19,M,225,100,225,550,SBD,Single-ply,13
Brewer,90,Junior-Senior,13-19,M,200,120,225,545,SBD,Single-ply,14
Davis,90,Junior-Senior,13-19,M,205,130,192.5,527.5,SBD,Single-ply,15
Applegath,90,Junior-Senior,13-19,M,127.5,87.5,165,380,SBD,Single-ply,16
Leonard,100,Junior-Senior,13-19,M,272.5,162.5,250,685,SBD,Single-ply,1
Stitten,100,Junior-Senior,13-19,M,250,147.5,265,662.5,SBD,Single-ply,2
Penny,100,Junior-Senior,13-19,M,245,135,275,655,SBD,Single-ply,3
Temples,100,Junior-Senior,13-19,M,242.5,165,235,642.5,SBD,Single-ply,4
Woodbridge,100,Junior-Senior,13-19,M,265,132.5,237.5,635,SBD,Single-ply,5
Sinegal,100,Junior-Senior,13-19,M,197.5,107.5,275,580,SBD,Single-ply,6
Taylor,100,Junior-Senior,13-19,M,220,125,217.5,562.5,SBD,Single-ply,7
Bazemore,100,Junior-Senior,13-19,M,197.5,125,227.5,550,SBD,Single-ply,8
Crowder,100,Junior-Senior,13-19,M,227.5,112.5,210,550,SBD,Single-ply,9
M. Bilak,100,Junior-Senior,13-19,M,192.5,117.5,220,530,SBD,Single-ply,10
Briggs #1,100,Junior-Senior,13-19,M,182.5,125,210,517.5,SBD,Single-ply,11
Jewell,100,Junior-Senior,13-19,M,200,112.5,202.5,515,SBD,Single-ply,12
A. Hayes,110,Junior-Senior,13-19,M,320,150,307.5,777.5,SBD,Single-ply,1
Winard,110,Junior-Senior,13-19,M,290,192.5,255,737.5,SBD,Single-ply,2
Munoz,110,Junior-Senior,13-19,M,295,170,257.5,722.5,SBD,Single-ply,3
Whatley,110,Junior-Senior,13-19,M,277.5,182.5,257.5,717.5,SBD,Single-ply,4
Ivy,110,Junior-Senior,13-19,M,277.5,157.5,227.5,662.5,SBD,Single-ply,6
Collins,110,Junior-Senior,13-19,M,280,145,242.5,667.5,SBD,Single-ply,5
Reeder,110,Junior-Senior,13-19,M,245,152.5,225,622.5,SBD,Single-ply,7
Calhoun,110,Junior-Senior,13-19,M,220,125,275,620,SBD,Single-ply,8
Shockley,110,Junior-Senior,13-19,M,220,140,230,590,SBD,Single-ply,9
Dixon,110,Junior-Senior,13-19,M,235,130,212.5,577.5,SBD,Single-ply,10
Navarro,110,Junior-Senior,13-19,M,217.5,130,227.5,575,SBD,Single-ply,11
Tumbill,110,Junior-Senior,13-19,M,215,120,222.5,557.5,SBD,Single-ply,12
Diantonio,110,Junior-Senior,13-19,M,215,117.5,200,532.5,SBD,Single-ply,13
Shires #1,110,Junior-Senior,13-19,M,205,110,207.5,522.5,SBD,Single-ply,14
Block,110,Junior-Senior,13-19,M,182.5,117.5,200,500,SBD,Single-ply,15
Nickens,125,Junior-Senior,13-19,M,340,167.5,272.5,780,SBD,Single-ply,1
Christain,125,Junior-Senior,13-19,M,310,170,285,765,SBD,Single-ply,2
LeBlanc,125,Junior-Senior,13-19,M,282.5,165,237.5,685,SBD,Single-ply,3
Cooley,125,Junior-Senior,13-19,M,270,157.5,250,677.5,SBD,Single-ply,4
Haynes,125,Junior-Senior,13-19,M,267.5,125,265,657.5,SBD,Single-ply,5
Walker,125,Junior-Senior,13-19,M,292.5,125,215,632.5,SBD,Single-ply,6
Truman,125,Junior-Senior,13-19,M,272.5,132.5,185,590,SBD,Single-ply,7
Badora,125,Junior-Senior,13-19,M,245,107.5,222.5,575,SBD,Single-ply,8
Clendenning,125,Junior-Senior,13-19,M,232.5,122.5,205,560,SBD,Single-ply,9
Helton,125,Junior-Senior,13-19,M,200,112.5,230,542.5,SBD,Single-ply,10
Caricati,125,Junior-Senior,13-19,M,227.5,100,197.5,525,SBD,Single-ply,11
Wyles,125,Junior-Senior,13-19,M,165,97.5,185,447.5,SBD,Single-ply,12
Bonnick,125+,Junior-Senior,13-19,M,387.5,185,237.5,810,SBD,Single-ply,1
Wesley,125+,Junior-Senior,13-19,M,320,172.5,280,772.5,SBD,Single-ply,2
Garmon,125+,Junior-Senior,13-19,M,292.5,167.5,277.5,737.5,SBD,Single-ply,3
Sylvester,125+,Junior-Senior,13-19,M,245,155,265,665,SBD,Single-ply,4
Castille,125+,Junior-Senior,13-19,M,240,157.5,250,647.5,SBD,Single-ply,5
Williams,125+,Junior-Senior,13-19,M,205,170,227.5,602.5,SBD,Single-ply,6
Michael,125+,Junior-Senior,13-19,M,245,110,240,595,SBD,Single-ply,7
Randall,125+,Junior-Senior,13-19,M,272.5,127.5,180,580,SBD,Single-ply,8
