Name,Count
A. Costa,2
A. Gutierrez,3
A. Li,3
A. Miller,5
A. Myers,2
A. Reed,4
A. Small,2
A. Smith,24
A. Wilson,8
Aaron Adams,2
Aaron Allen,2
Aaron Cooper,2
Aaron Harden,2
Aaron Phillips,2
Aaron Tate,2
Aaron Thomas,7
Aaron Todd,2
Abby Esquivel,3
Abraham Ramirez,2
Adam Anderson,4
Adam Bell,2
Adam Contreras,2
Adam Cooper,2
Adam Guerrero,2
Adam Hawkins,2
Adam Howell,3
Adam Jackson,3
Adam James,3
Adam Jones,11
Adam Miller,10
Adam Roberts,2
Adam Saunders,2
Adam Scott,3
Adam Williams,5
Adam Wright,2
Adrian Cooper,2
Adrian Cruz,2
Adrian Herrera,2
Adrian Lopez,8
Adrian Martinez,13
AJ Jones,2
Alan Chan,2
Alan Hernandez,8
Alan Howard,2
Alasdair MacLeod,2
Alejandro Maldonado,3
Alejandro Perez,2
Aleksandr Aleksandrov,6
Aleksandr Koshelev,2
Aleksandr Miroshnichenko,3
Aleksandr Pirogov,2
Alex Acuna,3
Alex Aguilar,5
Alex Alaniz,2
Alex Alvarez,4
Alex Avalos,2
Alex Barron,2
Alex Bazan,3
Alex Buck,2
Alex Bustamante,3
Alex Campbell,5
Alex Chen,3
Alex Cook,4
Alex Cuevas,3
Alex Davies,3
Alex Diaz,3
Alex Edwards,2
Alex Ellis,2
Alex Garcia,21
Alex Georgeou,2
Alex Gonzales,7
Alex Gonzalez,7
Alex Guerrero,4
Alex Hernandez,23
Alex Howe,2
Alex Jackson,4
Alex Jensen,2
Alex Jimenez,3
Alex Johnson,13
Alexis Alfaro,2
Alexis Ayala,2
Alexis Delgado,4
Alexis Flores,4
Alexis Garcia,9
ALexis Gomez,3
Alexis Gonzalez,5
Alexis Guajardo,2
Alexis Gutierrez,3
Alexis Guzmán,3
Alexis Iglesias,2
Alexis Lara,2
Alexis Lopez,2
Alexis Martinez,12
Alexis Ortiz,2
Alexis Perez,2
Alexis Rangel,2
Alexis Rodriguez,8
Alexis Sanchez,2
Alex Lopez,9
Alex Lowe,2
Alex Martin,7
Alex Martinez,12
Alex McNeil,2
Alex Michael,2
Alex Miller,3
Alex Mitchell,3
Alex Morrison,2
Alex Nelson,2
Alex Ochoa,2
Alex Ortiz,4
Alex Palmer,2
Alex Quintero,2
Alex Ramos,5
Alex Rivera,5
Alex Roberson,2
Alex Robertson,3
Alex Robinson,2
Alex Rodriguez,15
Alex Saenz,2
Alex Schutz,2
Alex Smith,13
Alex Soto,3
Alex Torres,3
Alex Trinidad,2
Alex Turner,3
Alex Villanueva,2
Alex White,3
Alex Wiley,2
Alex Williams,9
Alex Willis,2
Alex Wright,4
Alex Young,4
Alexander Gutierrez,2
Alexander Hickman,2
Alexander Jackson,2
Alexandra Foster,2
Alicia Carter,2
Ali Gonen,2
Allen Clark,4
Allen Davis,6
Allen Fisher,2
Allen Smith,3
Allison Kelly,2
Alyssa Smith,2
Amanda Kelly,2
Amanda Reilly,2
Amanda Rodriguez,4
Amanda Thompson,4
Amanda Torres,3
Amanda Trevino,2
Amanda Walker,2
Amber House,2
Amy O'Neill,2
Amy Smith,4
Ana Perez,3
Anastasiya Makarova,2
Anatoliy Baranov,2
Andrea Russo,2
Andreas Nilsson,2
André Garcia,4
Andrew Adams,4
Andrew Baker,2
Andrew Billings,2
Andrew Bonner,2
Andrew Cargill,2
Andrew Gregory,3
Andrew Hawkins,2
Andrew Johnson,10
Andrew Kelleher,2
Andrew Lamb,3
Andrew Lewis,5
Andrew Murphy,4
Andrew Ngo,2
Andrew Nguyen,10
Andrew Platt,2
Andrew Rose,3
Andrew Shaw,2
Andrew Smith,23
Andrew Stewart,3
Andrew Thompson,7
Andrew Tucker,3
Andrew Ward,5
Andrew Watt,2
Andrew Wright,4
Andrew Young,5
Andrews,7
Andrey Belyaev,2
Andrey Chesnokov,2
Andrey Konovalov,4
Andriy Koval',3
Andy Adams,2
Andy Davies,2
Andy Gomez,4
Andy Hernandez,4
Andy Huang,2
Andy Jackson,3
Andy Miller,3
Andy Murray,2
Andy Smith,2
Andy Tran,3
Angel Esquivel,2
Angel Garcia,10
Angel Gonzalez,6
Angel Hernandez,14
Angel Longoria,3
Angel Lopez,3
Angel Martinez,9
Angel Mendez,2
Angel Ramos,2
Angel Rodríguez,12
Angel Romero,2
Angel Tamayo,2
Angel Torres,4
Angela Taylor,2
Anoop Singh,2
Anthony Bui,3
Anthony Clark,5
Anthony Cooper,6
Anthony Davis,3
Anthony Finn,3
Anthony Green,3
Anthony Hambric,2
Anthony Harris,3
Anthony Lee,5
Anthony Nguyen,2
Anthony Oliveira,2
Anthony Powell,2
Anthony Salas,3
Anthony Smith,9
Anthony Thompson,4
Anthony White,4
Anthony Young,4
Ariel Garcia,2
Ariel Lopez,4
Ariel Martinez,3
Ariel Munoz,2
Artem Kim,2
Artem Safonov,2
Arturo Gonzales,2
Asa Wallin,2
Ashley Armstrong,2
Ashley Butler,2
Ashley Evans,2
Ashley Garcia,7
Ashley Gibson,3
Ashley Horner,2
Ashley Orth,2
Ashley Parker,2
Ashley Ramirez,4
Ashley Schultz,2
Ashley Walsh,2
Ashley Watson,2
Ash Roberts,2
Ashton Brown,2
Ashton Glenn,2
Ashton Marquez,2
Ashton Strange,3
Aubrey Barnes,2
Austin Dodd,2
Austin Martin,4
Austin Taylor,7
Austin Walker,5
Avery Brown,4
Avery Clark,3
B. Crow,3
B. Dunn,5
B. Hall,8
B. Laney,2
B. Leach,2
B. Lynch,2
B. Miller,23
B. Moore,14
B. Oden,3
B. Owen,3
B. Owens,6
B. Ray,4
B. Riggs,5
B. Rush,4
B. Stewart,5
B. Wood,3
Bailey Allen,2
Bailey Barrett,2
Bailey DeViney,2
Bailey Hughes,2
Bailey Jones,4
Bailey Smith,3
Bailey White,2
Barbara Lee,2
Barry Smith,3
Beau Moore,3
Benedikt Magnússon,2
Ben Holmes,2
Ben Jackson,3
Ben Johnson,9
Ben Larson,2
Ben McDonald,2
Ben Miller,4
Ben Nelson,3
Ben Scott,4
Ben Smith,13
Ben Wallace,2
Ben White,4
Ben Wright,3
Benjamin Smith,7
Benjamin Wilson,3
Beth Thomas,2
Bill Allen,3
Bill Brown,6
Bill Dunn,3
Bill Grant,2
Bill Griffin,2
Bill Henderson,2
Bill Jones,2
Bill Kelly,2
Bill Porter,2
Bill West,3
Blair Bennett,2
Blake Richards,2
Blake Rogers,2
Blake Taylor,2
Bobby Adams,3
Bobby Moore,2
Bobby Morgan,2
Bob Evans,3
Bob Seymour,2
Bogdan Ivanov,2
Boris Tsvetkov,2
Brad Baker,2
Brad Curtis,2
Brad Evans,2
Brad Johnson,6
Brad Lewis,2
Brad Wagner,2
Bradley Horne,2
Brandon Allen,4
Brandon Barber,2
Brandon Byrd,3
Brandon Hernandez,8
Brandon Maddox,2
Brandon Matthews,3
Brandon McIntyre,2
Brandon Peters,2
Brandon Pierce,5
Brandon Perdue,2
Brandon Perez,5
Brandon Rios,2
Brandon Scott,4
Brandon Simpson,5
Brandon Stephens,2
Brandon Stevens,3
Brandon Turner,7
Brayden Walker,3
Bree Smith,2
Brent Drake,2
Bret King,2
Brett Johns,3
Brian Bishop,3
Brian Bland,2
Brian Boyer,2
Brian Clark,4
Brian Curtis,2
Brian Goldstein,2
Brian Gonzales,2
Brian Grant,2
Brian Hall,3
Brian Hill,3
Brian Le,3
Brian Marquez,2
Brianne Chavez,2
Brian Sullivan,3
Brittany Rodriguez,4
Bruce Koch,2
Bryan Barrett,2
Bryan Hill,2
Bryan Simms,2
Bryan Smith,10
Bryan Wong,2
Bryce Johnson,5
Bryden Wilson,2
Byron Johnson,2
C. Able,2
C. Alitz,2
C. Brown,33
C. Crawford,4
C. Fernandez,3
C. Hess,2
C. Madden,3
C. Mitchell,7
C. Morris,5
C. Olson,4
C. Rowe,3
C. Simmons,5
C. Walker,12
C. Yates,2
Caitlin Berry,3
Caleb MacLeod,2
Caleb Moore,4
Caleb Williams,8
Calvin Smith,3
Cameron Baker,4
Cameron Brown,4
Cameron Cantrell,2
Cameron Collier,2
Cameron Collins,3
Cameron Cook,2
Cameron Cunningham,2
Cameron Davis,6
Cameron King,2
Cameron McLean,2
Cameron Moore,4
Cameron Reynolds,2
Cameron Smith,10
Cameron Stepp,2
Cameron Taylor,2
Cameron Wells,2
Cameron Williams,11
Carl Thompson,2
Carlos Acosta,3
Carlos Huerta,3
Carlos Moreno,2
Carlos Perez,8
Carlos Reyes,4
Carlos Romero,3
Carolina Ramos,2
Carolyn Tran,2
Carson Roberts,2
Carson Ward,3
Casey Castillo,2
Casey Clark,3
Casey Dunn,2
Casey Gamble,2
Casey Jensen,2
Casey Smith,2
Casey Webb,2
Casey Williams,3
Cassidy Smith,2
Catherine White,2
Cesar Jimenez,2
Chad Fleming,2
Chad Walker,2
Chandler Holland,2
Charles Anderson,2
Charles Harris,2
Charles Lambert,2
Charles Montalbano,2
Charlie Anderson,2
Charlie Lee,2
Charlie Stevens,2
Chase Martin,2
Chase Patterson,3
Chen,3
Chloe Brown,3
Chris Baker,8
Chris Bartley,2
Chris Blair,2
Chris Boyd,3
Chris Budd,3
Chris Butler,5
Chris Davey,2
Chris Carpenter,3
Chris Carroll,2
Chris Carter,5
Chris Galvan,4
Chris Garza,4
Chris Graham,5
Chris Gonzales,5
Chris Grant,4
Chris Green,5
Chris Henderson,4
Chris Hughes,6
Chris Jackson,15
Chris Janssen,2
Chris Jenkins,11
Chris Johnston,3
Chris Jones,27
Chris Kennedy,6
Chris King,3
Chris Knight,2
Chris Lane,3
Chris Larson,2
Chris Lentini,2
Chris Lim,2
Chris Lindsay,2
Chris Marshall,4
Chris Mason,3
Chris Mitchell,4
Chris Moody,2
Chris Moore,7
Chris Morris,8
Chris Mott,2
Chris Murray,8
Chris Nelson,7
Chris Newman,3
Chris Nicholson,2
Chris Parker,5
Chris Porter,2
Chris Pugh,2
Chris Robinson,9
Chris Ross,3
Chris Sheppard,2
Chris Smith,29
Chris Stark,2
Chris Sumner,2
Chris Taylor,15
Chris Turner,4
Chris Webber,3
Chris Wells,3
Chris Williams,14
Chris Wood,7
Christian Aquino,2
Christian Green,2
Christian Moore,2
Christian Navarro,5
Christian Williams,7
Christina Ryan,2
Christina Sanchez,2
Christine Miller,3
Christopher Bell,2
Christopher Robinson,2
Christopher Tran,5
Christopher Whittaker,2
Christopher Young,3
Claire Taylor,2
Clarissa Rivera,2
Clay Patterson,2
Clayton Wilson,2
Clinton Lee,2
Cody Banks,3
Cody Brown,8
Cody Hanson,2
Cody Miller,4
Cody Prather,3
Cody Thornton,2
Colby Wilson,3
Cole Barton,4
Cole Smith,5
Colin Wright,2
Collin Grant,2
Collin Rhodes,2
Colton Stewart,2
Conner Young,3
Connor Lynch,3
Corey Anderson,2
Corey Brooks,3
Corey Grisham,2
Corey Walker,2
Cortney Young,2
Cory Fisher,2
Cory Harris,3
Courtney Anderson,2
Courtney Davis,2
Courtney Lee,3
Courtney Lynch,2
Courtney Myers,2
Courtney Smith,3
Courtney Thompson,2
Craig Smith,3
Cristian Garcia,5
Cristian Gonzalez,3
Cross,4
Cruz Garza,2
Curtis Miller,3
D. Angelo,3
D. Arrington,2
D. Bellamo,2
D. Campbell,8
D. Del Toro,2
D. Evans,12
D. Hein,2
D. Kay,3
D. Martin,12
D. Ollar,2
D. Orr,6
D. Raymond,2
D. Ross,6
D. Taylor,12
D. Wilson,33
Dakota Kellett,2
Dakota Williams,2
Dale Murray,3
Dale Smith,2
Dallas Green,3
Dallas Smith,3
Dalton Davis,4
Dana Walker,2
Dan Brown,6
Dan Gay,2
Dan Howard,3
Dan Jackson,2
Dan Martinez,2
Dan Mason,5
Dan O'Brien,4
Dan Ortiz,2
Dan Thompson,2
Dan Williams,6
Dan Young,3
Daniel Austin,2
Daniel Bell,5
Daniel Brown,6
Daniel Byrd,2
Daniel Clarke,2
Daniel Collins,4
Daniel Cook,3
Daniel Dale,3
Daniel Goodwin,2
Daniel Heller,2
Daniel Jay,2
Daniel Johnson,5
Daniel Jones,5
Daniel Keil,2
Daniel Lee,13
Daniel Lewis,5
Daniel Lopez,10
Daniel Martinez,23
Daniel Moreno,3
Daniel Rodriguez,18
Daniel Ryan,2
Daniel Shaw,2
Daniel Stafford,2
Daniel Thomas,2
Daniel Tinajero,2
Daniel Vo,2
Daniel Wade,4
Daniel Watson,4
Daniela Gonzalez,3
Danielle DeWitt,2
Danny Brown,3
Danny Lee,4
Danny Rodriguez,2
Danny Smith,4
Danny Stone,2
Darian Torres,2
Darrell White,2
Darren Burns,2
Darren Smith,3
Dave Brown,5
Dave Crawford,3
Dave Murphy,2
Dave Richardson,4
Dave Smith,17
Dave Wheeler,2
David Alexander,3
David Anderson,12
David Andrews,4
David Baker,5
David Balsdon,2
David Bell,9
David Bennett,5
David Carroll,3
David Carter,8
David Cooper,4
David Courtney,2
David Decanini,2
David Farkas,2
David Green,4
David Hanson,4
David Herrera,4
David Hudson,2
David Hughes,6
David Johnston,4
David Koch,3
David Lu,2
David Martin,10
David Martinez,17
David May,4
David McKenzie,2
David Moore,12
David Morris,3
David Nilsson,2
David Osborn,2
David Parr,2
David Patterson,4
David Ramsey,2
David Roberts,5
David Rogers,3
David Sanchez,8
David Shepherd,3
David Sloan,3
David Son,9
David Todd,2
David Torres,6
David Van,2
David Vaughan,2
David Wagner,3
David Watkins,2
David Watson,4
David Webb,6
David Wiley,2
David Williams,15
David Williamson,2
David Wilson,12
Dean Wright,2
Denim Fields,2
Denis Chernov,6
Dennis,2
Dennis Arnold,2
Dennis Smith,4
Dennis Wright,2
Derek Barker,2
Destiny Lopez,3
Devin Gonzalez,2
Devin Jordan,2
Devon Miles,2
Diego Perez,5
Dillon Anderson,2
Dillon Davis,3
Dillon Peterson,2
Dmitriy Sedov,3
Dominique de la Rosa,3
Dominique Fisher,2
Don Johnson,4
Don Jones,4
Donnie Thompson,2
Doug Arnold,2
Douglas Taylor,2
Drake Stephens,2
Dustin Brooks,2
Dusty Young,2
Duy Tran,4
Dylan Crawford,2
Dylan Finley,2
Dylan Nelson,3
Dylan Parker,2
Dylan Reeves,3
Dylan Smith,13
Dylan Wilson,3
E. Ellis,3
E. Godfrey,5
Ed Riley,3
Ed Smith,5
Eduardo Garcia,7
Eduardo Ramirez,2
Edward Owen,2
Eli Thomas,2
Elias George,2
Elizabeth Barnard,2
Elizabeth Hughes,2
Elizabeth Turner,3
Eloy Martinez,2
Emily Hu,2
Emily Nelson,2
Emily Smith,4
Emily Wilcox,2
Emma Brown,3
Emma Taylor,3
Emma Wright,2
Emmanuel Hernandez,3
Enrique Rodriguez,4
Eric Anderson,6
Eric Andrews,3
Eric Banks,2
Eric Campbell,3
Eric Gilbert,2
Eric Gonzales,4
Eric Gray,2
Eric Hall,4
Eric Kratz,2
Eric Nelson,2
Eric Pierce,2
Eric Richardson,2
Eric Smith,13
Eric Torres,3
Erica Gomez,2
Erick Baker,2
Erick Garcia,6
Erickson,3
Erika Johnson,2
Erik Anderson,3
Erika Young,2
Erik Karlsson,2
Erin Boyle,2
Estrella Rodriguez,2
Ethan Clark,3
Ethan Fudge,2
Ethan Gonzalez,5
Evan Anderson,3
Evan Hill,2
Evan Johnson,4
Evan Miller,5
Evan Perez,2
Evgeniya Poznyak,2
F. Oster,7
Felipe Hernandez,5
Felix Flores,2
Fernando Rios,2
Fernando Rivera,2
Francis Barrett,2
Francisco Moreno,3
Frank Luna,2
Frank O'Donnell,3
Frank Sanders,2
Frank Smith,3
Frank Ybarra,2
Frankie Rodriguez,2
Frankie Torres,2
Freddy Gonzalez,2
Frode Gundersen,2
G. Alloway,2
G. McClure,3
G. Mills,3
G. Norton,2
G. Ross,4
Gabor Kiss,2
Gabriel Acosta,2
Gabriel Gomez,6
Gabriel Moreno,2
Gage Brown,3
Garret Jacobsen,2
Garry Frank,2
Gary Davis,2
Gary Fletcher,2
Gary Hunter,2
Gary Jones,3
Gary McLean,2
Gary Miller,7
Gary Stewart,2
Gary Young,2
Gavin Smith,3
George,5
George Anderson,2
George Herring,2
Gerard McNamara,2
Gerald Smith,2
Gerardo Calderon,2
Giovanni Rodriguez,2
Gordon Smith,2
Grace Thomas,2
Grant Connors,2
Greg Evans,2
Greg Fields,4
Greg Jones,5
Greg Lewis,3
Greg Simmons,2
Greg Smith,3
Greg White,2
Greg Wilson,2
Greg Young,3
Guadalupe Garcia,4
Guillermo Estrada,2
Hannah Holmes,3
Hannah Johnson,2
Hammond,3
Harley Davis,3
Hayden Murphy,2
Hayden Taylor,3
Hayden Thompson,2
Hector Granados,2
Heikki Laakso,2
Helen Hughes,2
Helen Williams,2
Helgi Jónsson,2
Henry Garcia,2
Henry Hernandez,2
Hieu Le,2
Hitoshi Nakamura,2
Humberto Medina,2
Hung,2
Hunter Casey,2
Hunter Gibson,2
Hunter Green,3
Hunter Henderson,2
Hunter Hernandez,4
Hunter Johnson,8
Hunter Jones,3
Hunter Martin,4
Hunter Wallace,3
Hunter Wilson,5
Ian Marshall,2
Ian McKay,2
Ian Sanchez,2
Ian Williams,3
Ibrahim,2
Igor Belyaev,3
Igor Khokhlov,2
Igor Koval,2
Igor Kuzminskiy,2
Igor Maltsev,2
Igor Mikhaylenko,2
Igor Pavlov,2
Igor Zhuk,2
Inna Filimonova,2
Iraida Garcia,2
Irina Verbitskaya,2
Isaac Robles,3
Isaac Salinas,2
Isaac Smith,3
Isa Vasquez,2
Ivan Dovgal,2
Ivan Komissarov,2
Ivan Shakhov,2
Ivan Yarmolyuk,2
Izzy Gutierrez,2
J. Acevedo,2
J. Bernal,2
J. Coleman,4
J. Cooper,10
J. Davis,46
J. Donahue,2
J. Doyle,9
J. Fuller,3
J. Gray,8
J. Green,15
J. Greene,8
J. Griffin,9
J. Haley,2
J. Johnston,10
J. Malone,2
J. Marshall,3
J. Miller,43
J. Parrish,6
J. Rodgers,5
J. Short,4
J. Smith,79
J. Stevenson,6
J. Thompson,15
J. Zehr,2
Jace Phillips,2
Jack Bartlett,2
Jack Davis,4
Jack Harvey,2
Jack Henderson,2
Jack Hughes,3
Jack Lynch,2
Jack Taylor,6
Jack Wolff,2
Jack Young,5
Jacob Atkinson,2
Jacob Black,2
Jacob Hughes,4
Jacob Hurley,2
Jacob Jenkins,3
Jacob Manley,2
Jacob McBride,2
Jacob Nilsson,2
Jacob Noble,3
Jacob Wallace,2
Jacob Winstead,2
Jacob Stephens,3
Jacob Stone,2
Jaden Brown,3
Jaden Buchanan,2
Jaden Wilson,3
Jaeden Ward,2
Jaiden Turner,3
Jaime Barrera,2
Jaime Garcia,5
Jaime Hernandez,5
Jake Allison,2
Jake Johnson,10
Jake Roberts,4
Jake Simpson,3
Jake Williams,7
James Anderson,4
James Brennan,2
James Butler,4
James Carr,4
James Chapman,4
James Christian,2
James Clarke,3
James Cooper,4
James Daly,2
James Dunn,4
James Edwards,4
James Ellis,4
James Freeman,4
James Grant,3
James Gregory,2
James Hayden,2
James Henderson,4
James Hetherington,2
James Hood,2
James Howell,3
James Jacobs,4
James Lee,9
James MacDonald,3
James Miller,7
James Mooney,2
James Perry,6
James Ray,3
James Robertson,5
James Simmons,2
James Stein,2
James Taylor,11
James Townsend,2
James Walker,6
James Waller,2
James Williams,20
James Wilson,18
James Wright,4
Jamie Brown,2
Jamie Davis,2
Jamie Dunn,2
Jamie Green,2
Jamie Harris,3
Jamie Hernandez,2
Jamie Jackson,2
Jamie Johnson,4
Jamie Jones,3
Jamie King,5
Jamie Lake,2
Jamie Larsen,2
Jamie Lee,4
Jamie Lewis,4
Jamie Miller,4
Jamie Smith,11
Jamie Taylor,2
Jamie Ward,2
Jamie Williams,2
Jared Brown,2
Jared Martin,6
Jared Scott,2
Jared Wood,3
Jari Leino,2
Jari Nieminen,2
Jason Byrne,3
Jason Chan,2
Jason Clarke,4
Jason Cook,4
Jason Holmes,2
Jason Jackson,8
Jason Lopez,5
Jason Roberts,5
Jason Schmidt,3
Jason Watson,2
Jason Weaver,2
Javier de la Torre,2
Javier Garcia,11
Jayden Miller,4
Jayden Smith,5
Jaylen Brown,3
Jay Smith,4
Jay Wright,2
Jean-François Caron,3
Jeff Carr,3
Jeff Cohen,2
Jeff Douglas,2
Jeff Johnston,3
Jeff Lawson,4
Jeff Lewis,2
Jeff Phillips,2
Jeff Stevens,2
Jeff Wright,5
Jeffrey Allen,2
Jeffrey Guo,2
Jeffrey Johnson,5
Jeffrey Lin,2
Jeffrey Thompson,3
Jenna Hoffman,2
Jennifer De Leon,2
Jennifer Hobbs,2
Jennifer Martinez,10
Jennifer Thompson,2
Jen Smith,2
Jeremy Adams,3
Jeremy Hines,2
Jeremiah Johnson,7
Jeremy Rodriguez,4
Jeremy Sanchez,2
Jeremy Smith,9
Jeremy Stevens,3
Jeremy Willis,2
Jeremy Wilson,4
Jeremy Wright,2
Jerry Bell,2
Jesse Berry,2
Jesse Coffey,2
Jesse Hudson,2
Jesse Jackson,2
Jesse Peterson,2
Jesse Salinas,3
Jesse Woods,2
Jessi Stewart,2
Jessica Ayala,2
Jessica Bishop,3
Jessica Brown,6
Jessica Evans,2
Jessica Ford,2
Jessica Hill,3
Jessica Jones,2
Jessica Ramirez,2
Jessica Taylor,3
Jessica Thompson,2
Jessica Watson,3
Jessie Adams,2
Jessie Ramirez,3
Jessie Smith,2
Jesus Garcia,16
Jesus Hernandez,6
Jesus Morales,5
Jia Hui Wang,2
Jillian Clark,2
Jim Benson,2
Jim Brewer,2
Jim Smith,8
Jim Taylor,4
Jim Williams,4
Jim Wilson,4
Joan Lopez,2
Joanne Barnes,2
Jodie Cook,2
Jodie Smith,2
Jody Lewis,2
Joe Brown,5
Joe Castillo,7
Joe Cunningham,3
Joe Francisco,2
Joe Holland,2
Joe Lewis,2
Joe Lucas,2
Joe Mass,2
Joe McCarthy,2
Joe Reeves,3
Joe Robinson,2
Joe Valdez,3
Joe Vega,5
Joel Bell,3
Joel Scott,2
Joey Lee,3
Joey Reid,2
Johanna Reichel,2
John Black,2
John Brennan,3
John Brown,13
John Brunner,2
John Caputo,2
John Consoli,2
John Corcoran,2
John Crowley,4
John Cuevas,2
John Davis,16
John Dean,2
John Dignan,2
John Ford,3
John Gabriel,2
John Gallacher,2
John Hart,2
John Jones,10
John Lake,2
John Lane,2
John MacDonald,2
John Marsden,2
John McDowell,2
John Morris,6
John Nolan,2
Johnny Walker,2
John Pappas,2
John Perez,3
John Pollock,2
John Powers,2
John Reyes,2
John Roberts,4
John Rooney,2
John Sanchez,7
John Santos,3
John Scott,4
John Simpson,2
John Smith,14
John Taylor,13
John Walker,6
John Welch,2
John Wells,4
John Wilkerson,2
John Wright,9
Johnpaul Hayes,2
Jo Kane,2
Jon Clark,4
Jon Cole,2
Jon Green,3
Jon Howard,2
Jon Martin,3
Jonathan Clark,5
Jonathan Davis,3
Jonathan Garcia,12
Jonathan Gomez,5
Jonathan Herrera,2
Jonathan Law,2
Jonathan Lewis,3
Jonathan Mills,2
Jonathan Rodgers,3
Jonathan Stewart,4
Jonny Gardner,2
Jordan Alexander,3
Jordan Anderson,6
Jordan Barnes,2
Jordan Beasley,2
Jordan Burt,2
Jordan Chadwick,2
Jordan Cook,2
Jordan Craig,2
Jordan Davis,6
Jordan DeAguero,2
Jordan Dunn,3
Jordan Evans,4
Jordan Fernandez,2
Jordan Fox,2
Jordan Garcia,6
Jordan Gibson,4
Jordan Green,7
Jordan Gregory,2
Jordan Harris,5
Jordan Hester,2
Jordan Holley,2
Jordan Johnson,10
Jordan Jones,8
Jordan Lopez,2
Jordan Lyons,2
Jordan Mann,2
Jordan Martin,7
Jordan Meyer,3
Jordan Miller,4
Jordan Moore,3
Jordan Moorhead,2
Jordan Myers,2
Jordan Nguyen,5
Jordan Patterson,3
Jordan Ramirez,4
Jordan Reed,2
Jordan Rodriguez,5
Jordan Ross,2
Jordan Salinas,2
Jordan Smith,12
Jordan Stephens,2
Jordan Thomas,5
Jordan Thompson,2
Jordan Watson,3
Jordan Weaver,3
Jordan Williams,3
Jordan Wilson,5
Jorge Gonzalez,8
Jorge Maldonado,2
Jose Alvarado,4
Jose Bautista,2
José Castillo,9
Jose Delacruz,2
Jose Diaz,8
Jose Gonzalez,20
Jose Hernandez,34
Jose Juarez,5
Jose Miranda,5
Jose Ojeda,2
Jose Pena,3
Jose Perez,22
Jose Ramirez,18
Jose Rivas,2
Joseph,3
Joseph Brown,3
Joseph Coogan,2
Joseph Peña,3
Joseph Rogers,2
Joseph Stein,2
Joseph Walton,2
Joseph White,2
Josh Banks,3
Josh Brown,13
Josh Bryant,2
Josh Bush,2
Josh Day,2
Josh Duncan,3
Josh Ellis,3
Josh Edwards,4
Josh Flores,3
Josh Hardin,2
Josh Jacobs,2
Josh Kelly,3
Josh King,8
Josh Morris,3
Josh Nicklin,2
Josh Smith,31
Josh Walker,8
Josh Wallace,3
Josh Walton,2
Josh Wright,2
Joshua Black,2
Joshua Powell,3
Joshua Schwartz,3
Joshua Wright,3
Joshua Yu,3
Juan Aguilar,3
Juan Hernandez,24
Juan Pereyra,2
Juan Laija,3
Julia Moller,2
Julian Diaz,4
Julian Lee,2
Julie Green,2
Julie Marshall,2
Julio Chavez,2
Julio Medina,2
Julio Sanchez,3
Jussi Mustonen,2
Justin Harris,6
Justin Horn,2
Justin Hurley,3
Justin Jackson,5
Justin Myers,3
Justin Roberts,4
Justin Smith,27
Justin Sorenson,2
Justin Swanson,2
Justin Thacker,2
Justin Turner,2
Justin Watson,3
Justin Wilson,11
K. Eller,3
K. Haden,2
K. Irvin,2
K. Jackson,6
K. Lewis,4
K. Stewart,4
Kameron Turner,2
Karen Avetisyan,2
Karl Francis,2
Kasey Sanders,2
Katie Edwards,3
Kayla Anderson,3
Keelan Smith,2
Keith Baker,3
Kelly Baker,2
Kelly Brown,3
Kelly Clark,3
Kelly Donahue,2
Kelly Harris,2
Kelly Henry,2
Kelly Johnson,2
Kelly Kennedy,2
Kelly Miller,3
Kelly Parker,2
Kelly Pierce,2
Kelly Smith,5
Kelly Tran,2
Kelsey Brown,2
Kendall Tanner,2
Ken Williams,4
Kenneth Cook,2
Kenneth Mitchell,3
Kenneth Williams,4
Kenny Ramirez,2
Kevin Chu,3
Kevin Davis,5
Kevin Diaz,3
Kevin Gray,2
Kevin Hu,2
Kevin Jager,2
Kevin James,3
Kevin Jones,13
Kevin Nguyen,16
Kevin Payne,3
Kevin Sampson,2
Kevin Serrano,2
Kevin Smith,26
Kevin Stewart,3
Kevin Woods,4
Kevin Wu,2
Kim Moore,2
Kim Moser,2
Kim Tran,3
Kimberly Einstein,2
Kolby Williams,2
Konstantin Morozov,4
Kris Henderson,2
Kris Johnson,2
Kris Lewis,2
Kristen Jones,2
Kristen Robbins,2
Kristen Scott,3
Kristian Martinez,3
Kyle Alexander,2
Kyle Brown,11
Kyle Coffey,3
Kyle Davidson,2
Kyle Evans,4
Kyle Franke,2
Kyle Johnson,9
Kyle Kirby,3
Kyle Miller,9
Kyle Olsen,2
Kyle Sheridan,2
Kyle Smith,15
Kyle Thompson,5
Kyle Weiss,2
L. Asher,2
L. Perez,2
Landon Harris,2
Landon Williams,2
Lane,6
Lane Thomas,2
Larry Reed,3
Larry Williams,4
Laura Carter,2
Laura Dodd,2
Laura Smith,4
Laura Williams,3
Lauren Davis,2
Lauren Green,2
Leah Davis,2
Leandro Fernandez,2
Leanne Brown,2
Lee Austin,2
Lee Jacobs,2
Lee Kelly,2
Lee Moran,2
Lee Smith,8
Leo Garza,2
Leo Hernandez,3
Leo Sanchez,4
Leslie Harris,4
Leslie Phillips,2
Leslie Williams,2
Lewis Bennett,2
Lewis Hughes,4
Li-Ming Lin,2
Lindsay Maguire,2
Lindsay McGuire,5
Lisa Baker,2
Lisa Grant,2
Lisa Long,2
Lisa Miller,4
Lisa Tran,2
Lisa West,2
Lisa Wilson,4
Logan Eden,2
Logan Reed,2
Logan Smith,7
Louise Edwards,2
Louise Jones,3
Luc Leblanc,2
Luis Lopez,13
Luis Munoz,7
Luis Pacheco,2
Luis Ramos,6
Luis Soto,2
Luke George,2
Luke Richardson,2
Luke Rogers,3
Luke Wilson,5
Lupe Gonzalez,3
Lupe Hernandez,3
Lupe Martinez,2
Lupe Rodriguez,2
Lynn Smith,3
M. Ayers,3
M. Clark,8
M. Galante,2
M. Gonzales,4
M. Hartman,2
M. Johnson,37
M. Malone,5
M. Marlin,2
M. Moore,15
M. Roberts,3
M. Robertson,4
M. Scott,10
M. Smith,57
M. Suzuki,4
M. Walker,13
M. White,11
M. Zarefoss,2
MacKenzie Brown,2
Mackenzie Lewis,2
Madison Smith,7
Madison Taylor,4
Maksim Popov,13
Maksim Shaposhnikov,2
Malcolm Richards,2
Manuel Rodriguez,6
Martin Gonzalez,2
Martin Green,2
Martin Hernandez,5
Martin Nguyen,3
Martin Smith,2
Marco Reyes,4
Marcus Collins,3
Marcus Hernandez,3
Marcus Jones,5
Maria Ramos,3
Maria Sanchez,4
Marian Gibson,2
Mario Morales,3
Marion Smith,2
Mario Rodriguez,5
Marissa Mendoza,2
Mariya Belousova,2
Mark Baker,2
Mark Boone,2
Mark Castillo,3
Mark Dowling,2
Mark Hammond,2
Mark Hartman,2
Mark Hennessey,2
Mark Henry,3
Mark Plummer,2
Mark Lockwood,2
Mark McCoy,2
Mark Miller,12
Mark Palmer,3
Mark Schwartz,2
Mark Stewart,4
Mark Taylor,6
Mark Thompson,5
Martin Rodriguez,7
Marvin Smith,2
Mason Evans,3
Mason Garcia,2
Mathew Pearce,2
Matt Adams,2
Matt Brooks,2
Matt Brown,8
Matt Chapman,4
Matt Collins,4
Matt Cooper,3
Matt Golden,2
Matt Harding,3
Matt Harris,4
Matt Hartman,3
Matt Jones,10
Matt Knight,4
Matt Miles,2
Matt Mitchell,7
Matt Moran,2
Matt Morgan,2
Matt Richards,5
Matt Robertson,3
Matt Robinson,3
Matt Smith,31
Matt Sweeney,2
Matt Ward,3
Matt Watson,4
Matt Wilson,8
Matthew Bauer,2
Matthew Brown,11
Matthew Burke,3
Matthew Collins,7
Matthew Cruz,3
Matthew Fulton,2
Matthew Gray,3
Matthew Hoffman,2
Matthew Hughes,3
Matthew Jacobs,3
Matthew Johnson,16
Matthew Jones,20
Matthew Jordan,3
Matthew Knight,4
Matthew Lopez,3
Matthew Lynch,4
Matthew Martino,3
Matthew Middleton,2
Matthew Nicholson,2
Matthew Ramos,2
Matthew Richards,3
Matthew Smith,29
Matthew Thompson,13
Matthew Turner,5
Matthew Wagner,2
Matthew White,3
Matti Lahti,2
Mauricio Rodriguez,4
Max Cooper,2
Max Jones,3
Max Peek,2
Maximilian Tischler,2
Mayra Yanez,2
Megan Marshall,3
Megan Martin,3
Megan Moore,2
Megan Reilly,3
Melanie Martin,2
Mel Smith,2
Micah Hughes,3
Micah Moore,2
Michael Barbuto,2
Michael Barker,3
Michael Bond,3
Michael Booker,2
Michael Brooks,2
Michael Brown,26
Michael Caputo,2
Michael Coleman,9
Michael Cook,6
Michael Cruz,4
Michael Davis,13
Michael Dean,4
Michael DeStefano,2
Michael Egan,2
Michael Farrell,2
Michael Ferguson,7
Michael Flores,11
Michael Floyd,2
Michael Flynn,4
Michael Franklin,3
Michael Gallagher,2
Michael Gomez,4
Michael Hafner,4
Michael Hawkins,3
Michael Jacob,3
Michael Jones,14
Michael Kohl,2
Michael Kruger,2
Michael Moore,12
Michael Morris,4
Michael Newton,2
Michael Nichols,3
Michael Norwood,4
Michael Pinto,2
Michael Porter,4
Michael Rodriguez,16
Michael Rossi,4
Michael Samson,2
Michael Scott,10
Michael Shaw,2
Michael Smith,19
Michael Stanley,5
Michel Taylor,2
Michael Vecchio,2
Michael Yu,2
Michelle de Jong,2
Michelle Lewis,2
Michelle Parkinson,2
Michelle Perez,2
Mikhail Levchenko,2
Mikhail Titov,5
Mark Daniels,2
Melissa Castillo,3
Melissa Garza,2
Melissa Smith,4
Michael Fisher,2
Michael McHugh,3
Michael Walker,6
Mike Bailey,4
Mike Barnett,2
Mike Boyer,2
Mike Conley,3
Mike Cross,2
Mike Dodson,2
Mike Ellis,2
Mike Harris,2
Mike Jenkins,4
Mike Jones,19
Mike Lamb,2
Mike Lanier,2
Mike Lawrence,4
Mike MacDonald,2
Mike Moore,5
Mike Morris,5
Mike Nichols,2
Mike Novak,2
Mike Rose,3
Mike Sanchez,4
Mike Scott,4
Mike Stokes,2
Mike Stone,2
Mike Taylor,9
Mike Thompson,5
Mike Wolfe,3
Mike Womack,4
Minh Nguyen,9
Mitch Lee,2
Mohamad Arnaout,2
Mohammed Rahman,2
Mona Smith,2
Morgan,9
Morgan Brown,3
Morgan Clark,4
Morgan Fitzgerald,2
Morgan Foster,2
Morgan Garcia,2
Morgan Hicks,2
Morgan Hughes,2
Morgan Johnson,4
Morgan Kelley,2
Morgan Lynch,2
Morgan McIntosh,2
Morgan Miller,2
Morgan Smith,9
Morgan Taylor,2
Morgan Thompson,3
Morgan Turner,4
Morgan Williams,3
Mukesh Singh,2
Nadia Vasquez,2
Natalie Lira,2
Natalie Weber,2
Natalya Kuzmina,3
Nate Davis,2
Nate Henderson,3
Nathan Alexander,3
Nathan Carlin,2
Nathan Harris,4
Nathan Henderson,3
Nathan Jackson,3
Nathan Jones,4
Nathan Miller,5
Nathan Martin,4
Nathan Peterson,2
Nathan Sanchez,3
Nathan Smith,14
Nathan Wells,2
Nathan Wilson,4
Nathaniel Baker,2
Neil Jones,3
Nicholas Anderson,5
Nicholas Brooks,2
Nicholas Hill,2
Nicholas Evans,2
Nicholas Johnson,3
Nicholas Murphy,2
Nick Dunn,4
Nick Fisher,2
Nick Hill,3
Nick Moore,3
Nick Murray,3
Nick Rowe,2
Nick Thomas,5
Nick Wright,3
Nicolas Briere,2
Nicolas Martin,2
Nicole Brown,2
Nicole Johnson,3
Nicole Mason,2
Nikita Efimov,4
Noah Anderson,3
Noah Jones,5
Noah Martinez,5
Noah Young,2
Noe Garcia,2
Noel Lee,2
O. Campo,2
Oleg Plotnikov,2
Olivia Adams,2
Ollie Walker,2
Oscar Sandoval,2
Oscar Vasquez,3
Owen Smith,5
P. Rice,2
P. Saindon,2
P. Young,5
Pat Hall,3
Pat Kennedy,2
Patricia Morgan,3
Patrick Flynn,2
Patrick Griffin,3
Patrick McCloskey,2
Patrick McNamara,3
Patrick Maguire,2
Patrick Moore,4
Patrick Morrison,3
Patrick O'Neill,2
Patrick Wells,2
Patrick Williams,4
Pat Roberts,2
Pat Wagner,2
Paul Bennett,2
Paul Bryant,2
Paul Childress,2
Paul Fleming,4
Paul Green,4
Paul Jackson,2
Paul Johnson,5
Paul MacDonald,2
Paul Mears,2
Paul Murphy,2
Paul Newman,2
Paul Nguyen,3
Paul Steinman,2
Paul Williams,3
Paul Walker,2
Paul Wood,3
Paulo Santos,2
Pavel Svoboda,2
Pavel Zakharov,2
Payton Cox,2
Payton Price,2
Payton Roberts,2
Peen Coles,2
Perez,8
Pete Aaron,2
Pete Bush,2
Peter Hubbard,2
Peter Jones,3
Peter Nguyen,10
Peter Weiss,2
Pete Smith,3
Petri Leinonen,2
Peyton Cox,2
Peyton White,2
Phil Harrington,2
Phillip Kerr,2
Pieter De Waal,2
Piotr Sadowski,2
R. Ando,3
R. Brown,36
R. Clark,23
R. Gillen,2
R. Ivers,2
R. Lara,3
R. McDonald,4
R. Oliver,2
R. Ramirez,5
R. Ramos,4
R. Simon,2
R. Thomas,15
Rachael Johnson,3
Rachel Hughes,3
Rachel Jones,2
Rachel Smith,6
Rakesh Kumar,3
Ramon Figueroa,2
Randy Scott,2
Ray Allison,2
Ray Cross,2
Ray Harris,2
Ray Pierce,2
Ray Wade,2
Ray Williams,2
Raymond Bell,3
Raymond Gonzales,3
Reagan Chapman,2
Rebecca Smith,2
Rebecca Jones,4
Rene Juarez,3
Rhys Jones,3
Ricardo Martinez,7
Rich Woods,2
Richard,2
Richard Adams,2
Richard Čech,2
Richard Daniel,2
Richard Flores,6
Richard Jones,6
Richard Lewis,4
Richard Maher,2
Richard Ruiz,2
Richard Turner,2
Richard Williams,3
Richard Wright,2
Rick Perez,2
Rick Smith,4
Rick Thomas,3
Ricky May,2
Ricky Ortiz,3
Riley Carter,2
Riley Clark,2
Riley Miller,3
Riley Smith,6
Robbie Rees,2
Robbie Scott,2
Robbie Smith,2
Rob Ryan,2
Rob Smith,4
Rob Williams,2
Robbie Fox,2
Robert Avery,2
Robert Barr,2
Robert Bennett,2
Robert Crawford,3
Robert Dempsey,2
Robert Doll,2
Robert Evans,7
Robert Garcia,12
Robert Godinez,2
Robert Hayes,2
Robert Hughes,3
Robert Keller,3
Robert Khun,2
Robert McMaster,2
Robert Morrison,3
Robert Newcomb,2
Robert Palmer,2
Robert Ramsey,4
Robert Schmidt,4
Robert Scott,4
Robert Simmons,2
Robert Tucker,2
Robert Young,4
Robin Black,3
Robin Riley,2
Robin Smith,2
Robin Weber,2
Rod Hall,2
Roger Davis,4
Roger Eriksson,2
Rogers,11
Roman Gavrilov,2
Roman Gonzales,3
Roman Kuznetsov,10
Ross Wiggin,2
Ruben Hernandez,3
Ruby Martinez,2
Rudy Ruiz,4
Russell Edwards,2
Russell Taylor,4
Russ Smith,3
Ryan Alexander,3
Ryan Allen,4
Ryan Bagley,2
Ryan Barnett,2
Ryan Brown,7
Ryan Campbell,2
Ryan Carrillo,2
Ryan Clark,9
Ryan Collins,4
Ryan Gallo,2
Ryan Green,4
Ryan Hill,2
Ryan Huffman,2
Ryan Horton,2
Ryan Hughes,5
Ryan Jones,11
Ryan Kennedy,3
Ryan King,8
Ryan Lee,4
Ryan Miller,6
Ryan Mitchell,2
Ryan Preston,3
Ryan Stephenson,2
Ryan Strange,2
Ryan Taylor,9
Ryan Thompson,5
Ryan Webb,3
Ryan Williams,7
S. Cook,6
S. Fitzgerald,2
S. Frederick,2
S. Hanley,2
S. Helton,2
S. Herman,2
S. Hires,3
S. Hultz,2
S. Johnson,32
S. Keen,2
S. Moyer,2
S. Murphy,9
S. Orrell,2
S. Parks,3
S. Pearman,2
S. Pence,2
S. Singh,2
S. Smith,42
Sabrina Moore,2
Sam Bell,2
Sam Cook,2
Sam Cox,3
Sam Fowler,7
Sam Grubbs,2
Sam Henderson,4
Sam Jackson,2
Sam Johnson,6
Sam Jones,4
Sam Martinez,2
Sam Moore,4
Sam Parker,3
Sam Robinson,4
Sam Sanchez,2
Sam Shapiro,2
Sam Smith,10
Sam Sparks,2
Sam Sullivan,2
Sam Taylor,7
Sam Wood,2
Samantha Cox,2
Samantha Pierce,2
Samantha Taylor,4
Samuel Cook,3
Samuel Legg,2
Samuel Smith,3
Samuel Taylor,2
Sandy Lee,2
Sandra Mullin,2
Sandra Torres,2
Sara Jones,4
Sara King,2
Sarah Brenner,2
Sarah Brown,3
Sarah Davis,2
Sarah Green,2
Sarah Griffin,2
Sarah Lewis,3
Sarah Skinner,3
Sarah Vance,2
Sarah Walls,3
Sarah White,2
Scott Hall,4
Scott Hanna,2
Scott Hill,2
Scott Hopkins,2
Scott Hughes,3
Scott Rowe,2
Scott Simon,3
Scott Smith,11
Scott Sullivan,4
Sean Brown,5
Sean Burke,2
Sean Burns,2
Sean Dunn,2
Sean Green,5
Sean Hayes,3
Sean McCarthy,3
Sean Miller,2
Sean Simpson,3
Sergey Biryukov,8
Sergey Konovalov,5
Sergey Shvetsov,4
Sergio Rodriguez,6
Sergio Torres,4
Seth Johnson,5
Seung Lee,2
Shane Cahill,2
Shannon Brown,3
Shannon Cook,2
Shannon Evans,3
Shannon Hart,2
Shannon Nichols,2
Sharon Holmes,2
Shawn Brooks,2
Shawn Edwards,2
Shawn Jones,8
Shawn Murphy,3
Shawn Sanchez,2
Shawn Warren,2
Shay Smith,2
Shay Ward,2
Shelby Anderson,2
Shelby Dickerson,2
Shelby Jones,3
Shelly Stewart,2
Shyam Singh Rana,2
Simon Rowland,2
Siobhan Hynes,2
Skye Johnson,2
Skylar Nelson,2
Sophie Smith,2
Spencer Brown,4
Stacey Nelson,2
Stacy Hawkins,2
Stacy Miller,3
Stephanie Bennett,3
Stephen Adams,2
Stephen Anderson,2
Stephen Brown,4
Stephen Bryant,2
Stephen King,5
Stephen Martin,3
Stephen Moore,4
Stephen White,2
Sterling Brown,3
Steve Arnold,2
Steve Brown,8
Steve Dunn,3
Steve Fleming,2
Steve Gardner,3
Steve Jarvis,3
Steve Johnson,14
Steve Knight,2
Steve Lumpee,2
Steve Miller,3
Steve Peña,2
Steve Snell,2
Steve Snyder,4
Steve Wiseman,3
Steven Brown,3
Steven Lee,6
Steven Moore,5
Steven Rice,2
Steven Short,2
Steven Stewart,2
Steve Taylor,3
Steven Williams,5
Sukhwinder Singh,2
Susan Edwards,2
Susan Johnson,3
Suzanne Smith,4
Tám Nguyen,2
T. An,2
Tatiana Rodriguez,2
Tatum Price,2
T. George,2
T. Hamilton,5
T. Johns,2
T. Potter,2
T. Rice,2
Taylor Ball,2
Taylor Bennett,2
Taylor Black,2
Taylor Brown,4
Taylor Chapman,2
Taylor Clark,2
Taylor Davis,5
Taylor Ellis,2
Taylor Garrett,2
Taylor Green,2
Taylor Gregg,3
Taylor Guerrero,2
Taylor Haas,2
Taylor Haley,2
Taylor Hall,3
Taylor Henderson,2
Taylor Hunt,2
Taylor Jackson,4
Taylor Johnson,7
Taylor Jones,4
Taylor Kelley,3
Taylor Kemp,2
Taylor Lewis,2
Taylor Lipscomb,2
Taylor McKenzie,2
Taylor Medina,2
Taylor Miller,6
Taylor Moon,2
Taylor Moore,2
Taylor Morin,2
Taylor Moss,2
Taylor Myers,2
Taylor Osborne,2
Taylor Parker,2
Taylor Price,3
Taylor Ray,2
Taylor Reed,4
Taylor Reid,2
Taylor Schneider,2
Taylor Smith,12
Taylor Thomas,3
Taylor Thompson,5
Taylor Harris,4
Taylor Ward,3
Taylor West,2
Taylor Williams,7
Taylor Wright,2
Taylor Young,5
Terry Baldwin,3
Terry Smith,6
Terry Turner,2
Terry Wilson,2
Thanh Nguyen,5
Thanh Tran,2
Theresa Farley,2
Thomas Adams,4
Thomas Anderson,3
Thomas Davis,3
Thomas Johnston,3
Thomas Le,2
Thomas Marshall,2
Thomas McCarthy,2
Thomas McCarty,2
Thomas McKinney,2
Thomas Miller,6
Thomas Ochoa,2
Thomas Perry,2
Thomas Saunders,2
Thomas Wang,2
Tien Tran,2
Tim Gale,2
Tim Krause,2
Tim Lewis,3
Tim Martin,6
Tim O'Brien,3
Tim Parker,5
Tim Smith,10
Tim Taylor,6
Timothy Brown,2
Tim Willis,2
Tina Michaud,2
TJ Williams,3
T. Legg,2
Tom Bishop,2
Tom Brown,6
Tom Cunningham,2
Tom Davis,8
Tom Davies,2
Tom Fox,3
Tom Gee,2
Tom Griffiths,2
Tom Jones,4
Tom Martin,4
Tom Miller,4
Tom O'Donnell,2
Tom Ross,2
Tom Smith,8
Tom Williams,3
Tomas Gomez,2
Tomas Novak,2
Tommy Ray D'Ortez,2
Tony Harvey,2
Tony Le,3
Tony Robinson,2
Tony Rodriguez,4
Tony Stevens,2
Tracy Brown,4
Tracy Bryant,3
Tracy Johnson,5
Tracy Jones,3
Tracy Linton,2
Tracy Roberts,2
Tracy Smith,4
Travis Webb,3
Travis Wilson,2
Trevor Gilbert,2
Trevor Miller,3
Trevor Walker,2
Troy Robinson,2
Tu Le,3
Ty Evans,3
Tyler Collins,3
Tyler Copeland,2
Tyler Elliott,2
Tyler Garcia,3
Tyson Hubbard,2
Tyler Jackson,4
Tyler Jones,7
Tyler Mann,3
Tyler Sanders,2
Tyler Smith,12
Tyler Tucker,2
Tyler Wilson,11
Ty Martin,2
Valerie Sanchez,3
Valerie Smith,3
Valery Novik,2
Victor Castro,3
Victoria Hammond,2
Victoria Martinez,5
Victoria Robinson,2
Vinh Nguyen,4
Vitaliy Savin,2
Viktor Kurbatov,2
Vincent Brown,2
Vincent Jones,3
Vladislav Kravchenko,2
W. Aller,2
W. Hill,6
W. Stewart,10
Walter Diaz,2
Wei Liu,2
Wei Wang,2
Weiss,2
Wendy Harris,2
Wesley Hall,2
Wesley Williams,5
Will Barnett,3
William Adams,4
William Allen,3
William Andrews,4
William Brennan,2
William Brown,10
William Davis,3
William Jackson,6
William Jones,7
William Manning,2
William McLaughlin,3
William Murray,4
William Newton,2
William Payne,3
William Peters,2
William Phillips,2
William Pickering,2
William Reed,4
William Watts,3
William Webb,3
William West,3
Xavier Johnson,2
Yuliya Shevchenko,2
Yuriy Sereda,2
Zach Brown,4
Zach Cole,2
Zach Flowers,2
Zach Mitchell,2
Zach Murphy,2
Zach Morrow,3
Zach Smith,17
Zach Turner,2
Zach Wilson,3
Zack Allen,2
Zachary Nelson,3
Zackary Sanders,2
Zeb Jones,2
Zion Lewis,2
Zoey Baker,2
Zoltan Horvath,2
