Division,WeightClassKg,Place,Name,Team,BodyweightKg,Best3SquatKg,Best3BenchKg,Best3DeadliftKg,TotalKg,Equipment,Event,Sex,BirthDate
Boys,51.71,1,Dandrea Hutchinson,Dickinson,51.21,140.61,70.31,142.88,353.8,Single-ply,SBD,M,
Boys,51.71,2,Owen Sims,Magnolia,46.49,102.06,47.63,108.86,258.55,Single-ply,SBD,M,
Boys,51.71,3,Collin Burgess,Conroe Woodlands College Park,46.13,63.5,36.29,86.18,185.97,Single-ply,SBD,M,
Boys,51.71,DQ,Caden Edelman,Magnolia,50.98,108.86,49.9,,,Single-ply,SBD,M,
Boys,55.79,1,Jared Ali,Conroe The Woodlands,55.7,167.83,92.99,190.51,451.32,Single-ply,SBD,M,
Boys,55.79,2,Alec Ohnheiser,Conroe,55.07,156.49,102.06,136.08,394.63,Single-ply,SBD,M,
Boys,55.79,3,Diego Malm,Magnolia,52.25,127.01,77.11,147.42,351.53,Single-ply,SBD,M,
Boys,55.79,4,Ashtin Carlock,Conroe Grand Oaks,52.07,113.4,90.72,142.88,347,Single-ply,SBD,M,
Boys,55.79,5,Nate Provost,Conroe The Woodlands,55.11,124.74,65.77,151.95,342.46,Single-ply,SBD,M,
Boys,55.79,6,Matt Provost,Conroe The Woodlands,54.61,140.61,56.7,140.61,337.93,Single-ply,SBD,M,
Boys,55.79,7,Darian Chambers,Magnolia,55.38,127.01,65.77,140.61,333.39,Single-ply,SBD,M,
Boys,55.79,8,Boone Beyer,Magnolia,55.79,129.27,74.84,127.01,331.12,Single-ply,SBD,M,
Boys,55.79,9,Lukas Alvarez,Conroe The Woodlands,53.25,115.67,61.23,136.08,312.98,Single-ply,SBD,M,
Boys,55.79,10,Damon Arnold,Conroe The Woodlands,52.21,83.91,81.65,113.4,278.96,Single-ply,SBD,M,
Boys,55.79,DQ,Blaise Ohnheiser,Conroe,55.52,156.49,95.25,,,Single-ply,SBD,M,
Boys,59.87,1,Jeremiah Coleman,Dickinson,59.83,204.12,86.18,213.19,503.49,Single-ply,SBD,M,
Boys,59.87,2,Cameron Yale,Magnolia,59.78,190.51,90.72,179.17,460.4,Single-ply,SBD,M,
Boys,59.87,3,Joseph Tellez,Magnolia,58.51,154.22,86.18,163.29,403.7,Single-ply,SBD,M,
Boys,59.87,4,Lance Thomas,Magnolia West,56.7,158.76,90.72,127.01,376.48,Single-ply,SBD,M,
Boys,59.87,DQ,Jerry Contreras,Conroe The Woodlands,59.06,113.4,,,,Single-ply,SBD,M,
Boys,67.13,1,Ian Keck,Magnolia West,65.14,197.31,115.67,192.78,505.76,Single-ply,SBD,M,
Boys,67.13,2,Aiden Peterson,Conroe The Woodlands,67.13,183.7,90.72,213.19,487.61,Single-ply,SBD,M,
Boys,67.13,3,Joseph Stokes,Montgomery Lake Creek,64.95,165.56,102.06,201.85,469.47,Single-ply,SBD,M,
Boys,67.13,4,Andrew Veres,Conroe Woodlands College Park,65.54,174.63,115.67,167.83,458.13,Single-ply,SBD,M,
Boys,67.13,5,Cody Costello,Magnolia West,64,176.9,113.4,161.03,451.32,Single-ply,SBD,M,
Boys,67.13,6,David Ngoy,Dickinson,66.41,174.63,90.72,181.44,446.79,Single-ply,SBD,M,
Boys,67.13,7,Cade Rachinski,Montgomery Lake Creek,66.72,151.95,92.99,158.76,403.7,Single-ply,SBD,M,
Boys,67.13,8,Gustavo Herrera,Conroe The Woodlands,65.82,147.42,88.45,161.03,396.89,Single-ply,SBD,M,
Boys,67.13,9,Rogelio Barrera,Conroe,61.87,149.69,102.06,142.88,394.63,Single-ply,SBD,M,
Boys,67.13,10,Cody Kelley,Montgomery Lake Creek,66.36,133.81,83.91,138.35,356.07,Single-ply,SBD,M,
Boys,67.13,11,Alex Conjelko,Conroe The Woodlands,66.36,136.08,74.84,129.27,340.19,Single-ply,SBD,M,
Boys,67.13,12,Kieron Lee,Huntsville,63.55,113.4,70.31,142.88,326.59,Single-ply,SBD,M,
Boys,74.84,1,Robert Galindo,Dickinson,74.39,247.21,133.81,242.67,623.69,Single-ply,SBD,M,
Boys,74.84,2,Zach Mills,Conroe Woodlands College Park,73.94,233.6,129.27,251.74,614.62,Single-ply,SBD,M,
Boys,74.84,3,Derrick Cobbs,Dickinson,74.66,231.33,117.93,260.82,610.08,Single-ply,SBD,M,
Boys,74.84,4,Christian Ream,Montgomery Lake Creek,73.98,215.46,115.67,226.8,557.92,Single-ply,SBD,M,
Boys,74.84,5,Weston Tuttle,Conroe The Woodlands,73.3,190.51,115.67,213.19,519.36,Single-ply,SBD,M,
Boys,74.84,6,Jacob Friedrich,Magnolia West,74.3,192.78,129.27,190.51,512.56,Single-ply,SBD,M,
Boys,74.84,7,Bret Peterson,Conroe The Woodlands,74.8,206.38,117.93,181.44,505.76,Single-ply,SBD,M,
Boys,74.84,8,Bladdin Hill,Dickinson,74.84,188.24,117.93,190.51,496.68,Single-ply,SBD,M,
Boys,74.84,9,Mauricio Kerguelen,Conroe The Woodlands,74.48,176.9,104.33,190.51,471.74,Single-ply,SBD,M,
Boys,74.84,10,Dylan Deangelo,Conroe Woodlands College Park,71.4,172.37,108.86,183.7,464.93,Single-ply,SBD,M,
Boys,74.84,11,Alex Turner #1,Conroe The Woodlands,67.4,147.42,86.18,154.22,387.82,Single-ply,SBD,M,
Boys,74.84,12,Wyatt Ford,Montgomery Lake Creek,68.49,120.2,90.72,136.08,347,Single-ply,SBD,M,
Boys,74.84,DQ,Jonah Sims,Conroe The Woodlands,71.62,,,,,Single-ply,SBD,M,
Boys,74.84,DQ,Michael Carter,Magnolia,74.62,,,,,Single-ply,SBD,M,
Boys,82.1,1,Preston Pugh,Montgomery Lake Creek,76.75,240.4,138.35,242.67,621.42,Single-ply,SBD,M,
Boys,82.1,2,Nathan Leone,Conroe The Woodlands,81.6,222.26,122.47,215.46,560.19,Single-ply,SBD,M,
Boys,82.1,3,Colton Smith,Conroe The Woodlands,81.37,206.38,111.13,226.8,544.31,Single-ply,SBD,M,
Boys,82.1,4,Jayden DeKelaita,Dickinson,79.79,210.92,99.79,206.38,517.1,Single-ply,SBD,M,
Boys,82.1,5,Phillip Wimberly,Magnolia West,74.93,204.12,111.13,195.04,510.29,Single-ply,SBD,M,
Boys,82.1,6,Jaylon McClain,Huntsville,76.75,185.97,106.59,204.12,496.68,Single-ply,SBD,M,
Boys,82.1,7,Tyler Harsch,Magnolia West,79.92,185.97,104.33,183.7,474,Single-ply,SBD,M,
Boys,82.1,8,Andrew Clevenger,Montgomery Lake Creek,80.83,172.37,124.74,172.37,469.47,Single-ply,SBD,M,
Boys,82.1,9,Makiyah Gilford,Conroe The Woodlands,80.92,185.97,111.13,156.49,453.59,Single-ply,SBD,M,
Boys,82.1,10,Ethan Scott,Conroe The Woodlands,81.74,129.27,95.25,111.13,335.66,Single-ply,SBD,M,
Boys,82.1,DQ,Emory Velez,Conroe Grand Oaks,78.65,161.03,,,,Single-ply,SBD,M,
Boys,82.1,DQ,David Bush,Conroe Grand Oaks,79.61,208.65,,,,Single-ply,SBD,M,
Boys,89.81,1,Perry Irchirl,Conroe Woodlands College Park,82.83,260.82,154.22,294.84,709.87,Single-ply,SBD,M,
Boys,89.81,2,Luke McAffety,Magnolia West,84.82,294.84,156.49,235.87,687.19,Single-ply,SBD,M,
Boys,89.81,3,Jonathan Garcia #3,Magnolia West,87.72,235.87,154.22,233.6,623.69,Single-ply,SBD,M,
Boys,89.81,4,Joey Minassian,Magnolia West,88.5,242.67,138.35,235.87,616.89,Single-ply,SBD,M,
Boys,89.81,5,Micaiah Loop,Conroe,89.13,206.38,147.42,244.94,598.74,Single-ply,SBD,M,
Boys,89.81,6,Jack Basham,Montgomery Lake Creek,85.28,206.38,136.08,226.8,569.26,Single-ply,SBD,M,
Boys,89.81,7,Jason Pinder,Dickinson,88.9,238.14,122.47,206.38,566.99,Single-ply,SBD,M,
Boys,89.81,8,Sebastian Patterson,Huntsville,83.51,217.72,129.27,204.12,551.11,Single-ply,SBD,M,
Boys,89.81,9,Harold Knight,Conroe The Woodlands,88.68,201.85,120.2,226.8,548.85,Single-ply,SBD,M,
Boys,89.81,10,Shannon Richardson,Conroe,89.72,179.17,131.54,233.6,544.31,Single-ply,SBD,M,
Boys,89.81,11,Roberto Dorado,Magnolia West,87.63,197.31,104.33,204.12,505.76,Single-ply,SBD,M,
Boys,89.81,12,Nathan Thornberry,Conroe Grand Oaks,88.09,172.37,124.74,174.63,471.74,Single-ply,SBD,M,
Boys,89.81,13,Jake Marriott,Conroe Woodlands College Park,87.14,136.08,102.06,167.83,405.97,Single-ply,SBD,M,
Boys,89.81,14,Kory Ford,Willis,89.58,151.95,83.91,165.56,401.43,Single-ply,SBD,M,
Boys,89.81,15,Landon Parsley,Willis,88.31,145.15,88.45,145.15,378.75,Single-ply,SBD,M,
Boys,89.81,DQ,Keshon Mayers,Huntsville,89.4,,,,,Single-ply,SBD,M,
Boys,89.81,DQ,Leighton Mann,Montgomery Lake Creek,89.58,170.1,,,,Single-ply,SBD,M,
Boys,99.79,1,Colby Lord,Montgomery Lake Creek,98.57,249.48,183.7,240.4,673.58,Single-ply,SBD,M,
Boys,99.79,2,Alex Martin #2,Conroe The Woodlands,93.49,192.78,138.35,206.38,537.51,Single-ply,SBD,M,
Boys,99.79,3,Grant Ferguson,Conroe Woodlands College Park,98.88,195.04,145.15,195.04,535.24,Single-ply,SBD,M,
Boys,99.79,4,Seth Downs,Montgomery Lake Creek,95.16,190.51,156.49,183.7,530.7,Single-ply,SBD,M,
Boys,99.79,5,Austin Hulska,Magnolia West,93.39,192.78,117.93,195.04,505.76,Single-ply,SBD,M,
Boys,99.79,6,Calvin Simmons,Huntsville,96.66,188.24,106.59,188.24,483.08,Single-ply,SBD,M,
Boys,99.79,7,Paden Pacetti,Montgomery Lake Creek,96.93,165.56,102.06,172.37,439.98,Single-ply,SBD,M,
Boys,99.79,8,Kaden Hearn,Conroe The Woodlands,97.3,113.4,63.5,129.27,306.17,Single-ply,SBD,M,
Boys,99.79,DQ,Anthony Chukwuemeka,Conroe The Woodlands,94.89,111.13,,,,Single-ply,SBD,M,
Boys,109.77,1,Logan Ecuyer,Conroe The Woodlands,100.83,274.42,172.37,265.35,712.14,Single-ply,SBD,M,
Boys,109.77,2,James Goodman,Montgomery Lake Creek,109.09,256.28,185.97,247.21,689.46,Single-ply,SBD,M,
Boys,109.77,3,Carlos Ortiz,Magnolia,109.68,276.69,145.15,238.14,659.98,Single-ply,SBD,M,
Boys,109.77,4,Tyler Duty,Magnolia West,107.55,267.62,158.76,229.06,655.44,Single-ply,SBD,M,
Boys,109.77,5,Cody Koska,Magnolia West,107.23,254.01,133.81,222.26,610.08,Single-ply,SBD,M,
Boys,109.77,6,Ethan Wiggins,Montgomery Lake Creek,104.73,233.6,149.69,210.92,594.21,Single-ply,SBD,M,
Boys,109.77,7,Quadmond Irchirl,Conroe Woodlands College Park,105.28,226.8,127.01,238.14,591.94,Single-ply,SBD,M,
Boys,109.77,8,Zane Nelson,Willis,109.41,210.92,151.95,192.78,555.65,Single-ply,SBD,M,
Boys,109.77,9,Mitchell Mustiful,Conroe Woodlands College Park,100.2,206.38,138.35,199.58,544.31,Single-ply,SBD,M,
Boys,109.77,10,Andy Parker,Willis,100.65,179.17,133.81,192.78,505.76,Single-ply,SBD,M,
Boys,109.77,11,Sean Calkin,Willis,102.83,226.8,83.91,192.78,503.49,Single-ply,SBD,M,
Boys,109.77,12,Jacob Otano,Conroe The Woodlands,104.83,185.97,111.13,199.58,496.68,Single-ply,SBD,M,
Boys,109.77,13,Kendall Ballew,Montgomery Lake Creek,107.86,158.76,83.91,163.29,405.97,Single-ply,SBD,M,
Boys,109.77,14,Gavin Lea,Montgomery Lake Creek,105.14,117.93,74.84,163.29,356.07,Single-ply,SBD,M,
Boys,109.77,DQ,Zack Shilu,Conroe The Woodlands,105.01,102.06,,,,Single-ply,SBD,M,
Boys,109.77,DQ,Eric Gilbert #2,Willis,107.41,,,,,Single-ply,SBD,M,
Boys,109.77,DQ,Kieron Ross,Huntsville,109.13,,,,,Single-ply,SBD,M,
Boys,124.74,1,Caleb Williams #4,Conroe Woodlands College Park,123.79,278.96,192.78,242.67,714.41,Single-ply,SBD,M,
Boys,124.74,2,Jose Cruz,Huntsville,112.94,226.8,131.54,204.12,562.45,Single-ply,SBD,M,
Boys,124.74,3,Andrew Morrow,Magnolia,119.84,247.21,115.67,197.31,560.19,Single-ply,SBD,M,
Boys,124.74,4,Marque Johnson,Conroe,121.29,210.92,131.54,206.38,548.85,Single-ply,SBD,M,
Boys,124.74,5,Trenton Dickey,Hardin,114.8,210.92,113.4,206.38,530.7,Single-ply,SBD,M,
Boys,124.74,6,Chris Smith #7,Huntsville,116.3,215.46,111.13,170.1,496.68,Single-ply,SBD,M,
Boys,124.74,7,Cobe Williams,Conroe Woodlands College Park,113.58,174.63,138.35,181.44,494.42,Single-ply,SBD,M,
Boys,124.74,DQ,Zach Rogers,Willis,124.06,260.82,113.4,,,Single-ply,SBD,M,
Boys,124.74+,1,Marcus White,Dickinson,144.97,362.87,199.58,258.55,821,Single-ply,SBD,M,
Boys,124.74+,2,Markale White,Dickinson,138.98,317.51,190.51,283.5,791.52,Single-ply,SBD,M,
Boys,124.74+,3,Paul Thonsgaard,Hardin,131.36,272.16,154.22,244.94,671.32,Single-ply,SBD,M,
Boys,124.74+,4,Ed Bobino,Huntsville,136.98,254.01,136.08,208.65,598.74,Single-ply,SBD,M,
Boys,124.74+,5,Le To,Willis,139.25,215.46,115.67,201.85,532.97,Single-ply,SBD,M,
Boys,124.74+,6,Kristian Sparks,Montgomery Lake Creek,134.85,161.03,102.06,163.29,426.38,Single-ply,SBD,M,
Boys,124.74+,DQ,Jordan Wilson #1,Conroe Grand Oaks,144.42,,,,,Single-ply,SBD,M,
