Division,WeightClassKg,Place,Name,Team,BodyweightKg,Best3SquatKg,Best3BenchKg,Best3DeadliftKg,TotalKg,Equipment,Event,Sex
Boys,51.71,1,Efren Miranda,Levelland,51.71,79.38,43.09,97.52,219.99,Single-ply,SBD,M
Boys,51.71,2,Connor Steel,Forsan,46.27,74.84,43.09,83.91,201.85,Single-ply,SBD,M
Boys,51.71,3,Justin Rodriguez,Levelland,51.71,74.84,52.16,74.84,201.85,Single-ply,SBD,M
Boys,51.71,4,Josh Dean,Coahoma,35.38,34.02,31.75,65.77,131.54,Single-ply,SBD,M
Boys,55.79,1,Drew Votan,Merkel,54.88,113.4,65.77,117.93,297.1,Single-ply,SBD,M
Boys,55.79,2,Zach Sanchez,Levelland,55.79,99.79,68.04,113.4,281.23,Single-ply,SBD,M
Boys,55.79,3,Tyler Nairn,Big Spring,53.07,97.52,61.23,108.86,267.62,Single-ply,SBD,M
Boys,55.79,4,Jordan Wilson #5,Coahoma,53.71,65.77,45.36,90.72,201.85,Single-ply,SBD,M
Boys,59.87,1,Mario Manquero,Garden City,57.61,133.81,74.84,145.15,353.8,Single-ply,SBD,M
Boys,59.87,2,Chris McPhereson,Coahoma,58.97,111.13,65.77,158.76,335.66,Single-ply,SBD,M
Boys,59.87,3,Johnathan Browning,Sweetwater,58.06,122.47,70.31,136.08,328.85,Single-ply,SBD,M
Boys,59.87,4,Trenton Crenshaw,Coahoma,57.7,111.13,58.97,106.59,276.69,Single-ply,SBD,M
Boys,59.87,5,Markus Jernigan,Hamlin,59.87,54.43,52.16,83.91,190.51,Single-ply,SBD,M
Boys,67.13,1,Donald Baker,Sweetwater,64.41,167.83,99.79,163.29,430.91,Single-ply,SBD,M
Boys,67.13,2,Matthew Guajardo,Levelland,66.68,147.42,88.45,167.83,403.7,Single-ply,SBD,M
Boys,67.13,3,Elliot Hanna,Levelland,65.32,142.88,102.06,154.22,399.16,Single-ply,SBD,M
Boys,67.13,4,Dalton Doss,Forsan,64.41,147.42,97.52,147.42,392.36,Single-ply,SBD,M
Boys,67.13,5,Austin Marlett,Sweetwater,66.22,149.69,83.91,154.22,387.82,Single-ply,SBD,M
Boys,67.13,6,Robert Martinez,Big Spring,67.13,140.61,83.91,154.22,378.75,Single-ply,SBD,M
Boys,67.13,7,Colton Belew,Garden City,65.77,136.08,83.91,133.81,353.8,Single-ply,SBD,M
Boys,67.13,8,Jacob Ludwig,Colorado City Colorado,66.22,147.42,54.43,149.69,351.53,Single-ply,SBD,M
Boys,67.13,9,Mario Ramirez,Odessa,67.13,124.74,77.11,149.69,351.53,Single-ply,SBD,M
Boys,67.13,10,Brandon Coker,Coahoma,65.77,136.08,65.77,142.88,344.73,Single-ply,SBD,M
Boys,67.13,11,Mitchell Monk,Levelland,66.68,113.4,72.57,142.88,328.85,Single-ply,SBD,M
Boys,67.13,12,Andres Vasquez,Levelland,66.68,117.93,77.11,127.01,322.05,Single-ply,SBD,M
Boys,67.13,13,Calvin Gibbs,Coahoma,66.22,113.4,70.31,115.67,299.37,Single-ply,SBD,M
Boys,67.13,14,Kasey Foster,Big Spring,61.23,99.79,58.97,108.86,267.62,Single-ply,SBD,M
Boys,67.13,15,Anthony Olvera,Hamlin,66.22,74.84,61.23,92.99,229.06,Single-ply,SBD,M
Boys,67.13,16,Cedar McIlwain,Hamlin,60.33,79.38,,,79.38,Single-ply,S,M
Boys,74.84,1,Ryan Linebaugh,Sweetwater,73.94,208.65,122.47,213.19,544.31,Single-ply,SBD,M
Boys,74.84,2,Justin Coker,Coahoma,72.57,195.04,127.01,204.12,526.17,Single-ply,SBD,M
Boys,74.84,3,Aaron Goff,Forsan,69.85,156.49,90.72,181.44,428.64,Single-ply,SBD,M
Boys,74.84,4,Martin Zambrano,Big Spring,67.77,149.69,97.52,163.29,410.5,Single-ply,SBD,M
Boys,74.84,5,Brody Halfmann,Garden City,71.21,140.61,79.38,158.76,378.75,Single-ply,SBD,M
Boys,74.84,6,Chapman Royall,Garden City,73.03,133.81,79.38,161.03,374.21,Single-ply,SBD,M
Boys,74.84,7,Taylor Robertson,Big Spring,69.85,138.35,81.65,147.42,367.41,Single-ply,SBD,M
Boys,74.84,8,Trenton Jones,Levelland,69.4,138.35,77.11,138.35,353.8,Single-ply,SBD,M
Boys,74.84,9,Cesar Saldana,Odessa,70.31,113.4,77.11,149.69,340.19,Single-ply,SBD,M
Boys,74.84,10,Cade Luera,Snyder,74.3,113.4,83.91,142.88,340.19,Single-ply,SBD,M
Boys,74.84,11,Paul Perez,Levelland,68.04,113.4,77.11,129.27,319.78,Single-ply,SBD,M
Boys,74.84,12,Jalin Gilbert,Coahoma,71.67,115.67,70.31,131.54,317.51,Single-ply,SBD,M
Boys,74.84,13,Brannon Stegemoellar,Hamlin,71.21,113.4,61.23,113.4,288.03,Single-ply,SBD,M
Boys,74.84,14,Edgar Juarez,Hamlin,68.04,88.45,70.31,92.99,251.74,Single-ply,SBD,M
Boys,74.84,15,Tyler Mitchell,Snyder,69.22,83.91,56.7,90.72,231.33,Single-ply,SBD,M
Boys,74.84,16,Austin Grantham,Forsan,68.49,106.59,,,106.59,Single-ply,S,M
Boys,74.84,17,Justin Cabezuela,Odessa,73.48,102.06,,,102.06,Single-ply,S,M
Boys,74.84,DQ,Brendan Roman,Forsan,70.31,,,,,Single-ply,S,M
Boys,82.1,1,Sam Nemir,Sweetwater,78.93,222.26,145.15,222.26,589.67,Single-ply,SBD,M
Boys,82.1,2,Peyton Rodriguez,Coahoma,80.74,197.31,124.74,204.12,526.17,Single-ply,SBD,M
Boys,82.1,3,Foster Burchett,Forsan,80.29,165.56,102.06,195.04,462.66,Single-ply,SBD,M
Boys,82.1,4,Joseph Melendez,Coahoma,82.1,183.7,92.99,185.97,462.66,Single-ply,SBD,M
Boys,82.1,5,Steven Lee #3,Sweetwater,82.1,158.76,83.91,170.1,412.77,Single-ply,SBD,M
Boys,82.1,6,Branson Kennedy,Coahoma,76.2,142.88,86.18,167.83,396.89,Single-ply,SBD,M
Boys,82.1,7,Zach Garcia,Sweetwater,78.02,129.27,81.65,142.88,353.8,Single-ply,SBD,M
Boys,82.1,8,Manny Lopez,Snyder,75.75,81.65,56.7,95.25,233.6,Single-ply,SBD,M
Boys,82.1,9,Dylan Byerly,Hamlin,78.47,136.08,,,136.08,Single-ply,S,M
Boys,89.81,1,Alex Garcia #1,Sweetwater,83.91,192.78,102.06,233.6,528.44,Single-ply,SBD,M
Boys,89.81,2,Sergio Leyva,Odessa,89.36,208.65,115.67,204.12,528.44,Single-ply,SBD,M
Boys,89.81,3,Shelby Mobley,Odessa,87.54,192.78,113.4,206.38,512.56,Single-ply,SBD,M
Boys,89.81,4,Cody Buczyna,Merkel,82.55,201.85,111.13,185.97,498.95,Single-ply,SBD,M
Boys,89.81,5,Clayton Clair,Odessa,83.46,192.78,102.06,190.51,485.34,Single-ply,SBD,M
Boys,89.81,6,Zach Lerma,Odessa,88,181.44,113.4,158.76,453.59,Single-ply,SBD,M
Boys,89.81,7,Shawn Walker,Garden City,84.82,161.03,113.4,174.63,449.06,Single-ply,SBD,M
Boys,89.81,8,Kaleb Fallin,Merkel,86.64,145.15,88.45,151.95,385.55,Single-ply,SBD,M
Boys,89.81,9,Kodee Simpson,Snyder,88.9,145.15,88.45,142.88,376.48,Single-ply,SBD,M
Boys,89.81,10,Jahari Vanover,Big Spring,88,127.01,86.18,147.42,360.61,Single-ply,SBD,M
Boys,89.81,11,Corey Potter,Coahoma,84.73,117.93,74.84,158.76,351.53,Single-ply,SBD,M
Boys,89.81,12,Patrick Laws,Big Spring,87.09,117.93,97.52,124.74,340.19,Single-ply,SBD,M
Boys,89.81,13,Kyle Lambert,Sweetwater,89.36,181.44,,,181.44,Single-ply,S,M
Boys,89.81,14,Brett Saucedo,Big Spring,86.18,124.74,,,124.74,Single-ply,S,M
Boys,99.79,1,Ramiro Reyes,Colorado City Colorado,97.98,272.16,197.31,226.8,696.26,Single-ply,SBD,M
Boys,99.79,2,Kendall Rea,Sweetwater,97.07,176.9,136.08,181.44,494.42,Single-ply,SBD,M
Boys,99.79,3,Michael Woods,Merkel,98.43,185.97,102.06,190.51,478.54,Single-ply,SBD,M
Boys,99.79,4,Jesse Garza,Colorado City Colorado,96.16,183.7,111.13,179.17,474,Single-ply,SBD,M
Boys,99.79,5,Mark Gonzales,Colorado City Colorado,92.08,165.56,90.72,158.76,415.04,Single-ply,SBD,M
Boys,99.79,6,Ronnie Bell,Big Spring,90.72,136.08,97.52,158.76,392.36,Single-ply,SBD,M
Boys,99.79,7,Juan Sosa,Odessa,92.53,154.22,92.99,145.15,392.36,Single-ply,SBD,M
Boys,99.79,8,Collin Woodard,Big Spring,95.25,136.08,90.72,129.27,356.07,Single-ply,SBD,M
Boys,99.79,9,Brandon Baker,Merkel,92.53,138.35,61.23,142.88,342.46,Single-ply,SBD,M
Boys,99.79,10,Brody Coates,Coahoma,90.99,111.13,63.5,106.59,281.23,Single-ply,SBD,M
Boys,109.77,1,Mateo Gonzales,Sweetwater,101.6,247.21,147.42,242.67,637.3,Single-ply,SBD,M
Boys,109.77,2,Jordan Stokes,Coahoma,100.24,226.8,136.08,260.82,623.69,Single-ply,SBD,M
Boys,109.77,3,Nathan Villanueva,Snyder,104.33,185.97,102.06,167.83,455.86,Single-ply,SBD,M
Boys,109.77,4,Diamond Bailey,Big Spring,101.6,179.17,97.52,165.56,442.25,Single-ply,SBD,M
Boys,109.77,5,Zak Walton,Coahoma,108.23,156.49,108.86,172.37,437.72,Single-ply,SBD,M
Boys,109.77,6,Rudy Brito,Coahoma,106.59,190.51,86.18,158.76,435.45,Single-ply,SBD,M
Boys,109.77,7,Nick Conner,Big Spring,102.33,142.88,97.52,147.42,387.82,Single-ply,SBD,M
Boys,109.77,8,Jonathan Falcon,Big Spring,109.32,124.74,104.33,131.54,360.61,Single-ply,SBD,M
Boys,109.77,9,John Lujan,Snyder,101.15,145.15,88.45,117.93,351.53,Single-ply,SBD,M
Boys,109.77,10,Phillip Bacon,Coahoma,108.05,108.86,58.97,122.47,290.3,Single-ply,SBD,M
Boys,109.77,11,Aaron Webb,Snyder,108.86,92.99,61.23,124.74,278.96,Single-ply,SBD,M
Boys,109.77,12,James Slade,Odessa,103.87,190.51,,,190.51,Single-ply,S,M
Boys,109.77,DQ,Anthony Rivera,Colorado City Colorado,100.15,,,,,Single-ply,S,M
Boys,124.74,1,Fabian Gutierrez,Colorado City Colorado,124.74,272.16,142.88,238.14,653.17,Single-ply,SBD,M
Boys,124.74,2,Dustin Fontana,Coahoma,112.49,213.19,136.08,204.12,553.38,Single-ply,SBD,M
Boys,124.74,3,Jeremy Garza,Snyder,121.93,204.12,142.88,190.51,537.51,Single-ply,SBD,M
Boys,124.74,4,Kj McFadden,Merkel,115.67,201.85,102.06,188.24,492.15,Single-ply,SBD,M
Boys,124.74,5,Angel Caballero,Sweetwater,122.02,197.31,113.4,181.44,492.15,Single-ply,SBD,M
Boys,124.74,6,Aric Rutledge,Big Spring,117.48,163.29,99.79,163.29,426.38,Single-ply,SBD,M
Boys,124.74,7,Hardy Berber,Colorado City Colorado,119.29,147.42,102.06,142.88,392.36,Single-ply,SBD,M
Boys,124.74,8,Donato Gaxiola,Sweetwater,118.39,138.35,86.18,156.49,381.02,Single-ply,SBD,M
Boys,124.74,9,Aaron Steelman,Snyder,123.83,136.08,95.25,142.88,374.21,Single-ply,SBD,M
Boys,124.74,10,Nicholas Irwin,Snyder,110.5,136.08,68.04,136.08,340.19,Single-ply,SBD,M
Boys,124.74,11,Aj Martinez,Big Spring,123.83,117.93,83.91,129.27,331.12,Single-ply,SBD,M
Boys,124.74,12,Robert Lucero,Levelland,119.75,108.86,77.11,108.86,294.84,Single-ply,SBD,M
Boys,124.74,13,Eric Rodriguez,Big Spring,123.47,115.67,70.31,104.33,290.3,Single-ply,SBD,M
Boys,124.74,14,Eduardo Lizalde,Odessa,112.94,181.44,97.52,,278.96,Single-ply,SB,M
Boys,124.74+,1,Sawyer Roberts,Big Spring,158.76,240.4,145.15,256.28,641.83,Single-ply,SBD,M
Boys,124.74+,2,Jesse Ramirez,Odessa,144.7,222.26,147.42,217.72,587.4,Single-ply,SBD,M
Boys,124.74+,3,Hayden Meek,Snyder,154.22,192.78,120.2,181.44,494.42,Single-ply,SBD,M
Boys,124.74+,4,Frankie Mier,Garden City,128.37,142.88,102.06,165.56,410.5,Single-ply,SBD,M
Boys,124.74+,5,Trey Thomas,Merkel,140.16,145.15,92.99,147.42,385.55,Single-ply,SBD,M
Boys,124.74+,6,Dominick Puente,Levelland,127.01,163.29,90.72,117.93,371.95,Single-ply,SBD,M
Boys,124.74+,7,Thomas Rivera,Colorado City Colorado,154.22,136.08,90.72,131.54,358.34,Single-ply,SBD,M
