Division,WeightClassKg,Place,Name,Team,BodyweightKg,Best3SquatKg,Best3BenchKg,Best3DeadliftKg,TotalKg,Equipment,Event,Sex,BirthDate
Boys,51.71,1,Juan Trejo,Friona,51.71,185.97,99.79,179.17,464.93,Single-ply,SBD,M,
Boys,51.71,2,Nathan Flores,Friona,51.66,131.54,63.5,151.95,347,Single-ply,SBD,M,
Boys,51.71,3,Jose Borunda,Whiteface,49.62,92.99,61.23,102.06,256.28,Single-ply,SBD,M,
Boys,51.71,4,Jairus Martinez,Hale Center,49.99,95.25,45.36,102.06,242.67,Single-ply,SBD,M,
Boys,51.71,5,Patricio Garcia,Brownfield,51.48,88.45,43.09,79.38,210.92,Single-ply,SBD,M,
Boys,51.71,DQ,Isaac Rodriguez,Hale Center,51.53,,,,,Single-ply,SBD,M,
Boys,55.79,1,Brennan Riker,Post,55.7,185.97,99.79,167.83,453.59,Single-ply,SBD,M,
Boys,55.79,2,Gio Ponce,Friona,55.79,140.61,77.11,136.08,353.8,Single-ply,SBD,M,
Boys,55.79,3,Seunghak Lee,Lubbock Cooper,54.98,127.01,74.84,147.42,349.27,Single-ply,SBD,M,
Boys,55.79,4,Dominique Sterling,Seagraves,52.62,127.01,68.04,131.54,326.59,Single-ply,SBD,M,
Boys,55.79,5,Dillon Bruington,Floydada,55.02,113.4,61.23,127.01,301.64,Single-ply,SBD,M,
Boys,59.87,1,Dio Ponce,Friona,59.06,145.15,95.25,142.88,383.29,Single-ply,SBD,M,
Boys,59.87,2,Aidon Olivas,Sundown,59.24,142.88,83.91,156.49,383.29,Single-ply,SBD,M,
Boys,59.87,3,Carlos Perez #3,Sundown,58.01,131.54,79.38,158.76,369.68,Single-ply,SBD,M,
Boys,59.87,4,Brayden Sanders,Sundown,57.56,127.01,74.84,156.49,358.34,Single-ply,SBD,M,
Boys,59.87,5,Mario Bautista,Friona,58.15,136.08,86.18,127.01,349.27,Single-ply,SBD,M,
Boys,59.87,6,Nathaniel Carranza,Lubbock Cooper,58.29,113.4,70.31,142.88,326.59,Single-ply,SBD,M,
Boys,59.87,7,Eli Avery,Lubbock,59.74,136.08,68.04,108.86,312.98,Single-ply,SBD,M,
Boys,59.87,8,Luis Martinez,Floydada,56.29,99.79,68.04,142.88,310.71,Single-ply,SBD,M,
Boys,59.87,9,Kye Bailey,Abernathy,56.74,111.13,61.23,136.08,308.44,Single-ply,SBD,M,
Boys,59.87,10,Ryan Gamez,Brownfield,57.29,115.67,68.04,124.74,308.44,Single-ply,SBD,M,
Boys,59.87,11,Gael Garcia,Friona,57.15,117.93,58.97,111.13,288.03,Single-ply,SBD,M,
Boys,59.87,DQ,Xuan Garcia,Friona,59.87,,,,,Single-ply,SBD,M,
Boys,59.87,DQ,David Fisher,Abernathy,56.84,97.52,,,,Single-ply,SBD,M,
Boys,67.13,1,Pablo Mendoza,Sundown,63.37,176.9,111.13,195.04,483.08,Single-ply,SBD,M,
Boys,67.13,2,Jeremiah Diaz,Friona,66.45,204.12,104.33,174.63,483.08,Single-ply,SBD,M,
Boys,67.13,3,Zane Cavazos,Lamesa,67.04,167.83,74.84,185.97,428.64,Single-ply,SBD,M,
Boys,67.13,4,Marcos Hernandez,Sundown,65.05,154.22,88.45,183.7,426.38,Single-ply,SBD,M,
Boys,67.13,5,Juan Palomo,Lubbock,65.41,151.95,90.72,156.49,399.16,Single-ply,SBD,M,
Boys,67.13,6,Avel Sinklier,Abernathy,64.86,147.42,90.72,154.22,392.36,Single-ply,SBD,M,
Boys,67.13,7,Truman Richerson,Abernathy,63.5,149.69,86.18,147.42,383.29,Single-ply,SBD,M,
Boys,67.13,8,Tanner Eade,Lubbock,64.73,136.08,86.18,142.88,365.14,Single-ply,SBD,M,
Boys,67.13,9,Moses Valencia,Hale Center,65.05,124.74,86.18,154.22,365.14,Single-ply,SBD,M,
Boys,67.13,10,Kaden Jackson,Hale Center,64.64,142.88,74.84,136.08,353.8,Single-ply,SBD,M,
Boys,67.13,11,Aaron Cortez,Abernathy,62.6,129.27,65.77,142.88,337.93,Single-ply,SBD,M,
Boys,67.13,12,Iziah Alvarado,Floydada,61.6,102.06,65.77,167.83,335.66,Single-ply,SBD,M,
Boys,67.13,13,Elijah Martinez,Seagraves,63.78,122.47,77.11,131.54,331.12,Single-ply,SBD,M,
Boys,67.13,14,Cameron Perez,Lubbock,63.73,142.88,61.23,113.4,317.51,Single-ply,SBD,M,
Boys,67.13,15,Gabe Mendez,Abernathy,64.77,117.93,68.04,111.13,297.1,Single-ply,SBD,M,
Boys,67.13,16,Austin Gunnels,Brownfield,66.5,81.65,61.23,113.4,256.28,Single-ply,SBD,M,
Boys,67.13,17,Chase Rodriguez,Lubbock Cooper,65.77,72.57,68.04,106.59,247.21,Single-ply,SBD,M,
Boys,67.13,DQ,Anthony Naranjo,Hale Center,64.95,,,,,Single-ply,SBD,M,
Boys,67.13,DQ,Lane Bundy,Brownfield,63.82,104.33,,,,Single-ply,SBD,M,
Boys,74.84,1,Logan Pipkin,Lubbock Cooper,73.16,197.31,120.2,213.19,530.7,Single-ply,SBD,M,
Boys,74.84,2,Cade Conway,Sundown,74.12,190.51,136.08,192.78,519.36,Single-ply,SBD,M,
Boys,74.84,3,Grayson Richardson,Sundown,73.21,163.29,115.67,181.44,460.4,Single-ply,SBD,M,
Boys,74.84,4,Anthony Trevino,Lamesa,68.17,167.83,83.91,190.51,442.25,Single-ply,SBD,M,
Boys,74.84,5,Nate Gensler,Brownfield,70.9,136.08,90.72,170.1,396.89,Single-ply,SBD,M,
Boys,74.84,6,Kevin Lucatero,Friona,74.39,122.47,86.18,172.37,381.02,Single-ply,SBD,M,
Boys,74.84,7,Aaron Salinas,Friona,68.54,136.08,68.04,163.29,367.41,Single-ply,SBD,M,
Boys,74.84,8,Ricardo Lopez,Lubbock,73.66,136.08,79.38,151.95,367.41,Single-ply,SBD,M,
Boys,74.84,9,Landon Pevey,Post,72.03,136.08,88.45,140.61,365.14,Single-ply,SBD,M,
Boys,74.84,10,Marcos Ogeda,Lamesa,74.66,127.01,74.84,154.22,356.07,Single-ply,SBD,M,
Boys,74.84,11,Uri Garza,Brownfield,69.49,122.47,70.31,147.42,340.19,Single-ply,SBD,M,
Boys,74.84,12,Francisco Garza,Brownfield,68.76,120.2,77.11,136.08,333.39,Single-ply,SBD,M,
Boys,74.84,13,Tony Rodriguez #4,Friona,70.35,131.54,63.5,124.74,319.78,Single-ply,SBD,M,
Boys,74.84,14,Jaxson Wiley,Abernathy,74.8,111.13,74.84,127.01,312.98,Single-ply,SBD,M,
Boys,74.84,15,Sebastian Brown,Plains,69.26,113.4,61.23,136.08,310.71,Single-ply,SBD,M,
Boys,74.84,16,Caden Bunker,Friona,70.62,117.93,56.7,122.47,297.1,Single-ply,SBD,M,
Boys,74.84,17,Gabe Abarca,Friona,71.35,97.52,49.9,90.72,238.14,Single-ply,SBD,M,
Boys,74.84,DQ,Samuel Aguirre,Lamesa,71.12,156.49,,,,Single-ply,SBD,M,
Boys,82.1,1,Kingsley Rodriguez,Seagraves,79.74,222.26,133.81,258.55,614.62,Single-ply,SBD,M,
Boys,82.1,2,Blake Hulse,Sundown,81.37,240.4,136.08,238.14,614.62,Single-ply,SBD,M,
Boys,82.1,3,Kevin Garcia,Sundown,79.7,208.65,127.01,217.72,553.38,Single-ply,SBD,M,
Boys,82.1,4,EJ Hernandez,Sundown,82.01,183.7,142.88,222.26,548.85,Single-ply,SBD,M,
Boys,82.1,5,Jesus Rivera,Abernathy,82.01,204.12,133.81,165.56,503.49,Single-ply,SBD,M,
Boys,82.1,6,Omar Rodriguez,Sundown,77.88,170.1,129.27,190.51,489.88,Single-ply,SBD,M,
Boys,82.1,7,Andrew Suarez,Floydada,82.1,183.7,102.06,183.7,469.47,Single-ply,SBD,M,
Boys,82.1,8,Nick Quintana,Post,75.48,149.69,86.18,156.49,392.36,Single-ply,SBD,M,
Boys,82.1,9,Rey Carta,Hale Center,78.47,142.88,81.65,165.56,390.09,Single-ply,SBD,M,
Boys,82.1,10,Jose Gonzales,Brownfield,76.43,158.76,81.65,147.42,387.82,Single-ply,SBD,M,
Boys,82.1,11,Parker Ragain,Brownfield,80.97,145.15,72.57,154.22,371.95,Single-ply,SBD,M,
Boys,82.1,12,Mathew Dimas,Friona,82.1,145.15,74.84,142.88,362.87,Single-ply,SBD,M,
Boys,82.1,13,Cade Reynolds,Plains,78.47,117.93,72.57,147.42,337.93,Single-ply,SBD,M,
Boys,82.1,14,Zakeri Gonzalez,Brownfield,81.28,124.74,61.23,142.88,328.85,Single-ply,SBD,M,
Boys,82.1,15,Stephen De La Rosa,Plains,77.56,117.93,61.23,136.08,315.25,Single-ply,SBD,M,
Boys,82.1,16,Kaden Coats,Whiteface,75.98,90.72,83.91,124.74,299.37,Single-ply,SBD,M,
Boys,82.1,DQ,Isiah Flores,Sundown,75.98,102.06,,,,Single-ply,SBD,M,
Boys,82.1,DQ,Roger Palacios,Friona,76.16,190.51,102.06,,,Single-ply,SBD,M,
Boys,89.81,1,Tyler Hairston,Lubbock Cooper,87.59,219.99,136.08,210.92,566.99,Single-ply,SBD,M,
Boys,89.81,2,Logan Duncan,Lubbock Cooper,87.32,210.92,133.81,208.65,553.38,Single-ply,SBD,M,
Boys,89.81,3,Keanu Villarreal,Lockney,89.27,210.92,147.42,192.78,551.11,Single-ply,SBD,M,
Boys,89.81,4,Misael Castaneda,Whiteface,87.27,190.51,133.81,224.53,548.85,Single-ply,SBD,M,
Boys,89.81,5,Gavin Richardson,Sundown,89.77,201.85,117.93,222.26,542.04,Single-ply,SBD,M,
Boys,89.81,6,Diego Hernandez,Sundown,85.28,206.38,124.74,201.85,532.97,Single-ply,SBD,M,
Boys,89.81,7,Jonathan Golightly,Sundown,85.77,208.65,136.08,188.24,532.97,Single-ply,SBD,M,
Boys,89.81,8,Caleb Pritchard,Lockney,84.64,181.44,99.79,161.03,442.25,Single-ply,SBD,M,
Boys,89.81,9,Luke McCarthy,Lubbock Cooper,85.59,149.69,95.25,170.1,415.04,Single-ply,SBD,M,
Boys,89.81,10,Jonah Gonzales,Plains,84.91,147.42,102.06,163.29,412.77,Single-ply,SBD,M,
Boys,89.81,11,Alex Reyna,Hale Center,82.78,161.03,83.91,163.29,408.23,Single-ply,SBD,M,
Boys,89.81,12,Sergio Burgoin,Plains,85.64,133.81,83.91,163.29,381.02,Single-ply,SBD,M,
Boys,89.81,13,Marcos Vargas,Sundown,88.72,149.69,77.11,136.08,362.87,Single-ply,SBD,M,
Boys,89.81,14,Landry Miller,Abernathy,88.36,127.01,83.91,131.54,342.46,Single-ply,SBD,M,
Boys,89.81,15,Anthony Diaz,Friona,87.32,102.06,58.97,108.86,269.89,Single-ply,SBD,M,
Boys,99.79,1,Cameron Bednarz,Lubbock Cooper,95.07,226.8,136.08,231.33,594.21,Single-ply,SBD,M,
Boys,99.79,2,Jacob Dennis,Lubbock Cooper,93.26,238.14,133.81,219.99,591.94,Single-ply,SBD,M,
Boys,99.79,3,Cole Boren,Post,97.66,215.46,147.42,181.44,544.31,Single-ply,SBD,M,
Boys,99.79,4,Bryson Leaks,Abernathy,96.62,195.04,133.81,190.51,519.36,Single-ply,SBD,M,
Boys,99.79,5,Zakary Gragson,Sundown,94.35,183.7,129.27,192.78,505.76,Single-ply,SBD,M,
Boys,99.79,6,John Cortez,Abernathy,90.72,192.78,90.72,183.7,467.2,Single-ply,SBD,M,
Boys,99.79,7,Danny Garza,Brownfield,97.93,181.44,108.86,165.56,455.86,Single-ply,SBD,M,
Boys,99.79,8,D'Angelo Garza,Brownfield,96.12,195.04,92.99,151.95,439.98,Single-ply,SBD,M,
Boys,99.79,9,Isaiais Puente,Lubbock,96.89,158.76,111.13,142.88,412.77,Single-ply,SBD,M,
Boys,99.79,10,Anthony Abarca,Friona,95.53,158.76,77.11,158.76,394.63,Single-ply,SBD,M,
Boys,99.79,11,Elijah Robledo,Friona,97.34,147.42,79.38,127.01,353.8,Single-ply,SBD,M,
Boys,99.79,12,Eduardo Juarez,Friona,92.08,140.61,72.57,122.47,335.66,Single-ply,SBD,M,
Boys,99.79,13,Mason Lazos,Plains,97.89,131.54,65.77,136.08,333.39,Single-ply,SBD,M,
Boys,99.79,14,Angel Lozano,Plains,95.98,117.93,70.31,142.88,331.12,Single-ply,SBD,M,
Boys,109.77,1,Alan Mendoza,Seagraves,109.09,233.6,145.15,226.8,605.55,Single-ply,SBD,M,
Boys,109.77,2,Andy Casias,Abernathy,105.32,238.14,133.81,210.92,582.87,Single-ply,SBD,M,
Boys,109.77,3,Chris Correa,Brownfield,104.96,226.8,149.69,190.51,566.99,Single-ply,SBD,M,
Boys,109.77,4,Andy Castillo,Sundown,103.1,181.44,111.13,226.8,519.36,Single-ply,SBD,M,
Boys,109.77,5,Jake Padilla,Friona,108.91,204.12,108.86,181.44,494.42,Single-ply,SBD,M,
Boys,109.77,6,Randy Cantu,Abernathy,106.1,165.56,99.79,158.76,424.11,Single-ply,SBD,M,
Boys,109.77,7,Knoah Escobedo,Post,105.51,163.29,97.52,147.42,408.23,Single-ply,SBD,M,
Boys,109.77,8,AJ Trevino,Abernathy,105.73,151.95,104.33,140.61,396.89,Single-ply,SBD,M,
Boys,109.77,DQ,Alejandro Arrando,Brownfield,108.18,111.13,,,,Single-ply,SBD,M,
Boys,124.74,1,Jacob Vasquez,Lubbock Cooper,112.4,247.21,149.69,247.21,644.1,Single-ply,SBD,M,
Boys,124.74,2,Marcos Montelongo,Lubbock,124.15,249.48,136.08,197.31,582.87,Single-ply,SBD,M,
Boys,124.74,3,Chris Jackson #5,Post,116.89,222.26,131.54,217.72,571.53,Single-ply,SBD,M,
Boys,124.74,4,Dekota Golighty,Sundown,111.95,185.97,104.33,136.08,426.38,Single-ply,SBD,M,
Boys,124.74,5,Jeffery Rodriguez,Sundown,111.31,161.03,102.06,161.03,424.11,Single-ply,SBD,M,
Boys,124.74,6,Richard Badillo,Plains,121.7,149.69,72.57,165.56,387.82,Single-ply,SBD,M,
Boys,124.74,7,Westin Pharris,Lubbock,116.48,136.08,58.97,163.29,358.34,Single-ply,SBD,M,
Boys,124.74+,1,Taye Perez,Post,126.37,222.26,131.54,235.87,589.67,Single-ply,SBD,M,
Boys,124.74+,2,Marc Herrerra,Lubbock,131.81,233.6,129.27,219.99,582.87,Single-ply,SBD,M,
Boys,124.74+,3,Ayden Visage,Lubbock Cooper,136.89,226.8,117.93,217.72,562.45,Single-ply,SBD,M,
Boys,124.74+,4,Javen Diaz,Post,136.35,226.8,120.2,208.65,555.65,Single-ply,SBD,M,
Boys,124.74+,5,Nico Rodriguez,Sundown,128.32,204.12,151.95,183.7,539.77,Single-ply,SBD,M,
Boys,124.74+,6,Sean Castillo,Brownfield,183.89,201.85,106.59,183.7,492.15,Single-ply,SBD,M,
Boys,124.74+,7,Edgar Ramirez,Hale Center,138.71,142.88,79.38,142.88,365.14,Single-ply,SBD,M,
