Place,Name,State,WeightClassKg,BodyweightKg,Age,Best3SquatKg,Best3BenchKg,Best3DeadliftKg,TotalKg,Sex,Division,Equipment,Squat4Kg,Deadlift4Kg,Event
1,Elizabeth Quezada,NV,56,55.16,22,92.5,60,132.5,285,F,Juniors 20-23,Raw,,,SBD
1,Arianne Manipon,NV,60,59.51,19,105,52.5,125,282.5,F,Juniors 18-19,Raw,,,SBD
2,Tayler Garvey,NV,60,59.96,19,80,62.5,115,257.5,F,Juniors 18-19,Raw,,,SBD
3,Trina Franco,NV,60,58.69,19,85,40,122.5,247.5,F,Juniors 18-19,Raw,,,SBD
1,Isabella Knapik,NV,67.5,65.05,13,65.5,36,110,211.5,F,Juniors 13-15,Raw,78,,SBD
1,Asia Littlefield,NV,67.5,65.14,16,82.5,40,102.5,225,F,Juniors 16-17,Raw,,,SBD
1,Brianna Capanna,NV,75,74.84,23,97.5,42.5,107.5,247.5,F,Juniors 20-23,Raw,,,SBD
1,Elizabeth Quezada,NV,56,55.16,22,92.5,60,132.5,285,F,Open,Raw,,,SBD
2,Jessica Caldwell,NV,56,54.93,28,80,57.5,110,247.5,F,Open,Raw,,,SBD
1,Arianne Manipon,NV,60,59.51,19,105,52.5,125,282.5,F,Open,Raw,,,SBD
2,Tayler Garvey,NV,60,59.96,19,80,62.5,115,257.5,F,Open,Raw,,,SBD
3,Trina Franco,NV,60,58.69,19,85,40,122.5,247.5,F,Open,Raw,,,SBD
4,Jackie Welter,OR,60,57.52,45,82.5,47.5,107.5,237.5,F,Open,Raw,,,SBD
1,Mindy Polk,NV,67.5,66.41,35,97.5,52.5,130,280,F,Open,Raw,,,SBD
2,Asia Littlefield,NV,67.5,65.14,16,82.5,40,102.5,225,F,Open,Raw,,,SBD
3,Isabella Knapik,NV,67.5,65.05,13,65.5,36,110,211.5,F,Open,Raw,,,SBD
1,Carol Carlock,NV,90,89.72,52,55,45,102.5,202.5,F,Masters 50-54,Raw,,,SBD
1,Angie Torres,OR,90,88.54,46,52.5,37.5,90,180,F,Masters 45-49,Raw,,,SBD
1,Grace Tacuyan-Witt,NV,90+,109.23,37,142.5,75,177.5,395,F,Open,Raw,,,SBD
1,Grace Tacuyan-Witt,NV,90+,109.23,37,142.5,75,177.5,395,F,Submasters 35-39,Raw,,,SBD
1,Mindy Polk,NV,67.5,66.41,35,97.5,52.5,130,280,F,Submasters 35-39,Raw,,,SBD
1,Jackie Welter,OR,60,57.52,45,82.5,47.5,107.5,237.5,F,Masters 45-49,Raw,,,SBD
1,Angie Torres,OR,90,88.54,46,52.5,37.5,90,180,F,Masters 45-49,Raw,,,SBD
1,Carol Carlock,NV,90,89.72,52,55,45,102.5,202.5,F,Masters 50-54,Raw,,,SBD
1,Matthew Torga,NV,60,59.33,19,140,87.5,185,412.5,M,Juniors 18-19,Raw,,,SBD
1,Lourence Cabantog,NV,60,58.79,21,155,92.5,175,422.5,M,Juniors 20-23,Raw,,,SBD
1,Jedry Ednacot,NV,67.5,65.95,17,120,75,182.5,377.5,M,Juniors 16-17,Raw,,,SBD
1,William Wong,CA,67.5,67.13,21,177.5,112.5,227.5,517.5,M,Juniors 20-23,Raw,,,SBD
1,Darik Griman,NV,75,70.67,13,52.5,35,82.5,170,M,Juniors 13-15,Raw,,,SBD
1,Roy Badillo,NV,75,72.85,17,175,122.5,195,492.5,M,Juniors 16-17,Raw,,,SBD
1,Ramon Mendez,NV,75,73.75,19,175,112.5,190,477.5,M,Juniors 18-19,Raw,,,SBD
1,Zach Chow,NV,75,74.21,21,185,102.5,237.5,525,M,Juniors 20-23,Raw,,,SBD
2,Daniel Schacher,NV,75,73.94,20,142.5,107.5,215,465,M,Juniors 20-23,Raw,,,SBD
3,Jerry Brewer,NV,75,74.39,20,75,70,137.5,282.5,M,Juniors 20-23,Raw,,,SBD
DQ,Lionel D'Alvia,NV,75,74.66,21,-150,110,165,,M,Juniors 20-23,Raw,,,SBD
1,Richard Downie,NV,82.5,82.28,19,177.5,97.5,215,490,M,Juniors 18-19,Raw,,,SBD
1,Jimmy Tu,NV,82.5,80.29,21,220,135,215,570,M,Juniors 20-23,Raw,,,SBD
2,William Morris,NV,82.5,80.92,22,182.5,137.5,245,565,M,Juniors 20-23,Raw,,,SBD
3,Adrian Bernardo,NV,82.5,81.10,21,182.5,115,215,512.5,M,Juniors 20-23,Raw,,,SBD
1,Andrew Knapik,NV,90,89.90,17,127.5,102.5,193,423,M,Juniors 16-17,Raw,,197.5,SBD
1,Dominic Paraz,NV,100,99.70,16,207.5,110,240,557.5,M,Juniors 16-17,Raw,,,SBD
2,Brian Hogan,FL,100,98.43,17,170,117.5,232.5,520,M,Juniors 16-17,Raw,,,SBD
1,Kristian Campanella,NV,100,96.07,18,192.5,145,260,597.5,M,Juniors 18-19,Raw,,,SBD
2,Andrew Hudgins,NV,100,99.70,19,175,115,212.5,502.5,M,Juniors 18-19,Raw,,,SBD
1,Rodney Draughan,NV,100,99.79,23,147.5,147.5,242.5,537.5,M,Juniors 20-23,Raw,,,SBD
2,Mark Mazon,NV,100,99.34,22,172.5,115,220,507.5,M,Juniors 20-23,Raw,,,SBD
1,Collin Curtiss,NV,110,105.51,22,227.5,167.5,247.5,642.5,M,Juniors 20-23,Raw,,,SBD
1,Dominique Marcy,NV,125,119.84,18,190,142.5,252.5,585,M,Juniors 18-19,Raw,,,SBD
1,Richard Fairchild,NV,125,115.30,20,227.5,205,240,672.5,M,Juniors 20-23,Raw,,,SBD
DQ,Sinjin Howerton,NV,125,116.12,23,225,-190,285,,M,Juniors 20-23,Raw,,,SBD
1,Lourence Cabantog,NV,60,58.79,21,155,92.5,175,422.5,M,Open,Raw,,,SBD
2,Matthew Torga,NV,60,59.33,19,140,87.5,185,412.5,M,Open,Raw,,,SBD
1,William Wong,CA,67.5,67.13,21,177.5,112.5,227.5,517.5,M,Open,Raw,,,SBD
2,Albert Caval,NV,67.5,66.59,34,172.5,100,237.5,510,M,Open,Raw,,,SBD
3,Jedry Ednacot,NV,67.5,65.95,17,120,75,182.5,377.5,M,Open,Raw,,,SBD
1,Reggie Loyola,NV,75,74.66,34,167.5,132.5,237.5,537.5,M,Open,Raw,,,SBD
2,Zach Chow,NV,75,74.21,21,185,102.5,237.5,525,M,Open,Raw,,,SBD
3,Roy Badillo,NV,75,72.85,17,175,122.5,195,492.5,M,Open,Raw,,,SBD
4,Ramon Mendez,NV,75,73.75,19,175,112.5,190,477.5,M,Open,Raw,,,SBD
5,Daniel Schacher,NV,75,73.94,20,142.5,107.5,215,465,M,Open,Raw,,,SBD
6,Marvin Javier,CA,75,71.67,30,145,90,152.5,387.5,M,Open,Raw,,,SBD
7,Jerry Brewer,NV,75,74.39,20,75,70,137.5,282.5,M,Open,Raw,,,SBD
8,Darik Griman,NV,75,70.67,13,52.5,35,82.5,170,M,Open,Raw,,,SBD
DQ,Lionel D'Alvia,NV,75,74.66,21,-150,110,165,,M,Open,Raw,,,SBD
1,Bruce Randall,NV,82.5,77.75,27,237.5,182.5,262.5,682.5,M,Open,Raw,,,SBD
2,Jimmy Tu,NV,82.5,80.29,21,220,135,215,570,M,Open,Raw,,,SBD
3,Tony Rodriguez #1,NV,82.5,82.37,46,190,120,260,570,M,Open,Raw,,,SBD
4,William Morris,NV,82.5,80.92,22,182.5,137.5,245,565,M,Open,Raw,,,SBD
5,Adrian Bernardo,NV,82.5,81.10,21,182.5,115,215,512.5,M,Open,Raw,,,SBD
6,Richard Downie,NV,82.5,82.28,19,177.5,97.5,215,490,M,Open,Raw,,,SBD
7,Theodore Lowe,NV,82.5,80.01,25,130,90,157.5,377.5,M,Open,Raw,,,SBD
1,Phillip Watford,NV,90,89.27,36,225,152.5,267.5,645,M,Open,Raw,,275,SBD
2,Alexander Cornelius,NV,90,87.18,24,170,105,227.5,502.5,M,Open,Raw,,,SBD
3,Jim Malloy,NV,90,84.46,39,175,112.5,205,492.5,M,Open,Raw,,,SBD
4,Andrew Knapik,NV,90,89.90,17,127.5,102.5,193,423,M,Open,Raw,,,SBD
5,Bobby Donnell,AZ,90,86.82,32,132.5,110,160,402.5,M,Open,Raw,,,SBD
1,Dan Zarrella,NV,100,98.97,33,220,145,260,625,M,Open,Raw,,,SBD
2,Kristian Campanella,NV,100,96.07,18,192.5,145,260,597.5,M,Open,Raw,,,SBD
3,Jared Kunitake,NV,100,99.06,33,192.5,157.5,245,595,M,Open,Raw,,,SBD
4,Tory Rich,NV,100,99.34,28,195,152.5,242.5,590,M,Open,Raw,,,SBD
5,Dominic Paraz,NV,100,99.70,16,207.5,110,240,557.5,M,Open,Raw,,,SBD
6,Jay Mazon,NV,100,92.44,25,180,135,225,540,M,Open,Raw,,,SBD
7,Rodney Draughan,NV,100,99.79,23,147.5,147.5,242.5,537.5,M,Open,Raw,,,SBD
8,Charles Weidner,NV,100,93.53,40,182.5,117.5,230,530,M,Open,Raw,,,SBD
9,Brian Hogan,NV,100,98.43,17,170,117.5,232.5,520,M,Open,Raw,,,SBD
10,Mark Mazon,NV,100,99.34,22,172.5,115,220,507.5,M,Open,Raw,,,SBD
11,Andrew Hudgins,NV,100,99.70,19,175,115,212.5,502.5,M,Open,Raw,,,SBD
1,Elliott Shults,NV,110,101.70,28,282.5,187.5,300,770,M,Open,Raw,,,SBD
2,Kenneth Cameron,NV,110,108.41,38,225,157.5,277.5,660,M,Open,Raw,,,SBD
3,Collin Curtiss,NV,110,105.51,22,227.5,167.5,247.5,642.5,M,Open,Raw,,,SBD
4,Qualamen Scott,NV,110,102.42,26,212.5,155,235,602.5,M,Open,Raw,,,SBD
1,Dylan Berg,NV,125,121.93,24,272.5,187.5,307.5,767.5,M,Open,Raw,,,SBD
2,Chris Colon,NV,125,121.11,25,250,182.5,310,742.5,M,Open,Raw,,,SBD
3,Richard Fairchild,NV,125,115.30,20,227.5,205,240,672.5,M,Open,Raw,,,SBD
4,Dominique Marcy,NV,125,119.84,18,190,142.5,252.5,585,M,Open,Raw,,,SBD
DQ,Sinjin Howerton,NV,125,116.12,23,225,-190,285,,M,Open,Raw,,,SBD
DQ,Carlos Ortiz,NV,125,118.66,29,215,-175,,,M,Open,Raw,,,SBD
1,Mark Glusica,NV,140+,160.39,29,255,207.5,327.5,790,M,Open,Raw,,,SBD
1,Phillip Watford,NV,90,89.27,36,225,152.5,267.5,645,M,Submasters 35-39,Raw,,275,SBD
1,Jim Malloy,NV,90,84.46,39,175,112.5,205,492.5,M,Submasters 35-39,Raw,,,SBD
1,Kenneth Cameron,NV,110,108.41,38,225,157.5,277.5,660,M,Submasters 35-39,Raw,,,SBD
1,Tony Rodriguez #1,NV,82.5,82.37,46,190,120,260,570,M,Masters 45-49,Raw,,,SBD
1,Charles Weidner,NV,100,93.53,40,182.5,117.5,230,530,M,Masters 40-44,Raw,,237.5,SBD
1,Melina Arcos,NV,60,58.42,32,102.5,47.5,127.5,277.5,F,Open,Wraps,,,SBD
1,Malinda Barnes,AZ,75,74.66,36,140,77.5,167.5,385,F,Open,Wraps,,,SBD
2,Stephanie Stephens,NV,75,72.21,35,127.5,77.5,137.5,342.5,F,Open,Wraps,,,SBD
1,Malinda Barnes,AZ,75,74.66,36,140,77.5,167.5,385,F,Submasters 35-39,Wraps,,,SBD
DQ,Zachary Luciano,NV,67.5,64.05,22,-120,,,,M,Juniors 20-23,Wraps,,,SBD
1,Dillon Smith,NV,90,87.54,23,237.5,157.5,240,635,M,Juniors 20-23,Wraps,,,SBD
1,Hunter Rossman,NV,110,100.33,19,227.5,142.5,282.5,652.5,M,Juniors 18-19,Wraps,,,SBD
1,Nick Pastorello,NV,125,115.03,17,232.5,120,242.5,595,M,Juniors 16-17,Wraps,,,SBD
1,Joseph Vespo,NV,100,98.79,29,250,120,265,635,M,Open,Wraps,,,SBD
1,Nick Pastorello,NV,125,115.03,17,232.5,120,242.5,595,M,Open,Wraps,,,SBD
1,Dan Martin,NV,82.5,80.92,74,120,90,170,380,M,Masters 70-74,Wraps,,,SBD
1,Francesca Paraz,NV,56,54.61,21,,70,,70,F,Juniors 20-23,Raw,,,B
1,Isabella Knapik,NV,67.5,65.05,13,,36,,36,F,Juniors 13-15,Raw,,,B
1,Asia Littlefield,NV,67.5,65.14,16,,40,,40,F,Juniors 16-17,Raw,,,B
1,Francesca Paraz,NV,56,54.61,21,,70,,70,F,Open,Raw,,,B
1,Tayler Garvey,NV,60,59.96,19,,62.5,,62.5,F,Open,Raw,,,B
1,Darik Griman,NV,75,70.67,13,,35,,35,M,Juniors 13-15,Raw,,,B
1,Jerry Brewer,NV,75,74.39,20,,70,,70,M,Juniors 20-23,Raw,,,B
1,William Morris,NV,82.5,80.92,22,,137.5,,137.5,M,Juniors 20-23,Raw,,,B
1,Andrew Knapik,NV,90,89.90,17,,102.5,,102.5,M,Juniors 16-17,Raw,,,B
1,Richard Fairchild,NV,125,115.30,20,,205,,205,M,Juniors 20-23,Raw,,,B
1,Richard Fairchild,NV,125,115.30,20,,205,,205,M,Open,Raw,,,B
2,Glenroy Cole,NV,125,123.20,35,,185.5,,185.5,M,Open,Raw,,,B
3,Anthony Polk,NV,125,120.84,36,,162.5,,162.5,M,Open,Raw,,,B
4,Stephen Provost,NV,125,124.01,29,,150,,150,M,Open,Raw,,,B
5,Christopher Fronczek,NV,125,118.39,24,,95,,95,M,Open,Raw,,,B
1,Glenroy Cole,NV,125,123.20,35,,185.5,,185.5,M,Submasters 35-39,Raw,,,B
2,Anthony Polk,NV,125,120.84,36,,162.5,,162.5,M,Submasters 35-39,Raw,,,B
1,Don Mataya,NV,82.5,82.28,50,,80,,80,M,Masters 50-54,Raw,,,B
1,Charles Weidner,NV,100,93.53,40,,117.5,,117.5,M,Masters 40-44,Raw,,,B
1,Stephanie Stephens,NV,75,72.21,35,,102.5,,102.5,F,Open,Single-ply,,,B
1,Tom Masters,NV,140,137.53,38,,227.5,,227.5,M,Open,Single-ply,,,B
1,Isabella Knapik,NV,67.5,65.05,13,,,110,110,F,Juniors 13-15,Raw,,,D
1,Asia Littlefield,NV,67.5,65.14,16,,,102.5,102.5,F,Juniors 16-17,Raw,,,D
1,Darik Griman,NV,75,70.67,13,,,82.5,82.5,M,Juniors 13-15,Raw,,,D
1,Jerry Brewer,NV,75,74.39,20,,,137.5,137.5,M,Juniors 20-23,Raw,,,D
1,William Morris,NV,82.5,80.92,22,,,245,245,M,Juniors 20-23,Raw,,,D
1,Andrew Knapik,NV,90,89.90,17,,,193,193,M,Juniors 16-17,Raw,,197.5,D
1,Caine Daugherty,NV,82.5,79.74,31,,,215,215,M,Open,Raw,,,D
1,Dan Zarrella,NV,100,98.97,33,,,260,260,M,Open,Raw,,,D
2,Charles Weidner,NV,100,93.53,40,,,230,230,M,Open,Raw,,,D
1,Anthony Polk,NV,125,120.84,36,,,262.5,262.5,M,Open,Raw,,,D
2,Stephen Provost,NV,125,124.01,29,,,220,220,M,Open,Raw,,,D
3,Glenroy Cole,NV,125,123.20,35,,,205,205,M,Open,Raw,,,D
4,Christopher Fronczek,NV,125,118.39,24,,,190,190,M,Open,Raw,,,D
1,Anthony Polk,NV,125,120.84,36,,,262.5,262.5,M,Submasters 35-39,Raw,,,D
2,Glenroy Cole,NV,125,123.20,35,,,205,205,M,Submasters 35-39,Raw,,,D
1,Rodney Baker,NV,82.5,81.65,48,,,142.5,142.5,M,Masters 45-49,Raw,,,D
1,Charles Weidner,NV,100,93.53,40,,,230,230,M,Masters 40-44,Raw,,237.5,D
1,Lance Iman,NV,90,88.45,31,,,302.5,302.5,M,Open,Single-ply,,310,D
