Division,WeightClassKg,Place,Name,Team,BodyweightKg,Best3SquatKg,Best3BenchKg,Best3DeadliftKg,TotalKg,Equipment,Event,Sex
Boys,51.71,1,Noah Vasquez,Palmer,51.53,138.35,90.72,145.15,374.21,Single-ply,SBD,M
Boys,51.71,2,Makai Reyes,Mabank,51.35,113.4,68.04,104.33,285.76,Single-ply,SBD,M
Boys,51.71,3,Gavin Niedich,Fairfield,49.44,102.06,58.97,102.06,263.08,Single-ply,SBD,M
Boys,51.71,4,Jason Botkin,Corsicana,48.08,79.38,49.9,111.13,240.4,Single-ply,SBD,M
Boys,51.71,5,Aaron Matche,Fairfield,48.72,106.59,54.43,74.84,235.87,Single-ply,SBD,M
Boys,55.79,1,Matthew Hagood,Mabank,53.71,136.08,68.04,138.35,342.46,Single-ply,SBD,M
Boys,55.79,2,Juan Chavez,Palmer,55.25,113.4,79.38,124.74,317.51,Single-ply,SBD,M
Boys,55.79,3,Victor Quashie,Kerens,52.25,104.33,70.31,136.08,310.71,Single-ply,SBD,M
Boys,55.79,4,Sergio Izquierdo,Fairfield,54.61,124.74,61.23,124.74,310.71,Single-ply,SBD,M
Boys,55.79,5,Jose Esquivel,Corsicana,54.79,106.59,61.23,120.2,288.03,Single-ply,SBD,M
Boys,59.87,1,Sean Busby,Teague,59.78,190.51,88.45,181.44,460.4,Single-ply,SBD,M
Boys,59.87,2,Chase Kirby,Dawson,59.33,174.63,95.25,174.63,444.52,Single-ply,SBD,M
Boys,59.87,3,Tristan Castillo,Eustace,58.69,170.1,97.52,161.03,428.64,Single-ply,SBD,M
Boys,59.87,4,Seth Shipp,Rice,58.79,172.37,97.52,151.95,421.84,Single-ply,SBD,M
Boys,59.87,5,Tyson Ramirez,Palmer,59.15,147.42,77.11,170.1,394.63,Single-ply,SBD,M
Boys,59.87,6,Reece Walker,Dawson,59.6,145.15,90.72,149.69,385.55,Single-ply,SBD,M
Boys,59.87,7,Corbin Donoho,Corsicana Mildred,58.51,140.61,86.18,154.22,381.02,Single-ply,SBD,M
Boys,59.87,8,Deandre Brown,Corsicana,58.69,136.08,81.65,140.61,358.34,Single-ply,SBD,M
Boys,59.87,9,Adam Elkins,Dawson,57.52,142.88,58.97,145.15,347,Single-ply,SBD,M
Boys,59.87,10,Jaydon Clemons,Italy,,122.47,95.25,124.74,342.46,Single-ply,SBD,M
Boys,67.13,1,Juan Hernandez #4,Palmer,60.51,183.7,102.06,188.24,474,Single-ply,SBD,M
Boys,67.13,2,Ulices Guerrero,Buffalo,66.95,174.63,102.06,179.17,455.86,Single-ply,SBD,M
Boys,67.13,3,Juan Perez,Rice,64.41,174.63,113.4,163.29,451.32,Single-ply,SBD,M
Boys,67.13,4,Darius Jones,Dallas Life Oak Cliff,63.41,165.56,88.45,190.51,444.52,Single-ply,SBD,M
Boys,67.13,5,Timarco Cordon,Fairfield,63.78,158.76,92.99,172.37,424.11,Single-ply,SBD,M
Boys,67.13,6,Jose Silva,Palmer,65.77,145.15,88.45,165.56,399.16,Single-ply,SBD,M
Boys,67.13,7,Micah Thompson,Teague,63.96,163.29,81.65,151.95,396.89,Single-ply,SBD,M
Boys,67.13,8,Alexander Rodriquez,Fairfield,62.14,170.1,79.38,142.88,392.36,Single-ply,SBD,M
Boys,67.13,9,Manuel Villages,Blooming Grove,66.22,145.15,102.06,142.88,390.09,Single-ply,SBD,M
Boys,67.13,10,Robert Kammerer,Dawson,66.77,124.74,79.38,154.22,358.34,Single-ply,SBD,M
Boys,67.13,11,Jason Oliver,Hubbard,66.13,124.74,83.91,133.81,342.46,Single-ply,SBD,M
Boys,67.13,12,Trey Atkeisson,Corsicana Mildred,63.78,127.01,72.57,124.74,324.32,Single-ply,SBD,M
Boys,67.13,DQ,Demarcus McQuarter,Hubbard,66.13,,,,,Single-ply,SBD,M
Boys,67.13,DQ,Chris Soria,Buffalo,60.78,,,,,Single-ply,SBD,M
Boys,74.84,1,Jarred Leal,Palmer,72.21,195.04,136.08,197.31,528.44,Single-ply,SBD,M
Boys,74.84,2,Chason Parks,Mabank,70.67,181.44,115.67,176.9,474,Single-ply,SBD,M
Boys,74.84,3,Will Ferlet,Dawson,67.4,176.9,108.86,181.44,467.2,Single-ply,SBD,M
Boys,74.84,4,Jose Rodriguez,Fairfield,68.31,181.44,88.45,192.78,462.66,Single-ply,SBD,M
Boys,74.84,5,Fallon Little,Corsicana Mildred,73.21,158.76,104.33,195.04,458.13,Single-ply,SBD,M
Boys,74.84,6,Jermey Humphries,Corsicana Mildred,70.4,158.76,117.93,176.9,453.59,Single-ply,SBD,M
Boys,74.84,7,David Thomas,Fairfield,74.57,174.63,95.25,158.76,428.64,Single-ply,SBD,M
Boys,74.84,8,Michael McCarter,Blooming Grove,71.8,151.95,83.91,183.7,419.57,Single-ply,SBD,M
Boys,74.84,9,John Vaughn,Buffalo,71.85,156.49,95.25,161.03,412.77,Single-ply,SBD,M
Boys,74.84,10,Marcus Terry,Dallas Life Oak Cliff,72.3,122.47,83.91,151.95,358.34,Single-ply,SBD,M
Boys,74.84,11,Trevor Farris,Teague,71.85,140.61,72.57,120.2,333.39,Single-ply,SBD,M
Boys,74.84,12,Kolby Phelps,Kerens,74.3,136.08,68.04,129.27,333.39,Single-ply,SBD,M
Boys,74.84,DQ,Jisaiah Joseph,Dallas Life Oak Cliff,74.03,,,,,Single-ply,SBD,M
Boys,82.1,1,Hector Dominguez,Buffalo,81.83,260.82,131.54,222.26,614.62,Single-ply,SBD,M
Boys,82.1,2,Kolby Pederson,Hubbard,75.66,208.65,120.2,195.04,523.9,Single-ply,SBD,M
Boys,82.1,3,Dylan Martin,Wortham,81.65,199.58,102.06,204.12,505.76,Single-ply,SBD,M
Boys,82.1,4,Azaya Patrick,Teague,74.93,183.7,102.06,199.58,485.34,Single-ply,SBD,M
Boys,82.1,5,Rustin Goff,Blooming Grove,78.02,170.1,106.59,201.85,478.54,Single-ply,SBD,M
Boys,82.1,6,Jacob Profit,Mabank,81.19,183.7,90.72,192.78,467.2,Single-ply,SBD,M
Boys,82.1,7,Garridan Henderson,Fairfield,75.57,181.44,90.72,181.44,453.59,Single-ply,SBD,M
Boys,82.1,8,Jason Williams,Dallas Life Oak Cliff,77.93,142.88,68.04,142.88,353.8,Single-ply,SBD,M
Boys,82.1,DQ,Christopher Acevedo,Dallas Life Oak Cliff,75.48,124.74,86.18,,,Single-ply,SBD,M
Boys,,NS,Alex Dupree,Eustace,,,,,,Single-ply,SBD,M
Boys,89.81,1,Victor Quevedo,Eustace,86.91,229.06,138.35,229.06,596.47,Single-ply,SBD,M
Boys,89.81,2,Brian Black,Palmer,89.63,219.99,151.95,210.92,582.87,Single-ply,SBD,M
Boys,89.81,3,Nathan Vick,Teague,82.19,210.92,154.22,208.65,573.79,Single-ply,SBD,M
Boys,89.81,4,Kegan Richardson,Mabank,86.36,183.7,108.86,199.58,492.15,Single-ply,SBD,M
Boys,89.81,5,Isiah Bell,Teague,89.36,199.58,104.33,188.24,492.15,Single-ply,SBD,M
Boys,89.81,6,Garrett Landers,Mabank,86.09,158.76,102.06,174.63,435.45,Single-ply,SBD,M
Boys,89.81,7,Richard Banks,Rice,86.27,142.88,83.91,170.1,396.89,Single-ply,SBD,M
Boys,89.81,8,Anakin Sullivan,Hubbard,84.82,138.35,90.72,133.81,362.87,Single-ply,SBD,M
Boys,99.79,1,Caleb Johnson,Corsicana,99.16,226.8,131.54,256.28,614.62,Single-ply,SBD,M
Boys,99.79,2,Melvin Martin,Corsicana,98.97,210.92,120.2,229.06,560.19,Single-ply,SBD,M
Boys,99.79,3,Justin Horn #1,Corsicana Mildred,96.07,215.46,127.01,204.12,546.58,Single-ply,SBD,M
Boys,99.79,4,Rudy Segura,Palmer,97.25,210.92,113.4,192.78,517.1,Single-ply,SBD,M
Boys,99.79,5,Tristian Williams,Corsicana,92.53,181.44,124.74,206.38,512.56,Single-ply,SBD,M
Boys,99.79,6,Saul Diaz,Rice,98.25,192.78,117.93,188.24,498.95,Single-ply,SBD,M
Boys,99.79,7,EJ Salazar,Wortham,99.25,213.19,106.59,179.17,498.95,Single-ply,SBD,M
Boys,99.79,8,Noel Rojo,Mabank,97.25,192.78,113.4,183.7,489.88,Single-ply,SBD,M
Boys,99.79,9,River Drohn,Eustace,91.53,170.1,124.74,174.63,469.47,Single-ply,SBD,M
Boys,99.79,10,Zane Guerrera,Dawson,90.81,167.83,95.25,167.83,430.91,Single-ply,SBD,M
Boys,99.79,11,Fransico Gomez,Eustace,92.17,151.95,102.06,174.63,428.64,Single-ply,SBD,M
Boys,99.79,12,Jonathon Montano,Buffalo,93.08,147.42,90.72,151.95,390.09,Single-ply,SBD,M
Boys,99.79,13,Timothy Simpson,Buffalo,91.9,129.27,92.99,161.03,383.29,Single-ply,SBD,M
Boys,99.79,14,Zion Barnes,Hubbard,90.63,115.67,86.18,133.81,335.66,Single-ply,SBD,M
Boys,109.77,1,Marcus Williams,Teague,107.59,272.16,161.03,247.21,680.39,Single-ply,SBD,M
Boys,109.77,2,LaDarius Price,Fairfield,105.96,226.8,136.08,226.8,589.67,Single-ply,SBD,M
Boys,109.77,3,Kolton Stephens,Mabank,105.96,233.6,117.93,217.72,569.26,Single-ply,SBD,M
Boys,109.77,4,Seth White,Corsicana,103.06,240.4,113.4,204.12,557.92,Single-ply,SBD,M
Boys,109.77,5,Logan Salisbury,Wortham,107.68,204.12,140.61,213.19,557.92,Single-ply,SBD,M
Boys,109.77,6,Shemar Richardson,Dawson,103.06,192.78,120.2,158.76,471.74,Single-ply,SBD,M
Boys,109.77,7,Clint Ewing,Corsicana Mildred,109.68,181.44,92.99,145.15,419.57,Single-ply,SBD,M
Boys,109.77,8,Ray Reimim,Corsicana Mildred,106.14,163.29,77.11,140.61,381.02,Single-ply,SBD,M
Boys,124.74,1,Jesus Garcia #7,Buffalo,123.83,254.01,165.56,240.4,659.98,Single-ply,SBD,M
Boys,124.74,2,Jaylin Jackson,Fairfield,114.85,254.01,183.7,192.78,630.49,Single-ply,SBD,M
Boys,124.74,3,Benito Rivas,Buffalo,121.56,238.14,161.03,219.99,619.15,Single-ply,SBD,M
Boys,124.74,4,DeAunte Thomas,Corsicana,115.3,254.01,140.61,213.19,607.81,Single-ply,SBD,M
Boys,124.74,5,Gage Graham,Mabank,112.49,210.92,140.61,179.17,530.7,Single-ply,SBD,M
Boys,124.74,6,Rylan Wade,Dawson,113.49,195.04,117.93,176.9,489.88,Single-ply,SBD,M
Boys,124.74,7,Caleb Hernandez,Palmer,120.38,170.1,122.47,170.1,462.66,Single-ply,SBD,M
Boys,124.74,8,Govani Martinez,Dallas Life Oak Cliff,116.3,154.22,68.04,183.7,405.97,Single-ply,SBD,M
Boys,124.74+,1,Larry Davis,Corsicana,160.66,283.5,183.7,222.26,689.46,Single-ply,SBD,M
Boys,124.74+,2,Deontae Martin,Corsicana,137.17,263.08,154.22,222.26,639.57,Single-ply,SBD,M
Boys,124.74+,3,Marcus Staggs,Eustace,127.82,229.06,142.88,219.99,591.94,Single-ply,SBD,M
Boys,124.74+,DQ,LaMonte Hawley,Dallas Life Oak Cliff,126.92,,,,,Single-ply,SBD,M
Boys,124.74+,DQ,Treveon Mitchell,Kerens,131.9,226.8,,,,Single-ply,SBD,M
