Place,Sex,WeightClassKg,Division,Name,Age,BodyweightKg,Best3SquatKg,Best3BenchKg,Best3DeadliftKg,TotalKg,Equipment,Event
1,F,44,F-T1,Isabel Campos,15,43.9,70,32.5,77.5,180,Single-ply,SBD
1,F,48,F-T1,Katy Edmonds,15,45.9,60,42.5,92.5,195,Single-ply,SBD
1,F,48,F-T2,Barbara Vallejo,17,47,87.5,47.5,110,245,Single-ply,SBD
2,F,48,F-T2,Veronica Robledo,16,46.5,82.5,45,95,222.5,Single-ply,SBD
1,F,52,F-T2,Janelle Romeo,17,52,80,52.5,110,242.5,Single-ply,SBD
2,F,52,F-T2,Jenifer Kirk,17,51.3,80,45,105,230,Single-ply,SBD
1,F,52,F-Jr,Cinzia Davenport,22,49.7,70,32.5,92.5,195,Single-ply,SBD
1,F,56,F-T1,Brittany Kestler,15,53.1,92.5,42.5,102.5,237.5,Single-ply,SBD
1,F,60,F-C,Shay Stone,21,57.3,127.5,72.5,122.5,322.5,Single-ply,SBD
2,F,60,F-C,Amy Hatcher,19,58.7,100,32.5,122.5,255,Single-ply,SBD
1,F,60,F-T1,Brittney Cepak,14,56.01,110,45,120,275,Single-ply,SBD
1,F,60,F-T2,Amanda Baum,16,57.5,107.5,50,97.5,255,Single-ply,SBD
2,F,60,F-T2,Mindy Smith,16,60,92.5,45,115,252.5,Single-ply,SBD
DQ,F,67.5,F-C,Desiree Guerra,19,63.1,85,,,,Single-ply,SBD
1,F,67.5,F-C,Brittney McDade,20,63.7,117.5,60,127.5,305,Single-ply,SBD
1,F,67.5,F-T2,Heather Whited,17,65.2,130,87.5,140,357.5,Single-ply,SBD
2,F,67.5,F-T2,Kristina Ramos,16,62.8,42.5,42.5,102.5,187.5,Single-ply,SBD
1,F,75,F-M1b,Debbie DeSandre,45,74,120,52.5,152.5,325,Single-ply,SBD
1,F,75,F-O,Sarah Brilliant,35,68.7,55,42.5,72.5,170,Single-ply,SBD
1,F,75,F-T1,Gracie Martinez,15,67.7,117.5,50,117.5,285,Single-ply,SBD
2,F,75,F-T1,Valerie Espinosa,15,72.3,115,50,110,275,Single-ply,SBD
3,F,75,F-T1,Kaleigh Burnett,15,72.8,105,42.5,127.5,275,Single-ply,SBD
4,F,75,F-T1,Clarissa Ortiz,15,70.7,107.5,45,102.5,255,Single-ply,SBD
1,F,75,F-T2,Erin Michelle Fucik,17,70.5,140,55,150,345,Single-ply,SBD
2,F,75,F-T2,Maria Govea,17,69.2,115,52.5,120,287.5,Single-ply,SBD
3,F,75,F-T2,Silvia Villegas,16,74.9,107.5,45,132.5,285,Single-ply,SBD
4,F,75,F-T2,Alejandra Villegas,17,68.8,97.5,55,95,247.5,Single-ply,SBD
1,F,82.5,F-O,Karen Youngblood,25,77.8,105,50,110,265,Single-ply,SBD
DQ,F,82.5,F-T1,Brittany Murrieta,15,79.3,80,,,,Single-ply,SBD
1,F,90,F-C,Leigh Arnold,18,89.5,125,47.5,125,297.5,Single-ply,SBD
1,F,90,F-O,Wendolynn Allen,30,87.1,160,105,195,460,Single-ply,SBD
1,F,90+,F-O,Jade Dickens,30,100.5,147.5,102.5,147.5,397.5,Single-ply,SBD
1,F,90+,F-T1,Jennifer Reyes,15,129.2,125,60,105,290,Single-ply,SBD
2,F,90+,F-T1,Letecia Jo Zarate,14,110.6,120,55,110,285,Single-ply,SBD
1,F,90+,F-T2,Amanda Lee Garcia,16,100,90,62.5,90,242.5,Single-ply,SBD
1,M,52,M-Y,Matthew Gremillion,11,35,45,27.5,55,127.5,Single-ply,SBD
DQ,M,52,M-Jr,Eric Resendez,20,52,,82.5,,,Single-ply,SBD
1,M,56,M-T3,Dustin Dodds,18,54.2,125,65,142.5,332.5,Single-ply,SBD
1,M,56,M-C,Jeremy Scruggs,20,54.5,175,115,220,510,Single-ply,SBD
1,M,60,M-C,Justin Hagendorf,21,59,160,105,155,420,Single-ply,SBD
2,M,60,M-C,Martin Contreras,22,59.6,160,85,150,395,Single-ply,SBD
1,M,67.5,M-C,Bryan Hynson,18,66.5,210,132.5,227.5,570,Single-ply,SBD
2,M,67.5,M-C,Blake Casteter,20,66.7,150,102.5,155,407.5,Single-ply,SBD
1,M,67.5,M-O,Rex White,44,67,172.5,112.5,192.5,477.5,Single-ply,SBD
1,M,67.5,M-M1a,Rex White,44,67,172.5,112.5,192.5,477.5,Single-ply,SBD
1,M,67.5,M-T1,Jay Smith #4,14,65.2,122.5,70,137.5,330,Single-ply,SBD
1,M,67.5,M-T2,Aldo Davila,16,60.4,157.5,100,160,417.5,Single-ply,SBD
2,M,67.5,M-T2,Joel Jarratt,16,63.9,157.5,77.5,165,400,Single-ply,SBD
1,M,75,M-O,Huaiyu Tan,27,74.4,225.5,152.5,227.5,605.5,Single-ply,SBD
1,M,75,M-T3,Trent McPherson,19,73.6,190,125,207.5,522.5,Single-ply,SBD
2,M,75,M-T3,Grant Webernick,18,72.1,170,100,165,435,Single-ply,SBD
3,M,75,M-T3,Timothy Munford,19,71.8,122.5,85,125,332.5,Single-ply,SBD
1,M,82.5,M-C,John Smiley,19,81.2,217.5,157.5,200,575,Single-ply,SBD
2,M,82.5,M-C,Bobby Warren,21,78.5,200,142.5,185,527.5,Single-ply,SBD
3,M,82.5,M-C,Kyle Schielack,19,82.3,190,127.5,205,522.5,Single-ply,SBD
1,M,82.5,M-M2b,Roberto Contreras,57,80.5,185,147.5,240,572.5,Single-ply,SBD
1,M,82.5,M-O,Cedric Green,32,82.4,230,165,242.5,637.5,Single-ply,SBD
1,M,82.5,M-T2,Korey Bryan,16,75.5,180,100,192.5,472.5,Single-ply,SBD
1,M,82.5,M-T3,Chris Coker,18,82.2,182.5,82.5,185,450,Single-ply,SBD
1,M,90,M-C,Jim Le,21,88.3,242.5,135,237.5,615,Single-ply,SBD
2,M,90,M-C,Jordan Johnson #10,21,84.3,227.5,152.5,207.5,587.5,Single-ply,SBD
1,M,90,M-O,Hal Scholnick,28,88.7,260,192.5,262.5,715,Single-ply,SBD
2,M,90,M-O,Darren Dent,32,89.7,200,122.5,220,542.5,Single-ply,SBD
3,M,90,M-O,Patrick Schwarz,31,87.5,157.5,140,200,497.5,Single-ply,SBD
1,M,100,M-O,Charles Turco,48,99.3,,215,,215,Single-ply,B
2,M,100,M-O,Tim Tomjack,46,98.4,,182.5,,182.5,Single-ply,B
1,M,100,M-C,Lance Ferguson,28,98,260,170,252.5,682.5,Single-ply,SBD
2,M,100,M-C,Nathan Greggory,22,97.4,215,150,282.5,647.5,Single-ply,SBD
3,M,100,M-C,Phillip Redix,20,98.2,240,147.5,237.5,625,Single-ply,SBD
4,M,100,M-C,Omari Dixon,21,99,230,152.5,215,597.5,Single-ply,SBD
DQ,M,100,M-C,Andy Coggan,24,93.1,230,,,,Single-ply,SBD
1,M,100,M-M2b,Joe Lucio,57,92.6,180,115,160,455,Single-ply,SBD
1,M,100,M-O,Stephen Mefford,25,97.4,270,172.5,260,702.5,Single-ply,SBD
DQ,M,100,M-O,Kenneth McFarland,45,96.4,182.5,,,,Single-ply,SBD
1,M,100,M-T1,Richard Duvall,14,97,155,107.5,155,417.5,Single-ply,SBD
1,M,100,M-T2,Braden Bringhurst,17,98.9,210,142.5,220,572.5,Single-ply,SBD
2,M,100,M-T2,Homer Joiner,17,100,215,137.5,205,557.5,Single-ply,SBD
1,M,100,M-T3,Cody Wallace,18,97.1,215,150,255,620,Single-ply,SBD
2,M,100,M-T3,Brandon Strubberg,18,98.5,170,120,187.5,477.5,Single-ply,SBD
1,M,110,M-C,Weston Amaya,20,103,255,157.5,250,662.5,Single-ply,SBD
2,M,110,M-C,Mattew Oberg,22,104.9,220,157.5,230,607.5,Single-ply,SBD
DQ,M,110,M-C,Kendrick Crumidy,19,103.9,212.5,,,,Single-ply,SBD
1,M,110,M-M1b,Gary Pamplin,47,109,300,240,227.5,767.5,Single-ply,SBD
1,M,110,M-M1b,Gary Pamplin,47,109,,240,,240,Single-ply,B
1,M,110,M-O,Dan Broseman,39,106.8,287.5,175,272.5,735,Single-ply,SBD
1,M,110,M-T3,Tanner Wilhelm,19,102.4,227.5,120,227.5,575,Single-ply,SBD
1,M,125,M-O,Wade Wakefield,31,124.8,,217.5,,217.5,Single-ply,B
2,M,125,M-O,Cody Colchado,41,112.9,,160,,160,Single-ply,B
1,M,125,M-C,Micheal Berard,24,112.9,277.5,190,272.5,740,Single-ply,SBD
2,M,125,M-C,Micheal Drab,24,123,227.5,137.5,195,560,Single-ply,SBD
1,M,125,M-Jr,Chris Dahlen,21,115.5,325,210,345,880,Single-ply,SBD
1,M,125,M-O,Neil Lehmann,28,124.9,322.5,200,272.5,795,Single-ply,SBD
2,M,125,M-O,Joe Gremillion,39,111.3,197.5,130,227.5,555,Single-ply,SBD
1,M,125,M-T1,Blair McCall,15,121.4,102.5,112.5,132.5,347.5,Single-ply,SBD
1,M,125+,M-M1a,Alan Borden,41,147.1,250,150,237.5,637.5,Single-ply,SBD
3,M,125+,M-O,Alan Borden,41,147.1,250,150,237.5,637.5,Single-ply,SBD
1,M,125+,M-O,Shawn Baker,37,126.2,240,157.5,312.5,710,Single-ply,SBD
2,M,125+,M-O,Edward Jones,34,134.2,235,195,280,710,Single-ply,SBD
DQ,M,125+,M-O,William Ferguson,28,136.5,,,,,Single-ply,SBD
