Division,WeightClassKg,Place,Name,Team,BodyweightKg,Best3SquatKg,Best3BenchKg,Best3DeadliftKg,TotalKg,Equipment,Event,Sex,BirthDate
Boys,51.71,1,Angelo Legaspe,San Antonio Cole,51.62,129.27,61.23,138.35,328.85,Single-ply,SBD,M,
Boys,51.71,2,Christopher Reyes,San Antonio Brooks Academy,51.26,97.52,63.5,131.54,292.57,Single-ply,SBD,M,
Boys,51.71,3,Christopher Cancino,San Antonio Cole,48.44,83.91,58.97,106.59,249.48,Single-ply,SBD,M,
Boys,51.71,DQ,James Townsend #2,Pflugerville,50.62,,,,,Single-ply,SBD,M,
Boys,55.79,1,Carlos García,San Antonio Southwest Legacy,55.25,156.49,74.84,161.03,392.36,Single-ply,SBD,M,
Boys,55.79,2,Javier Aleman,Karnes City,54.88,142.88,81.65,142.88,367.41,Single-ply,SBD,M,
Boys,55.79,3,Devon Mora,San Antonio East Central,54.25,136.08,58.97,129.27,324.32,Single-ply,SBD,M,
Boys,55.79,4,Nick Martinez,Stockdale,53.71,117.93,61.23,120.2,299.37,Single-ply,SBD,M,
Boys,59.87,1,Diego Morales,Castroville Medina Valley,59.87,217.72,117.93,201.85,537.51,Single-ply,SBD,M,
Boys,59.87,2,Yahil Sostre,San Antonio Cole,59.42,138.35,72.57,156.49,367.41,Single-ply,SBD,M,
Boys,59.87,3,Dante Hudson,Pflugerville,59.42,133.81,68.04,133.81,335.66,Single-ply,SBD,M,
Boys,59.87,4,Jonathan Larralde,San Antonio Brooks Academy,56.38,113.4,63.5,122.47,299.37,Single-ply,SBD,M,
Boys,59.87,5,Jose Hernandez #21,Pflugerville,58.15,68.04,61.23,142.88,272.16,Single-ply,SBD,M,
Boys,67.13,1,Fabian Bazan,Castroville Medina Valley,65.32,238.14,136.08,249.48,623.69,Single-ply,SBD,M,
Boys,67.13,2,Ernesto Rangel,San Antonio Southwest Legacy,65.5,215.46,136.08,244.94,596.47,Single-ply,SBD,M,
Boys,67.13,3,Quen Syma,Lytle,63.5,174.63,104.33,183.7,462.66,Single-ply,SBD,M,
Boys,67.13,4,Dominic Reyes,Lytle,67.13,167.83,102.06,183.7,453.59,Single-ply,SBD,M,
Boys,67.13,5,Deiondre Holmes,Universal City Randolph,66.04,183.7,99.79,161.03,444.52,Single-ply,SBD,M,
Boys,67.13,6,Maximus Hill,Universal City Randolph,64.86,170.1,104.33,158.76,433.18,Single-ply,SBD,M,
Boys,67.13,7,Rafael Pacheco,Lytle,60.78,149.69,92.99,158.76,401.43,Single-ply,SBD,M,
Boys,67.13,8,Joshua Legaspe,San Antonio Cole,66.22,151.95,74.84,165.56,392.36,Single-ply,SBD,M,
Boys,67.13,9,Jason Ramirez,Castroville Medina Valley,67.13,142.88,90.72,149.69,383.29,Single-ply,SBD,M,
Boys,67.13,10,Case Martinez,Marion,65.14,142.88,83.91,154.22,381.02,Single-ply,SBD,M,
Boys,67.13,11,Tommy Bannon,San Antonio Cole,61.78,133.81,77.11,158.76,369.68,Single-ply,SBD,M,
Boys,67.13,12,Kannon McWhinney,Marion,65.77,102.06,65.77,104.33,272.16,Single-ply,SBD,M,
Boys,67.13,DQ,Gilbert Salas,Karnes City,66.95,,,,,Single-ply,SBD,M,
Boys,74.84,1,Cecilio Olivarri,Lytle,73.84,179.17,102.06,183.7,464.93,Single-ply,SBD,M,
Boys,74.84,2,Michael Kroll,Karnes City,71.21,145.15,113.4,185.97,444.52,Single-ply,SBD,M,
Boys,74.84,3,Ayden Walpole,Poth,73.84,154.22,106.59,158.76,419.57,Single-ply,SBD,M,
Boys,74.84,4,Jason Vega,Lytle,73.03,142.88,113.4,161.03,417.3,Single-ply,SBD,M,
Boys,74.84,5,Alan Aceves,San Antonio East Central,69.31,138.35,92.99,183.7,415.04,Single-ply,SBD,M,
Boys,74.84,6,Jeremiah Wilson,San Antonio East Central,73.66,138.35,79.38,181.44,399.16,Single-ply,SBD,M,
Boys,74.84,7,Joey Medina,San Antonio Cole,74.84,147.42,95.25,149.69,392.36,Single-ply,SBD,M,
Boys,74.84,8,Anthony Kiddy,Pflugerville,72.21,147.42,92.99,147.42,387.82,Single-ply,SBD,M,
Boys,74.84,9,Marshall Homeyer,Karnes City,72.12,124.74,95.25,151.95,371.95,Single-ply,SBD,M,
Boys,74.84,10,Jordan Jaramillo,Karnes City,72.12,122.47,81.65,142.88,347,Single-ply,SBD,M,
Boys,74.84,DQ,Romanus Ike,Pflugerville,72.39,,,,,Single-ply,SBD,M,
Boys,74.84,DQ,Nathan Rios,San Antonio Cole,71.85,129.27,,,,Single-ply,SBD,M,
Boys,74.84,DQ,Gavin Statsny,Stockdale,69.08,,,,,Single-ply,SBD,M,
Boys,74.84,DQ,Trevon Moore,Universal City Randolph,71.76,,,,,Single-ply,SBD,M,
Boys,82.1,1,Kyle Jones,Poth,81.83,249.48,127.01,244.94,621.42,Single-ply,SBD,M,
Boys,82.1,2,Jacob Trujillo,Universal City Randolph,81.83,244.94,142.88,231.33,619.15,Single-ply,SBD,M,
Boys,82.1,3,Marco Burkman-Flaig,San Antonio Cole,80.38,206.38,111.13,197.31,514.83,Single-ply,SBD,M,
Boys,82.1,4,Ashad Knight,San Antonio East Central,75.57,172.37,99.79,195.04,467.2,Single-ply,SBD,M,
Boys,82.1,5,Amon Jones,San Antonio Cole,79.56,165.56,97.52,188.24,451.32,Single-ply,SBD,M,
Boys,82.1,6,Carson Morris,Universal City Randolph,81.19,158.76,102.06,181.44,442.25,Single-ply,SBD,M,
Boys,82.1,7,Lj Kroll,Karnes City,76.84,140.61,83.91,185.97,410.5,Single-ply,SBD,M,
Boys,82.1,8,Padwa Nunez,Universal City Randolph,75.84,158.76,102.06,140.61,401.43,Single-ply,SBD,M,
Boys,82.1,9,Josh DelTorro,Lytle,76.93,142.88,92.99,142.88,378.75,Single-ply,SBD,M,
Boys,82.1,10,R Tavius Gonzales,San Antonio Southwest Legacy,78.65,145.15,97.52,136.08,378.75,Single-ply,SBD,M,
Boys,82.1,11,Noah Baca,San Antonio East Central,80.47,124.74,74.84,136.08,335.66,Single-ply,SBD,M,
Boys,82.1,12,Chris Tondre,Lytle,77.02,102.06,74.84,147.42,324.32,Single-ply,SBD,M,
Boys,82.1,13,Joshua Sanchez,San Antonio Brooks Academy,80.92,83.91,70.31,133.81,288.03,Single-ply,SBD,M,
Boys,82.1,DQ,Tyler Felux,San Antonio Brooks Academy,79.2,197.31,,,,Single-ply,SBD,M,
Boys,82.1,DQ,Donald Bigelow,Marion,80.29,129.27,,,,Single-ply,SBD,M,
Boys,89.81,1,Blake Marler,Pflugerville,86.18,195.04,108.86,204.12,508.02,Single-ply,SBD,M,
Boys,89.81,2,Aiden Parkes,Universal City Randolph,89.45,147.42,90.72,181.44,419.57,Single-ply,SBD,M,
Boys,89.81,3,Qrobbie Thompson,San Antonio East Central,88.45,154.22,88.45,167.83,410.5,Single-ply,SBD,M,
Boys,89.81,DQ,Cris Guzman,Pflugerville,87.45,219.99,127.01,,,Single-ply,SBD,M,
Boys,99.79,1,Michael Cespedes,Universal City Randolph,98.79,226.8,111.13,197.31,535.24,Single-ply,SBD,M,
Boys,99.79,2,Diego Rubio,Stockdale,92.26,158.76,117.93,226.8,503.49,Single-ply,SBD,M,
Boys,99.79,3,Steven Nava,Karnes City,98.07,183.7,124.74,190.51,498.95,Single-ply,SBD,M,
Boys,99.79,4,Corey Hunter,San Antonio Cole,98.07,172.37,95.25,179.17,446.79,Single-ply,SBD,M,
Boys,99.79,DQ,Chris Mott #2,Marion,95.44,,,,,Single-ply,SBD,M,
Boys,99.79,DQ,Garrett Garcia,Universal City Randolph,92.71,183.7,,,,Single-ply,SBD,M,
Boys,109.77,1,Logan Herbert,Stockdale,109.77,226.8,161.03,206.38,594.21,Single-ply,SBD,M,
Boys,109.77,2,Brandon Glaspie,Universal City Randolph,103.6,222.26,129.27,190.51,542.04,Single-ply,SBD,M,
Boys,109.77,3,Cyrus Vaughn,San Antonio Cole,103.33,183.7,92.99,183.7,460.4,Single-ply,SBD,M,
Boys,109.77,4,Noah de la Torre,Pflugerville,101.88,183.7,113.4,156.49,453.59,Single-ply,SBD,M,
Boys,109.77,5,Marcus Tristan,Karnes City,109.32,154.22,99.79,154.22,408.23,Single-ply,SBD,M,
Boys,109.77,DQ,Erskine Arvie,Pflugerville,103.74,,,,,Single-ply,SBD,M,
Boys,109.77,DQ,Mark Alvizo,Poth,102.33,199.58,,,,Single-ply,SBD,M,
Boys,109.77,DQ,Hunter Sanchez,Castroville Medina Valley,109.04,,,,,Single-ply,SBD,M,
Boys,109.77,DQ,Geo Villafante,Castroville Medina Valley,108.86,,,,,Single-ply,SBD,M,
Boys,124.74,1,Jace Gonzales,Karnes City,112.85,274.42,136.08,235.87,646.37,Single-ply,SBD,M,
Boys,124.74,2,Gabriel Heimer,San Antonio Brooks Academy,122.2,226.8,156.49,176.9,560.19,Single-ply,SBD,M,
Boys,124.74,3,Nicolas Velez,San Antonio Southwest Legacy,124.74,195.04,120.2,219.99,535.24,Single-ply,SBD,M,
Boys,124.74,4,Matthew Mahlstede,Stockdale,112.58,183.7,131.54,204.12,519.36,Single-ply,SBD,M,
Boys,124.74,5,Moses Cortez,Castroville Medina Valley,124.01,151.95,120.2,149.69,421.84,Single-ply,SBD,M,
Boys,124.74,6,Brandon Laureano,San Antonio Brooks Academy,116.85,92.99,61.23,147.42,301.64,Single-ply,SBD,M,
Boys,124.74,DQ,Jayden Miller #2,Poteet,117.75,,,,,Single-ply,SBD,M,
Boys,124.74,DQ,Paul Zertuche,Castroville Medina Valley,118.84,199.58,,,,Single-ply,SBD,M,
Boys,124.74,DQ,Fernando Martinez,San Antonio Southwest Legacy,124.38,,,,,Single-ply,SBD,M,
Boys,124.74+,1,Spencer Payne,Castroville Medina Valley,128,272.16,197.31,260.82,730.28,Single-ply,SBD,M,
Boys,124.74+,2,Trace Ferguson,Castroville Medina Valley,125.92,249.48,210.92,215.46,675.85,Single-ply,SBD,M,
Boys,124.74+,3,Dalton Perry,Poth,126.01,242.67,142.88,229.06,614.62,Single-ply,SBD,M,
Boys,124.74+,4,Isaiah Uliarri,San Antonio Southwest Legacy,128.73,242.67,115.67,224.53,582.87,Single-ply,SBD,M,
Boys,124.74+,5,Salvador DelFierro,San Antonio Brooks Academy,148.87,190.51,165.56,226.8,582.87,Single-ply,SBD,M,
Boys,124.74+,6,Saul Cardenas,San Antonio East Central,151.14,95.25,92.99,127.01,315.25,Single-ply,SBD,M,
Boys,124.74+,DQ,Joey Cantu,Pflugerville,159.57,,,,,Single-ply,SBD,M,
Boys,124.74+,DQ,Jasean Wilson,Pflugerville,156.9,226.8,167.83,,,Single-ply,SBD,M,
