Division,WeightClassKg,Place,Name,Team,BodyweightKg,Best3SquatKg,Best3BenchKg,Best3DeadliftKg,TotalKg,Equipment,Event,Sex,BirthDate
Boys,51.71,1,Rey Medrano,Mathis,50.35,120.2,72.57,149.69,342.46,Single-ply,SBD,M,
Boys,51.71,2,Brandon Bowen,San Diego,50.89,120.2,68.04,120.2,308.44,Single-ply,SBD,M,
Boys,51.71,3,Cristian Cantu,Hebbronville,51.26,92.99,45.36,90.72,229.06,Single-ply,SBD,M,
Boys,51.71,4,Rolando Martinez,Hebbronville,46.54,81.65,40.82,102.06,224.53,Single-ply,SBD,M,
Boys,55.79,1,Matthew Lopez #2,Mathis,55.16,174.63,90.72,183.7,449.06,Single-ply,SBD,M,
Boys,55.79,2,Christian Pena,Benavides,54.34,142.88,97.52,158.76,399.16,Single-ply,SBD,M,
Boys,55.79,3,Josh Trevino,Corpus Christi West Oso,55.07,151.95,86.18,154.22,392.36,Single-ply,SBD,M,
Boys,55.79,4,Sergio Benavente,Benavides,53.34,106.59,61.23,136.08,303.91,Single-ply,SBD,M,
Boys,59.87,1,Robert Rios,Mathis,59.51,188.24,113.4,201.85,503.49,Single-ply,SBD,M,
Boys,59.87,2,Jacob Martinez,Hebbronville,59.42,138.35,95.25,174.63,408.23,Single-ply,SBD,M,
Boys,59.87,3,Seth Soliz,Hebbronville,58.6,136.08,81.65,163.29,381.02,Single-ply,SBD,M,
Boys,59.87,4,Jose Cantu,Benavides,59.78,131.54,68.04,181.44,381.02,Single-ply,SBD,M,
Boys,59.87,5,Alex Gonzalez #3,Banquete,57.52,136.08,83.91,149.69,369.68,Single-ply,SBD,M,
Boys,59.87,6,Gil Cruz,Laredo Johnson,58.33,104.33,61.23,111.13,276.69,Single-ply,SBD,M,
Boys,59.87,DQ,Joseph Riddell,Banquete,56.34,,,,,Single-ply,SBD,M,
Boys,67.13,1,Jody Ruiz,Mathis,65.23,188.24,149.69,181.44,519.36,Single-ply,SBD,M,
Boys,67.13,2,Elyon Ybarra,Mathis,62.69,181.44,129.27,183.7,494.42,Single-ply,SBD,M,
Boys,67.13,3,Rey Villastrigo,Laredo United,63.05,172.37,111.13,210.92,494.42,Single-ply,SBD,M,
Boys,67.13,4,Jose Saenz,San Diego,64.5,192.78,120.2,181.44,494.42,Single-ply,SBD,M,
Boys,67.13,5,Rolando Ramos,Hebbronville,64.05,163.29,106.59,167.83,437.72,Single-ply,SBD,M,
Boys,67.13,6,Tomas Morin,San Diego,66.32,170.1,95.25,154.22,419.57,Single-ply,SBD,M,
Boys,67.13,7,Diego Rodriguez,Hebbronville,63.41,129.27,88.45,158.76,376.48,Single-ply,SBD,M,
Boys,67.13,8,Michael Vidal,San Diego,66.22,120.2,92.99,136.08,349.27,Single-ply,SBD,M,
Boys,67.13,DQ,Jesus Gonzalez,Benavides,64.77,,,,,Single-ply,SBD,M,
Boys,67.13,DQ,Elijah Ybarra,Mathis,65.41,,,,,Single-ply,SBD,M,
Boys,67.13,DQ,Adrian Garza,Zapata,66.41,151.95,,,,Single-ply,SBD,M,
Boys,74.84,1,Tryston Colon,Laredo United,73.84,213.19,117.93,215.46,546.58,Single-ply,SBD,M,
Boys,74.84,2,Joe Chick,Zapata,71.94,206.38,129.27,204.12,539.77,Single-ply,SBD,M,
Boys,74.84,3,Eli Naranjo,Hebbronville,71.76,197.31,113.4,215.46,526.17,Single-ply,SBD,M,
Boys,74.84,4,Anthony Garcia,Mathis,74.39,188.24,131.54,204.12,523.9,Single-ply,SBD,M,
Boys,74.84,5,Lukas Salaiz,San Diego,71.85,181.44,117.93,183.7,483.08,Single-ply,SBD,M,
Boys,74.84,6,Julian Dominguez,Laredo Johnson,69.49,142.88,77.11,151.95,371.95,Single-ply,SBD,M,
Boys,74.84,7,Gabriel Martinez,Laredo Johnson,74.03,136.08,86.18,113.4,335.66,Single-ply,SBD,M,
Boys,74.84,DQ,Alex De La Fuente,Falfurrias,73.39,179.17,,,,Single-ply,SBD,M,
Boys,82.1,1,Caleb Marshall,Hebbronville,81.28,226.8,149.69,217.72,594.21,Single-ply,SBD,M,
Boys,82.1,2,Dale Baez,Hebbronville,81.69,238.14,142.88,204.12,585.13,Single-ply,SBD,M,
Boys,82.1,3,David Saldana,Zapata,75.11,199.58,115.67,222.26,537.51,Single-ply,SBD,M,
Boys,82.1,4,Matt Perez,Mathis,81.19,183.7,124.74,192.78,501.22,Single-ply,SBD,M,
Boys,82.1,5,Tyler Gilliam,San Diego,80.74,210.92,120.2,158.76,489.88,Single-ply,SBD,M,
Boys,82.1,6,Justin Navarro,Falfurrias,78.47,161.03,68.04,170.1,399.16,Single-ply,SBD,M,
Boys,82.1,7,Derrick Garcia,Falfurrias,75.61,151.95,102.06,142.88,396.89,Single-ply,SBD,M,
Boys,82.1,8,Andrew Mancha,Laredo Johnson,78.74,124.74,72.57,140.61,337.93,Single-ply,SBD,M,
Boys,82.1,9,Robert Medina,Hebbronville,77.38,113.4,63.5,117.93,294.84,Single-ply,SBD,M,
Boys,82.1,DQ,Cody Coe,Ben Bolt-Palito Blanco,79.56,,,,,Single-ply,SBD,M,
Boys,82.1,DQ,Deven Beltran,Banquete,75.57,,,,,Single-ply,SBD,M,
Boys,82.1,DQ,Ismael Tovar,Zapata,78.74,,,,,Single-ply,SBD,M,
Boys,82.1,DQ,Perci Alvarez,Zapata,81.47,,,,,Single-ply,SBD,M,
Boys,89.81,1,Derik DeLeon,Mathis,87.82,278.96,183.7,263.08,725.75,Single-ply,SBD,M,
Boys,89.81,2,Paul Baez,Hebbronville,89.36,217.72,142.88,190.51,551.11,Single-ply,SBD,M,
Boys,89.81,3,John Guevara,Banquete,83.28,165.56,117.93,188.24,471.74,Single-ply,SBD,M,
Boys,89.81,4,Eddie Rodriguez,Laredo Johnson,89.63,165.56,113.4,165.56,444.52,Single-ply,SBD,M,
Boys,89.81,5,Jeren Nava,Banquete,82.83,140.61,97.52,136.08,374.21,Single-ply,SBD,M,
Boys,89.81,6,Cesar Carrezon,Corpus Christi West Oso,89.72,127.01,88.45,149.69,365.14,Single-ply,SBD,M,
Boys,89.81,DQ,Josh Vasquez,Laredo Johnson,85.55,147.42,,,,Single-ply,SBD,M,
Boys,99.79,1,Marcos Gonzalez,Ben Bolt-Palito Blanco,99.16,274.42,172.37,256.28,703.07,Single-ply,SBD,M,
Boys,99.79,2,Juan Chavera,Falfurrias,91.9,272.16,163.29,226.8,662.24,Single-ply,SBD,M,
Boys,99.79,3,Roel de los Santos,Zapata,94.44,251.74,149.69,247.21,648.64,Single-ply,SBD,M,
Boys,99.79,4,Dante DeLeon,Mathis,96.34,247.21,158.76,222.26,628.23,Single-ply,SBD,M,
Boys,99.79,5,Alejandro Gómez,Hebbronville,91.72,204.12,131.54,165.56,501.22,Single-ply,SBD,M,
Boys,99.79,6,Ismael Salinas,Mathis,99.25,167.83,131.54,183.7,483.08,Single-ply,SBD,M,
Boys,99.79,7,Jacob Bernal,San Diego,96.98,183.7,124.74,161.03,469.47,Single-ply,SBD,M,
Boys,99.79,8,Ruben Gonzalez,San Diego,93.62,165.56,99.79,181.44,446.79,Single-ply,SBD,M,
Boys,99.79,DQ,Ronnie Guerra,Zapata,90.72,183.7,,,,Single-ply,SBD,M,
Boys,99.79,DQ,Dj Solorio,Banquete,94.17,210.92,,,,Single-ply,SBD,M,
Boys,99.79,DQ,Guadalupe Garcia #2,Zapata,99.43,170.1,111.13,,,Single-ply,SBD,M,
Boys,109.77,1,Mason Pena,Ben Bolt-Palito Blanco,107.23,204.12,138.35,217.72,560.19,Single-ply,SBD,M,
Boys,109.77,2,Josiah Gonzalez,Hebbronville,109.59,224.53,142.88,183.7,551.11,Single-ply,SBD,M,
Boys,109.77,3,Jaime Garcia #1,Zapata,108.82,213.19,142.88,183.7,539.77,Single-ply,SBD,M,
Boys,124.74,1,Carlos Gonzalez,Laredo United,118.93,213.19,167.83,183.7,564.72,Single-ply,SBD,M,
Boys,124.74,2,James Gomez,Banquete,113.49,235.87,111.13,197.31,544.31,Single-ply,SBD,M,
Boys,124.74,3,Robert Benavides,Zapata,120.29,192.78,142.88,192.78,528.44,Single-ply,SBD,M,
Boys,124.74,4,Jose Gonzalez #9,San Diego,112.04,204.12,115.67,190.51,510.29,Single-ply,SBD,M,
Boys,124.74,5,Joseph Gonzalez,Falfurrias,116.12,197.31,108.86,183.7,489.88,Single-ply,SBD,M,
Boys,124.74,6,Jayden Valderaz,Hebbronville,112.76,113.4,81.65,156.49,351.53,Single-ply,SBD,M,
Boys,124.74+,1,Claudio Padilla,Laredo Johnson,132.99,285.76,145.15,256.28,687.19,Single-ply,SBD,M,
Boys,124.74+,2,Juan Jose Valadez,Laredo Martin,134.72,263.08,149.69,231.33,644.1,Single-ply,SBD,M,
Boys,124.74+,3,Ademar Garcia,Hebbronville,133.45,260.82,136.08,215.46,612.35,Single-ply,SBD,M,
Boys,124.74+,DQ,Ramond Torres,Zapata,146.15,,,,,Single-ply,SBD,M,
