Sex,Equipment,Division,WeightClassKg,Name,BirthDate,BodyweightKg,Best3SquatKg,Best3BenchKg,Best3DeadliftKg,TotalKg,Event,Bench4Kg,Deadlift4Kg,Place
F,Raw,Amateur Youth,48,Juliana Janes,,45.36,47.63,22.23,60.33,130.18,SBD,,,1
F,Wraps,Amateur Open,48,Jordan Thompson #2,,47.85,85,42.5,105,232.5,SBD,,,1
F,Raw,Pro Open,56,Natalie Carr,,55.29,110,52.62,147.5,310.12,SBD,,,1
F,Wraps,Pro Open,56,Vanessa Torres,,55.79,215,105,165,485,SBD,,,1
F,Wraps,Amateur Open,60,Amanda Miley,,57.15,97.5,47.5,130,275,SBD,,,1
F,Wraps,Amateur Submasters 33-39,60,Amanda Miley,,57.15,97.5,47.5,130,275,SBD,,,1
F,Raw,Amateur Teen 18-19,60,Samantha Tapp,,59.28,105,62.5,127.5,295,SBD,,,1
F,Wraps,Amateur Open,67.5,Alyssa Fawkes,,67.31,120,70,150,340,SBD,,,1
F,Wraps,Amateur Masters 50-54,67.5,Lisa Baker #2,,60.28,85,45,97.5,227.5,SBD,,100,1
F,Wraps,Amateur Submasters 33-39,75,Elizabeth Rohrer,,70.17,102.5,52.5,117.5,272.5,SBD,,,1
F,Raw,Amateur Masters 40-44,75,Stacy Poe,,74.66,120,62.5,137.5,320,SBD,,,1
F,Wraps,Pro Open,82.5,Jasmine Scott,,82.46,160,90,180,430,SBD,,,1
F,Wraps,Pro Submasters 33-39,90,Diane Wade,,89.18,147.5,72.5,160,380,SBD,,162.5,1
F,Wraps,Amateur Juniors 20-23,100,Sydney McElwain,,97.02,92.5,45,130,267.5,SBD,,,1
F,Wraps,Amateur Open,110,Taylor Williams #3,,100.88,142.5,77.5,155,375,SBD,,,1
F,Raw,Amateur Submasters 33-39,110+,Nola McCall,,122.38,140,50,120,310,SBD,,,1
M,Raw,Amateur Teen 14-15,67.5,Colton Blackwell,,62.96,70,40,107.5,217.5,SBD,,,1
M,Raw,Amateur Masters 45-49,75,Robb Tapp,,73.8,137.5,117.5,175,430,SBD,,,1
M,Raw,Amateur Masters 40-44,75,Mikee Outland,,74.75,110,102.5,165,377.5,SBD,,,1
M,Wraps,Amateur Masters 40-44,75,Mike Gray,,74.25,107.5,92.5,150,350,SBD,,,1
M,Wraps,Amateur Teen 18-19,82.5,Shane Tominack,,81.69,200,112.5,212.5,525,SBD,,,1
M,Wraps,Amateur Juniors 20-23,82.5,Gavin Brown,,81.15,197.5,142.5,200,540,SBD,,,1
M,Wraps,Pro Open,82.5,Franklin McCoy,,79.88,260,160,242.5,662.5,SBD,,,2
M,Wraps,Pro Open,82.5,Joey DiFranco,,81.47,240,165,275,680,SBD,,,1
M,Wraps,Amateur Submasters 33-39,82.5,Shaun Charlton,,79.74,187.5,120,200,507.5,SBD,,,1
M,Wraps,Pro Submasters 33-39,82.5,Joey DiFranco,,81.47,240,165,275,680,SBD,,,1
M,Wraps,Pro Masters 40-44,82.5,Aaron Jones,,81.24,157.5,117.5,170,445,SBD,,,1
M,Wraps,Elite Open,90,Donovan Hamilton,,89.58,277.5,152.5,247.5,677.5,SBD,,,1
M,Wraps,Pro Open,90,Kevin Lamontagne,,88,235,185,242.5,662.5,SBD,,,1
M,Wraps,Pro Open,90,Luke Phillips,,89.63,207.5,160,252.5,620,SBD,,,2
M,Wraps,Pro Masters 40-44,90,Paul Rohrer,,87.91,252.5,160,245,657.5,SBD,,,1
M,Raw,Amateur Open,100,Nicholas Freed,,92.58,197.5,142.5,245,585,SBD,,,2
M,Wraps,Amateur Open,100,Matthew Marks,,98.52,250,125,267.5,642.5,SBD,,,1
M,Wraps,Amateur Submasters 33-39,100,Jayson Roberson,,97.48,202.5,147.5,232.5,582.5,SBD,,,1
M,Wraps,Amateur Masters 40-44,100,Joe Sale,,98.61,230,170,210,610,SBD,,,1
M,Wraps,Amateur Juniors 20-23,110,Wade Wolfe,,105.32,250,150,232.5,632.5,SBD,,,1
M,Wraps,Amateur Open,110,Joseph Wilnoty,,103.96,220,120,250,590,SBD,,,1
M,Wraps,Pro Open,110,Richard Clark,,108,272.5,175,272.5,720,SBD,,,1
M,Wraps,Pro Open,110,Andrew LaMance,1994-02-22,108.73,215,152.5,250,617.5,SBD,,255,2
M,Wraps,Military Pro Open,110,Andrew LaMance,1994-02-22,108.73,215,152.5,250,617.5,SBD,,255,1
M,Wraps,Pro Masters 45-49,110,Jonathan Poe,,107.46,265,162.5,290,717.5,SBD,,,1
M,Single-ply,Pro Masters 50-54,110,Marty Jackson,,106.41,232.5,182.5,232.5,647.5,SBD,,,1
M,Wraps,Amateur Juniors 20-23,125,Gola Crowe,,111.58,240,145,232.5,617.5,SBD,,,2
M,Wraps,Amateur Juniors 20-23,125,Ice Littlejohn,,116.57,237.5,160,242.5,640,SBD,,,1
M,Wraps,Amateur Open,125,Jacob Wilson,,124.1,167.5,117.5,192.5,477.5,SBD,,,1
M,Wraps,Pro Open,125,Ernest Collins,,120.29,240,175,265,680,SBD,,,2
M,Wraps,Military Pro Open,125,Ernest Collins,,120.29,240,175,265,680,SBD,,,1
M,Wraps,Amateur Submasters 33-39,125,Doug Crocker,,121.29,212.5,160,255,627.5,SBD,,,1
M,Wraps,Pro Submasters 33-39,125,Chase Millard,,122.83,282.5,182.5,300,765,SBD,,,1
M,Wraps,Pro Open,125,Chase Millard,,122.83,282.5,182.5,300,765,SBD,,,1
M,Wraps,Pro Masters 40-44,125,Kyle Duane,,118.84,182.5,150,245,577.5,SBD,,,1
M,Raw,Pro Masters 40-44,125,Joe Meuth,,122.74,260,205,287.5,752.5,SBD,,,1
M,Wraps,Amateur Juniors 20-23,125,Andrue Hobgood,,123.6,210,132.5,190,532.5,SBD,,,3
M,Wraps,Amateur Open,140,Damian Solis,,137.39,290,172.5,310,772.5,SBD,,,1
M,Wraps,Pro Open,140+,Alex Palmer #1,,163.52,320,205,282.5,807.5,SBD,,,1
M,Wraps,Amateur Open,140+,Matthew Lewis,,154.31,272.5,180,282.5,735,SBD,,,1
M,Raw,Pro Open,82.5,Brandon McReynolds,,81.42,,142.5,,142.5,B,,,1
M,Raw,Pro Masters 40-44,82.5,Brandon McReynolds,,81.42,,142.5,,142.5,B,,,1
M,Raw,Amateur Open,125,Sean Franklin,,121.06,,185,,185,B,,,1
M,Raw,Amateur Masters 45-49,125,Sean Franklin,,121.06,,185,,185,B,,,1
M,Raw,Pro Open,140+,Lonnie Dickinson,,160.93,,257.5,,257.5,B,265,,1
M,Raw,Pro Masters 50-54,140+,Lonnie Dickinson,,160.93,,257.5,,257.5,B,265,,1
M,Raw,Amateur Youth,52,Nicholai Solis,,50.94,,,82.5,82.5,D,,,1
M,Single-ply,Pro Open,90,Zach Marstiller,,89.49,,,300,300,D,,,1
M,Raw,Pro Masters 40-44,110,Reggie Viernes,,108.09,,160,300,460,BD,,,1
M,Single-ply,Pro Open,90,Zach Marstiller,,89.49,332.5,,,332.5,S,,,1
